<?xml version="1.0" encoding="utf-8"?>
<!-- Generator: Adobe Illustrator 16.0.0, SVG Export Plug-In . SVG Version: 6.00 Build 0)  -->
<!DOCTYPE svg PUBLIC "-//W3C//DTD SVG 1.1//EN" "http://www.w3.org/Graphics/SVG/1.1/DTD/svg11.dtd">
<svg version="1.1" id="Layer_1" xmlns="http://www.w3.org/2000/svg" xmlns:xlink="http://www.w3.org/1999/xlink" x="0px" y="0px"
	 width="30px" height="30px" viewBox="0 0 30 30" enable-background="new 0 0 30 30" xml:space="preserve">
<g>
	<g>
		<path fill="#5B4101" d="M15.576,6.924c-0.12,0-0.181-0.031-0.288-0.093C15.072,6.707,15,6.478,15,6.229v-4.12
			c0-0.249,0.072-0.478,0.288-0.603c0.214-0.124,0.45-0.124,0.665,0l3.554,2.062c0.215,0.124,0.34,0.353,0.34,0.602
			c0,0.249-0.136,0.478-0.352,0.602l-3.57,2.059C15.817,6.893,15.695,6.924,15.576,6.924z M16.271,3.313v1.712l1.483-0.855
			L16.271,3.313z"/>
	</g>
	<g>
		<path fill="#5B4101" d="M15.306,29.757c-7.18,0-13.021-5.842-13.021-13.022c0-7.06,5.531-12.771,12.592-13.001
			c0.336-0.046,0.704,0.287,0.717,0.672c0.013,0.384-0.288,0.705-0.672,0.716C8.615,5.329,3.675,10.431,3.675,16.735
			c0,6.414,5.218,11.632,11.631,11.632c6.414,0,11.632-5.218,11.632-11.632c0-3.533-1.585-6.836-4.348-9.061
			c-0.299-0.241-0.346-0.679-0.105-0.978c0.242-0.298,0.679-0.346,0.978-0.105c3.092,2.49,4.866,6.187,4.866,10.144
			C28.329,23.915,22.487,29.757,15.306,29.757z"/>
	</g>
	<g>
		<g>
			<path fill="#5B4101" d="M7.187,16.383c-0.108,0.042-0.212,0.081-0.315,0.111c-0.103,0.03-0.2,0.054-0.292,0.073
				c-0.09,0.017-0.174,0.03-0.252,0.037c-0.077,0.008-0.141,0.013-0.193,0.013c-0.135,0-0.236-0.032-0.306-0.094
				c-0.068-0.064-0.103-0.178-0.103-0.343c0-0.073,0.01-0.136,0.032-0.189c0.02-0.052,0.053-0.097,0.1-0.135
				c0.046-0.039,0.106-0.069,0.177-0.095c0.075-0.025,0.163-0.047,0.267-0.068L6.6,15.626c0.147-0.032,0.268-0.081,0.361-0.146
				c0.091-0.065,0.168-0.139,0.228-0.218C7.25,15.182,7.3,15.1,7.342,15.016c0.041-0.084,0.086-0.162,0.135-0.23
				c0.049-0.069,0.108-0.125,0.176-0.17c0.068-0.044,0.16-0.066,0.274-0.066c0.065,0,0.125,0.007,0.181,0.022
				c0.055,0.016,0.104,0.044,0.147,0.086c0.042,0.041,0.076,0.097,0.1,0.167c0.025,0.072,0.038,0.162,0.038,0.27v4.624
				c0,0.104-0.011,0.2-0.031,0.286c-0.021,0.087-0.055,0.162-0.103,0.224c-0.047,0.062-0.108,0.11-0.186,0.144
				c-0.077,0.036-0.172,0.052-0.283,0.052c-0.113,0-0.208-0.016-0.284-0.052c-0.077-0.034-0.139-0.083-0.185-0.144
				c-0.048-0.062-0.082-0.137-0.103-0.224c-0.021-0.085-0.032-0.182-0.032-0.286V16.383z"/>
		</g>
		<g>
			<path fill="#5B4101" d="M10.195,17.459c0-0.159,0.002-0.321,0.01-0.49c0.007-0.168,0.021-0.337,0.042-0.506
				s0.054-0.336,0.096-0.5c0.042-0.164,0.099-0.318,0.172-0.465c0.07-0.146,0.158-0.282,0.263-0.407
				c0.104-0.124,0.23-0.23,0.375-0.321s0.316-0.163,0.508-0.213c0.193-0.051,0.414-0.076,0.661-0.076
				c0.334,0,0.618,0.044,0.853,0.131c0.235,0.089,0.432,0.208,0.592,0.36c0.157,0.149,0.282,0.325,0.376,0.523
				c0.093,0.199,0.162,0.409,0.209,0.629c0.047,0.221,0.077,0.445,0.092,0.675c0.014,0.231,0.02,0.449,0.02,0.659
				c0,0.22-0.006,0.446-0.02,0.68c-0.015,0.234-0.045,0.459-0.092,0.681c-0.047,0.221-0.116,0.43-0.209,0.628
				c-0.094,0.198-0.219,0.37-0.376,0.518c-0.16,0.148-0.357,0.265-0.592,0.352c-0.235,0.085-0.519,0.131-0.853,0.131
				c-0.248,0-0.468-0.025-0.661-0.075c-0.192-0.049-0.363-0.117-0.508-0.207c-0.145-0.087-0.271-0.192-0.375-0.316
				c-0.105-0.121-0.193-0.254-0.263-0.4c-0.073-0.147-0.131-0.301-0.172-0.464c-0.042-0.165-0.075-0.331-0.096-0.503
				c-0.021-0.171-0.035-0.343-0.042-0.516C10.198,17.793,10.195,17.624,10.195,17.459z M11.418,17.459
				c0,0.119,0.002,0.25,0.005,0.391c0.002,0.141,0.014,0.283,0.032,0.426c0.017,0.144,0.044,0.28,0.082,0.413
				c0.038,0.132,0.09,0.25,0.156,0.353c0.067,0.103,0.152,0.185,0.254,0.247c0.103,0.062,0.228,0.094,0.378,0.094
				c0.152,0,0.281-0.032,0.384-0.094c0.105-0.062,0.19-0.144,0.259-0.247c0.069-0.103,0.121-0.22,0.158-0.353
				c0.038-0.133,0.065-0.27,0.082-0.413c0.019-0.143,0.029-0.285,0.031-0.426c0.004-0.141,0.005-0.271,0.005-0.391
				c0-0.117-0.001-0.246-0.005-0.385c-0.001-0.14-0.012-0.279-0.031-0.421c-0.017-0.14-0.044-0.277-0.082-0.408
				c-0.038-0.132-0.089-0.249-0.158-0.351c-0.069-0.102-0.153-0.182-0.259-0.243c-0.103-0.062-0.231-0.092-0.384-0.092
				c-0.148,0-0.272,0.03-0.373,0.092c-0.102,0.062-0.187,0.142-0.254,0.243c-0.068,0.102-0.121,0.218-0.159,0.351
				c-0.037,0.131-0.064,0.268-0.083,0.408c-0.017,0.142-0.027,0.282-0.032,0.421C11.42,17.214,11.418,17.342,11.418,17.459z"/>
		</g>
		<g>
			<path fill="#5B4101" d="M14.998,17.459c0-0.159,0.003-0.321,0.011-0.49c0.006-0.168,0.021-0.337,0.042-0.506
				c0.022-0.169,0.054-0.336,0.097-0.5c0.041-0.164,0.099-0.318,0.169-0.465c0.073-0.146,0.161-0.282,0.266-0.407
				c0.104-0.124,0.229-0.23,0.375-0.321c0.146-0.091,0.314-0.163,0.507-0.213c0.194-0.051,0.414-0.076,0.662-0.076
				c0.333,0,0.618,0.044,0.854,0.131c0.234,0.089,0.431,0.208,0.591,0.36c0.158,0.149,0.284,0.325,0.376,0.523
				c0.092,0.199,0.162,0.409,0.21,0.629c0.046,0.221,0.078,0.445,0.092,0.675c0.013,0.231,0.019,0.449,0.019,0.659
				c0,0.22-0.006,0.446-0.019,0.68c-0.014,0.234-0.045,0.459-0.092,0.681c-0.048,0.221-0.118,0.43-0.21,0.628
				s-0.218,0.37-0.376,0.518c-0.16,0.148-0.357,0.265-0.591,0.352c-0.236,0.085-0.52,0.131-0.854,0.131
				c-0.248,0-0.467-0.025-0.662-0.075c-0.193-0.049-0.361-0.117-0.507-0.207c-0.146-0.087-0.27-0.192-0.375-0.316
				c-0.105-0.121-0.193-0.254-0.266-0.4c-0.071-0.147-0.128-0.301-0.169-0.464c-0.043-0.165-0.075-0.331-0.097-0.503
				c-0.021-0.171-0.037-0.343-0.042-0.516C15.001,17.793,14.998,17.624,14.998,17.459z M16.22,17.459
				c0,0.119,0.003,0.25,0.006,0.391c0.002,0.141,0.013,0.283,0.03,0.426c0.018,0.144,0.045,0.28,0.083,0.413
				c0.038,0.132,0.089,0.25,0.158,0.353c0.066,0.103,0.151,0.185,0.253,0.247c0.103,0.062,0.228,0.094,0.377,0.094
				c0.153,0,0.28-0.032,0.385-0.094c0.103-0.062,0.19-0.144,0.258-0.247c0.068-0.103,0.121-0.22,0.157-0.353
				c0.039-0.133,0.066-0.27,0.083-0.413c0.018-0.143,0.028-0.285,0.031-0.426c0.003-0.141,0.004-0.271,0.004-0.391
				c0-0.117-0.001-0.246-0.004-0.385c-0.003-0.14-0.013-0.279-0.031-0.421c-0.017-0.14-0.044-0.277-0.083-0.408
				c-0.036-0.132-0.089-0.249-0.157-0.351s-0.155-0.182-0.258-0.243c-0.105-0.062-0.232-0.092-0.385-0.092
				c-0.147,0-0.271,0.03-0.373,0.092c-0.101,0.062-0.186,0.142-0.254,0.243c-0.068,0.102-0.121,0.218-0.158,0.351
				c-0.038,0.131-0.065,0.268-0.083,0.408c-0.017,0.142-0.028,0.282-0.031,0.421C16.224,17.214,16.22,17.342,16.22,17.459z"/>
		</g>
		<g>
			<path fill="#5B4101" d="M19.801,17.459c0-0.159,0.005-0.321,0.011-0.49c0.008-0.168,0.021-0.337,0.043-0.506
				c0.022-0.169,0.054-0.336,0.096-0.5c0.043-0.164,0.101-0.318,0.173-0.465c0.071-0.146,0.16-0.282,0.263-0.407
				c0.105-0.124,0.229-0.23,0.375-0.321c0.145-0.091,0.315-0.163,0.508-0.213c0.193-0.051,0.414-0.076,0.662-0.076
				c0.332,0,0.616,0.044,0.851,0.131c0.236,0.089,0.433,0.208,0.592,0.36c0.159,0.149,0.284,0.325,0.376,0.523
				c0.093,0.199,0.163,0.409,0.21,0.629c0.047,0.221,0.078,0.445,0.091,0.675c0.014,0.231,0.02,0.449,0.02,0.659
				c0,0.22-0.006,0.446-0.02,0.68s-0.044,0.459-0.091,0.681c-0.047,0.221-0.117,0.43-0.21,0.628
				c-0.092,0.198-0.217,0.37-0.376,0.518c-0.16,0.148-0.356,0.265-0.592,0.352c-0.235,0.085-0.52,0.131-0.851,0.131
				c-0.249,0-0.469-0.025-0.662-0.075c-0.193-0.049-0.363-0.117-0.508-0.207c-0.147-0.087-0.271-0.192-0.375-0.316
				c-0.104-0.121-0.192-0.254-0.263-0.4c-0.072-0.147-0.129-0.301-0.173-0.464c-0.042-0.165-0.073-0.331-0.096-0.503
				c-0.021-0.171-0.035-0.343-0.043-0.516C19.806,17.793,19.801,17.624,19.801,17.459z M21.024,17.459
				c0,0.119,0.002,0.25,0.004,0.391c0.003,0.141,0.013,0.283,0.031,0.426c0.018,0.144,0.046,0.28,0.083,0.413
				c0.038,0.132,0.09,0.25,0.156,0.353c0.068,0.103,0.153,0.185,0.255,0.247c0.103,0.062,0.228,0.094,0.379,0.094
				c0.151,0,0.279-0.032,0.383-0.094c0.104-0.062,0.191-0.144,0.259-0.247c0.068-0.103,0.12-0.22,0.158-0.353
				c0.036-0.133,0.065-0.27,0.084-0.413c0.017-0.143,0.027-0.285,0.03-0.426c0.002-0.141,0.003-0.271,0.003-0.391
				c0-0.117-0.001-0.246-0.003-0.385c-0.003-0.14-0.013-0.279-0.03-0.421c-0.019-0.14-0.048-0.277-0.084-0.408
				c-0.038-0.132-0.089-0.249-0.158-0.351c-0.068-0.102-0.154-0.182-0.259-0.243c-0.104-0.062-0.232-0.092-0.383-0.092
				c-0.148,0-0.273,0.03-0.374,0.092c-0.102,0.062-0.187,0.142-0.255,0.243c-0.068,0.102-0.12,0.218-0.157,0.351
				c-0.038,0.131-0.065,0.268-0.083,0.408c-0.018,0.142-0.029,0.282-0.032,0.421C21.027,17.214,21.024,17.342,21.024,17.459z"/>
		</g>
	</g>
</g>
</svg>
