<?xml version="1.0" encoding="utf-8"?>
<!-- Generator: Adobe Illustrator 16.0.0, SVG Export Plug-In . SVG Version: 6.00 Build 0)  -->
<!DOCTYPE svg PUBLIC "-//W3C//DTD SVG 1.1//EN" "http://www.w3.org/Graphics/SVG/1.1/DTD/svg11.dtd">
<svg version="1.1" id="Layer_1" xmlns="http://www.w3.org/2000/svg" xmlns:xlink="http://www.w3.org/1999/xlink" x="0px" y="0px"
	 width="30px" height="30px" viewBox="0 0 30 30" enable-background="new 0 0 30 30" xml:space="preserve">
<g>
	<path fill="#b38006" d="M7.879,25.621h14.241c0.43,0,0.778-0.348,0.778-0.777v-8.159c0-0.429-0.348-0.778-0.778-0.778H7.879
		c-0.429,0-0.777,0.349-0.777,0.778v8.159C7.102,25.273,7.451,25.621,7.879,25.621L7.879,25.621z M8.657,17.462h12.686v6.604H8.657
		V17.462z M8.657,17.462"/>
	<path fill="#b38006" d="M3.278,1.434H1.066c-0.43,0-0.777,0.349-0.777,0.777v25.577c0,0.43,0.348,0.778,0.777,0.778h2.211
		c0.429,0,0.777-0.348,0.777-0.778v-0.38h0.868v0.38c0,0.43,0.349,0.778,0.777,0.778h18.599c0.43,0,0.778-0.348,0.778-0.778v-0.38
		h0.868v0.38c0,0.43,0.349,0.778,0.778,0.778h2.211c0.429,0,0.777-0.348,0.777-0.778V2.211c0-0.429-0.348-0.777-0.777-0.777h-2.211
		c-0.429,0-0.778,0.349-0.778,0.777v0.307h-0.868V2.211c0-0.429-0.348-0.777-0.778-0.777H5.701c-0.429,0-0.777,0.349-0.777,0.777
		v0.307H4.055V2.211C4.055,1.783,3.707,1.434,3.278,1.434L3.278,1.434z M5.701,4.074c0.43,0,0.777-0.349,0.777-0.778V2.989h17.044
		v0.307c0,0.43,0.348,0.778,0.777,0.778h2.423c0.43,0,0.777-0.349,0.777-0.778V2.989h0.656v24.021H27.5v-0.38
		c0-0.43-0.348-0.778-0.777-0.778h-2.423c-0.43,0-0.777,0.348-0.777,0.778v0.38H6.478v-0.38c0-0.43-0.347-0.778-0.777-0.778H3.278
		c-0.43,0-0.778,0.348-0.778,0.778v0.38H1.844V2.989H2.5v0.307c0,0.43,0.348,0.778,0.778,0.778H5.701z M5.701,4.074"/>
	<path fill="#b38006" d="M7.879,14.093h14.241c0.43,0,0.778-0.348,0.778-0.778V5.157c0-0.43-0.348-0.777-0.778-0.777H7.879
		c-0.429,0-0.777,0.348-0.777,0.777v8.158C7.102,13.745,7.451,14.093,7.879,14.093L7.879,14.093z M8.657,5.934h12.686v6.604H8.657
		V5.934z M8.657,5.934"/>
	<path fill="#b38006" d="M3.879,23.659H5.1c0.227,0,0.41-0.184,0.41-0.411v-1.109c0-0.227-0.184-0.411-0.41-0.411H3.879
		c-0.227,0-0.411,0.184-0.411,0.411v1.109C3.468,23.475,3.652,23.659,3.879,23.659L3.879,23.659z M3.879,23.659"/>
	<path fill="#b38006" d="M3.879,18.53H5.1c0.227,0,0.41-0.184,0.41-0.412V17.01c0-0.226-0.184-0.411-0.41-0.411H3.879
		c-0.227,0-0.411,0.185-0.411,0.411v1.108C3.468,18.346,3.652,18.53,3.879,18.53L3.879,18.53z M3.879,18.53"/>
	<path fill="#b38006" d="M3.879,13.4H5.1c0.227,0,0.41-0.185,0.41-0.411v-1.108c0-0.227-0.184-0.411-0.41-0.411H3.879
		c-0.227,0-0.411,0.184-0.411,0.411v1.108C3.468,13.216,3.652,13.4,3.879,13.4L3.879,13.4z M3.879,13.4"/>
	<path fill="#b38006" d="M3.879,8.271H5.1c0.227,0,0.41-0.183,0.41-0.41V6.752c0-0.227-0.184-0.411-0.41-0.411H3.879
		c-0.227,0-0.411,0.185-0.411,0.411V7.86C3.468,8.087,3.652,8.271,3.879,8.271L3.879,8.271z M3.879,8.271"/>
	<path fill="#b38006" d="M24.901,23.659h1.221c0.227,0,0.411-0.184,0.411-0.411v-1.109c0-0.227-0.184-0.411-0.411-0.411h-1.221
		c-0.227,0-0.412,0.184-0.412,0.411v1.109C24.489,23.475,24.675,23.659,24.901,23.659L24.901,23.659z M24.901,23.659"/>
	<path fill="#b38006" d="M24.901,18.53h1.221c0.227,0,0.411-0.184,0.411-0.412V17.01c0-0.226-0.184-0.411-0.411-0.411h-1.221
		c-0.227,0-0.412,0.185-0.412,0.411v1.108C24.489,18.346,24.675,18.53,24.901,18.53L24.901,18.53z M24.901,18.53"/>
	<path fill="#b38006" d="M24.901,13.4h1.221c0.227,0,0.411-0.185,0.411-0.411v-1.108c0-0.227-0.184-0.411-0.411-0.411h-1.221
		c-0.227,0-0.412,0.184-0.412,0.411v1.108C24.489,13.216,24.675,13.4,24.901,13.4L24.901,13.4z M24.901,13.4"/>
	<path fill="#b38006" d="M24.901,8.271h1.221c0.227,0,0.411-0.183,0.411-0.41V6.752c0-0.227-0.184-0.411-0.411-0.411h-1.221
		c-0.227,0-0.412,0.185-0.412,0.411V7.86C24.489,8.087,24.675,8.271,24.901,8.271L24.901,8.271z M24.901,8.271"/>
</g>
</svg>
