<?xml version="1.0" encoding="UTF-8"?>
<svg width="387px" height="61px" viewBox="0 0 387 61" version="1.1" xmlns="http://www.w3.org/2000/svg" xmlns:xlink="http://www.w3.org/1999/xlink">
    <!-- Generator: Sketch 43.2 (39069) - http://www.bohemiancoding.com/sketch -->
    <title>headerSplite</title>
    <desc>Created with Sketch.</desc>
    <defs></defs>
    <g id="Page-1" stroke="none" stroke-width="1" fill="none" fill-rule="evenodd">
        <g id="headerSplite">
            <g id="icon" transform="translate(360.000000, 0.000000)" fill-rule="nonzero" fill="#684D07">
                <path d="M5.24501725,14.6211753 L9.24113556,14.6211753 L8.15469974,17.3588904 L7.59055343,18.7804854 L12.1948516,13.1589485 L9.46155001,13.1589485 L10.8798234,10.2760751 L14.9513645,2 L11.4545496,2 L5.24501725,14.6211753 Z M2.03207835,16.6211753 L10.2095836,0 L18.1642227,0 L12.6744082,11.1589484 L16.4181608,11.1589485 L0.986469966,30 L6.29572784,16.6211753 L2.03207835,16.6211753 Z" id="Page-1"></path>
                <path d="M20.8954467,16.1661825 L20.5967751,18.4280075 L20.4120343,19.8270409 L23.2397048,15.6315825 L21.3740213,15.6315825 L21.7267781,13.3287475 L21.9036483,12.1741195 L18.9914343,16.1661825 L20.8954467,16.1661825 Z M15.0568137,18.1661825 L25.1227863,4.36774722 L23.7037179,13.6315825 L26.9995214,13.6315825 L17.3154421,27.9999999 L18.6139873,18.1661825 L15.0568137,18.1661825 Z" id="Page-1"></path>
            </g>
            <g>
                <g id="Page-1" transform="translate(317.000000, 0.000000)">
                    <path d="M0.53144,14.3471672 C0.53144,12.6241702 1.61904,11.1545433 3.14704,10.5796798 C2.96664,10.1342901 2.86664,9.64866384 2.86664,9.13913478 C2.86664,7.00779742 4.60184,5.27962144 6.74144,5.27962144 C6.87024,5.27962144 6.99704,5.28599553 7.12264,5.29834534 C7.51144,3.65143904 8.99544,2.42522289 10.76784,2.42522289 C11.42744,2.42522289 12.04664,2.5953315 12.58544,2.89332035 C13.18304,1.70773904 14.41424,0.893847036 15.83704,0.893847036 C16.92624,0.893847036 17.90304,1.37150563 18.56984,2.12723404 C19.23944,1.35596878 20.22824,0.866757141 21.33224,0.866757141 C22.71584,0.866757141 23.91904,1.63324183 24.53864,2.76265144 C25.12304,2.32005036 25.85224,2.05711902 26.64304,2.05711902 C28.31064,2.05711902 29.70384,3.22437481 30.04544,4.78284056 C30.33664,4.70953849 30.64024,4.67009879 30.95384,4.67009879 C32.99544,4.67009879 34.65064,6.31899699 34.65064,8.35233267 C34.65064,8.59534497 34.62664,8.83198317 34.58144,9.06145052 C35.75984,9.52954798 36.59264,10.6752912 36.59264,12.0154443 C36.59264,12.5217863 36.47304,13.0002416 36.26184,13.425314 C36.98064,14.275857 37.41424,15.3729978 37.41424,16.5717257 C37.41424,19.2723492 35.21584,21.4622486 32.50384,21.4622486 C31.55064,21.4622486 30.66144,21.1909512 29.90824,20.7224554 C29.24544,22.4737374 27.54784,23.7194743 25.55744,23.7194743 C24.68984,23.7194743 23.87744,23.4820393 23.18264,23.0693168 C22.64424,23.9234452 21.69104,24.4919347 20.60424,24.4919347 C19.82464,24.4919347 19.11384,24.1995231 18.57544,23.7194743 C18.33464,25.7802982 16.57664,27.3797972 14.44264,27.3797972 C13.15104,27.3797972 11.99704,26.793779 11.23384,25.8747145 C10.59584,26.6746631 9.61104,27.188176 8.50584,27.188176 C6.58224,27.188176 5.02304,25.6348892 5.02304,23.7194743 C5.02304,23.513113 5.04144,23.3107355 5.07624,23.1143338 C5.05864,23.1147322 5.04024,23.1159273 5.02304,23.1159273 C3.09944,23.1159273 1.53984,21.5626405 1.53984,19.6468272 C1.53984,18.8851231 1.78704,18.1811842 2.20504,17.6087109 C1.19104,16.8772837 0.53144,15.6893122 0.53144,14.3471672" id="Fill-1"></path>
                    <g id="Group-5" transform="translate(0.000000, 0.338464)" stroke="#5B412E" stroke-width="0.5" fill="#6B4F07" fill-rule="nonzero">
                        <path d="M30.1756,19.9287613 C29.9428,19.8044665 29.5724,19.84789 29.4508,20.1179922 C28.3672,22.5266026 25.8716,23.506221 23.45,22.2756227 C23.2572,22.1772226 22.9568,22.1660679 22.808,22.3580875 C21.7272,23.7464446 20.2088,23.9416512 18.8428,22.9253818 C18.5804,22.7297768 18.1228,22.9273737 18.0648,23.240501 C17.4704,26.4295394 13.9188,27.5720956 11.6084,25.1630868 C11.4132,24.9587175 11.0548,24.9579207 10.8592,25.1630868 C8.6408,27.4928178 5.3336,25.8463099 5.6064,22.7755906 C5.6316,22.4951305 5.3464,22.2397684 5.0764,22.2481344 C2.4776,22.3278106 1.4568,19.4837699 2.6624,17.5364845 C2.7796,17.347652 2.756,17.0464761 2.5796,16.8974817 C1.6216,16.0871751 1.1692,15.3326418 1.0612,14.0088224 C1.172,12.4208764 1.9784,11.3500288 3.4144,10.6966843 C3.6244,10.6010729 3.72,10.3098565 3.658,10.1011049 C2.9256,7.64787587 4.4488,5.35559266 7.1224,5.48745671 C7.3628,5.49940813 7.5644,5.31655134 7.6336,5.10023056 C8.2924,3.02546327 10.2832,2.09404892 12.3176,3.01072318 C12.584,3.13023742 12.882,3.08641553 13.0428,2.82109391 C14.2204,0.879784193 16.5248,0.557494114 18.1952,2.16177366 C18.4044,2.36295597 18.7352,2.36574464 18.9444,2.16177366 C20.5752,0.572632585 22.8384,0.782977655 24.0812,2.690425 C24.2332,2.92387616 24.5544,3.04020336 24.8056,2.88005427 C26.7128,1.66021221 28.8852,2.42988395 29.5344,4.5843274 C29.6228,4.8771373 29.8972,5.00700944 30.186,4.95322803 C32.6404,4.49269981 34.2788,6.39337468 34.0516,8.72310569 C34.0352,8.89440944 34.1624,9.10316099 34.3144,9.17885335 C34.9044,9.40672717 35.3712,9.80231932 35.7152,10.3656298 C36.5476,11.5663496 35.7324,11.889038 35.7324,13.0865708 C35.7328,13.1817838 35.7568,13.2710211 35.8044,13.3530875 C36.4744,14.2649812 36.802,15.0892311 36.8844,16.2333808 C37.1436,19.8287677 32.9228,21.3880302 30.1756,19.9287613 M37.874,15.38722 C37.7372,14.7609653 36.8036,13.1415473 37.0172,12.5527405 C37.4056,11.4822912 36.9268,10.261254 36.3252,9.39397899 C36.0636,9.01591559 35.6956,8.77409844 35.3316,8.50837843 C35.0836,8.32671678 35.0804,7.14511928 35.0048,6.81008102 C34.5364,4.72097202 32.3624,3.71346694 30.4008,3.87242088 C29.4544,1.54229149 26.9404,0.582592105 24.6872,1.7331159 C23.1164,-0.223332285 20.5288,-0.497816667 18.5672,1.08853574 C16.5564,-0.508174569 13.9048,-0.166762209 12.384,1.91159051 C11.0184,1.42317563 9.474,1.40883392 8.2716,2.36933006 C7.6388,2.87487532 7.0336,3.49156882 6.7808,4.28753369 C6.734,4.43413783 4.7452,4.89745472 4.3644,5.10700303 C2.9032,5.91412256 1.9484,8.07613525 2.4284,9.68519536 C2.5396,10.0580798 1.1948,10.8978666 0.97,11.2153761 C0.3864,12.0412195 0.1116,12.8463471 0.0192,13.8267623 C0.0044,13.8809421 -0.0036,13.9403009 0.0016,14.0088224 C-0.0024,14.0717665 0.0052,14.1271415 0.018,14.1785326 C0.1068,15.1075566 0.3084,16.0369791 0.946,16.7707966 C1.7672,17.7157558 0.956,18.6419912 1.0556,19.8709961 C1.198,21.6286522 2.8156,23.0576442 4.5308,23.2727698 C4.5764,26.7972449 8.5504,28.5453399 11.2332,26.260626 C13.8752,28.5501205 17.8308,27.505566 18.908,24.2189243 C19.6568,24.6296549 20.5448,24.8643012 21.3788,24.5961909 C22.4896,24.2396401 23.034,23.3217707 24.1644,23.7193547 C26.538,24.5543609 29.0072,23.115011 30.1472,21.0820737 C32.3084,22.0230492 34.5344,21.6856207 36.3508,20.0642108 C37.2424,19.2682459 37.692,18.0850549 37.892,16.9436938 C37.9784,16.4520919 37.9812,15.8732446 37.874,15.38722" id="Fill-3"></path>
                    </g>
                    <path d="M18.96972,9.28705358 L18.96972,2.12695518 L18.16972,2.12695518 L18.16972,9.02969957 L15.78172,12.327496 C15.68852,12.2988125 15.59092,12.2788935 15.48812,12.2788935 C14.93532,12.2788935 14.48772,12.7246816 14.48772,13.2752439 C14.48772,13.8254078 14.93532,14.2715943 15.48812,14.2715943 C16.04052,14.2715943 16.48852,13.8254078 16.48852,13.2752439 C16.48852,13.1222657 16.45132,12.9796454 16.38972,12.8501716 L18.96972,9.28705358 Z" id="Fill-6" fill="#6B4F07" fill-rule="nonzero"></path>
                    <path d="M29.18456,13.2751244 L26.05176,15.2941184 C25.90096,15.2028892 25.72616,15.1475142 25.53656,15.1475142 C24.98376,15.1475142 24.53576,15.5937008 24.53576,16.1438647 C24.53576,16.694427 24.98376,17.1406135 25.53656,17.1406135 C26.08896,17.1406135 26.53696,16.694427 26.53696,16.1438647 C26.53696,16.0749448 26.52976,16.0080168 26.51656,15.9430807 L29.42056,14.071886 L36.29296,14.071886 L36.29296,13.2751244 L29.18456,13.2751244 Z" id="Fill-8" fill="#6B4F07" fill-rule="nonzero"></path>
                    <path d="M12.98536,5.38240369 L12.98536,2.89332035 L12.18536,2.89332035 L12.18536,5.38240369 C11.83216,5.53617868 11.58456,5.88635542 11.58456,6.29469576 C11.58456,6.84485966 12.03256,7.29144456 12.58496,7.29144456 C13.13776,7.29144456 13.58576,6.84485966 13.58576,6.29469576 C13.58576,5.88635542 13.33856,5.53617868 12.98536,5.38240369" id="Fill-10" fill="#6B4F07" fill-rule="nonzero"></path>
                    <path d="M25.53652,11.4441263 C25.53652,11.9942902 25.98412,12.4404768 26.53652,12.4404768 C27.08932,12.4404768 27.53732,11.9942902 27.53732,11.4441263 C27.53732,10.8939624 27.08932,10.4477759 26.53652,10.4477759 C26.53372,10.4477759 26.53092,10.4485727 26.52812,10.4485727 L24.93852,6.16558053 L24.93852,2.7626116 L24.13852,2.7626116 L24.13852,6.30820086 L25.79772,10.7780336 C25.63692,10.9545163 25.53652,11.1867723 25.53652,11.4441263" id="Fill-12" fill="#6B4F07" fill-rule="nonzero"></path>
                    <path d="M28.53732,8.28759579 C29.09012,8.28759579 29.53812,7.84140927 29.53812,7.29124537 C29.53812,7.07094077 29.46372,6.8689617 29.34292,6.70443042 L30.38732,4.98940101 L29.70372,4.57628011 L28.64972,6.30604961 C28.61252,6.30166742 28.57612,6.29489495 28.53732,6.29489495 C27.98492,6.29489495 27.53732,6.74068308 27.53732,7.29124537 C27.53732,7.84140927 27.98492,8.28759579 28.53732,8.28759579" id="Fill-14" fill="#6B4F07" fill-rule="nonzero"></path>
                    <path d="M32.08964,12.1939986 C32.64204,12.1939986 33.09004,11.747812 33.09004,11.1976481 C33.09004,11.0952643 33.07004,10.9984577 33.04124,10.9052366 L34.95844,9.43481302 L34.47004,8.80337943 L32.51804,10.3004945 C32.38764,10.2387455 32.24364,10.2012977 32.08964,10.2012977 C31.53684,10.2012977 31.08884,10.6470858 31.08884,11.1976481 C31.08884,11.747812 31.53684,12.1939986 32.08964,12.1939986" id="Fill-16" fill="#6B4F07" fill-rule="nonzero"></path>
                    <path d="M23.1826,18.9553576 C22.6298,18.9553576 22.1822,19.4015441 22.1822,19.951708 C22.1822,20.3600484 22.4294,20.7102251 22.7826,20.8643985 L22.7826,23.0694363 L23.5826,23.0694363 L23.5826,20.8643985 C23.9358,20.7102251 24.183,20.3600484 24.183,19.951708 C24.183,19.4015441 23.735,18.9553576 23.1826,18.9553576" id="Fill-18" fill="#6B4F07" fill-rule="nonzero"></path>
                    <path d="M21.13576,13.092666 C20.58336,13.092666 20.13536,13.5388525 20.13536,14.0890164 C20.13536,14.2961744 20.19936,14.4889908 20.30856,14.6483431 L18.12416,17.19559 L18.12416,24.2477272 L18.92416,24.2477272 L18.92416,17.4895951 L20.99696,15.0714235 C21.04296,15.0777976 21.08856,15.0853668 21.13576,15.0853668 C21.68856,15.0853668 22.13656,14.6391803 22.13656,14.0890164 C22.13656,13.5388525 21.68856,13.092666 21.13576,13.092666" id="Fill-20" fill="#6B4F07" fill-rule="nonzero"></path>
                    <path d="M9.78456,13.1496743 C9.78456,13.6998382 10.23256,14.1460247 10.78496,14.1460247 C11.33776,14.1460247 11.78576,13.6998382 11.78576,13.1496743 C11.78576,12.5995104 11.33776,12.1533239 10.78496,12.1533239 C10.60016,12.1533239 10.42936,12.2067069 10.28096,12.2935539 L7.72336,9.92199292 L7.72336,5.1732936 L6.92336,5.1732936 L6.92336,10.2689826 L9.80696,12.9425163 C9.79296,13.0094442 9.78456,13.0787625 9.78456,13.1496743" id="Fill-22" fill="#6B4F07" fill-rule="nonzero"></path>
                    <path d="M31.81232,15.4302451 C31.25992,15.4302451 30.81232,15.8764316 30.81232,16.4265955 C30.81232,16.4963122 30.82032,16.5644353 30.83352,16.6297697 L29.50832,17.3763354 L29.50832,20.7227342 L30.30832,20.7227342 L30.30832,17.8408474 L31.30392,17.2803256 C31.45392,17.3687662 31.62552,17.4229459 31.81232,17.4229459 C32.36512,17.4229459 32.81312,16.9767594 32.81312,16.4265955 C32.81312,15.8764316 32.36512,15.4302451 31.81232,15.4302451" id="Fill-24" fill="#6B4F07" fill-rule="nonzero"></path>
                    <path d="M11.73416,16.8784789 C11.73416,16.328315 11.28616,15.8821285 10.73376,15.8821285 C10.56896,15.8821285 10.41616,15.925552 10.27896,15.995667 L3.31496,10.1358836 L2.79856,10.7442111 L9.77376,16.6131573 C9.75016,16.6980124 9.73336,16.7860545 9.73336,16.8784789 C9.73336,17.4286428 10.18096,17.8748293 10.73376,17.8748293 C11.28616,17.8748293 11.73416,17.4286428 11.73416,16.8784789" id="Fill-26" fill="#6B4F07" fill-rule="nonzero"></path>
                    <path d="M12.00956,20.7675521 C11.45676,20.7675521 11.00916,21.2137386 11.00916,21.7639025 C11.00916,22.1156728 11.19316,22.4232228 11.46916,22.6005022 L10.84116,25.7979066 L11.62636,25.9508849 L12.25996,22.7251954 C12.69036,22.6136488 13.00996,22.2276178 13.00996,21.7639025 C13.00996,21.2137386 12.56196,20.7675521 12.00956,20.7675521" id="Fill-28" fill="#6B4F07" fill-rule="nonzero"></path>
                    <path d="M7.63692,19.5813334 C7.08452,19.5813334 6.63652,20.0275199 6.63652,20.5776838 C6.63652,20.7290685 6.67332,20.8712905 6.73412,20.9999675 L4.80732,22.8938699 L5.36932,23.4611641 L7.33972,21.5242366 C7.43412,21.5537168 7.53252,21.5740342 7.63692,21.5740342 C8.18972,21.5740342 8.63772,21.1278477 8.63772,20.5776838 C8.63772,20.0275199 8.18972,19.5813334 7.63692,19.5813334" id="Fill-30" fill="#6B4F07" fill-rule="nonzero"></path>
                    <path d="M5.142,18.5597256 C5.6944,18.5597256 6.1424,18.1135391 6.1424,17.5633752 C6.1424,17.0128129 5.6944,16.5670248 5.142,16.5670248 C4.7148,16.5670248 4.3524,16.8347367 4.2092,17.2104098 L2.2048,17.2104098 L2.2048,18.0071714 L4.2504,18.0071714 C4.4152,18.3334453 4.7504,18.5597256 5.142,18.5597256" id="Fill-32" fill="#6B4F07" fill-rule="nonzero"></path>
                </g>
                <g id="Page-1" transform="translate(317.000000, 31.000000)">
                    <path d="M0.53144,14.3471672 C0.53144,12.6241702 1.61904,11.1545433 3.14704,10.5796798 C2.96664,10.1342901 2.86664,9.64866384 2.86664,9.13913478 C2.86664,7.00779742 4.60184,5.27962144 6.74144,5.27962144 C6.87024,5.27962144 6.99704,5.28599553 7.12264,5.29834534 C7.51144,3.65143904 8.99544,2.42522289 10.76784,2.42522289 C11.42744,2.42522289 12.04664,2.5953315 12.58544,2.89332035 C13.18304,1.70773904 14.41424,0.893847036 15.83704,0.893847036 C16.92624,0.893847036 17.90304,1.37150563 18.56984,2.12723404 C19.23944,1.35596878 20.22824,0.866757141 21.33224,0.866757141 C22.71584,0.866757141 23.91904,1.63324183 24.53864,2.76265144 C25.12304,2.32005036 25.85224,2.05711902 26.64304,2.05711902 C28.31064,2.05711902 29.70384,3.22437481 30.04544,4.78284056 C30.33664,4.70953849 30.64024,4.67009879 30.95384,4.67009879 C32.99544,4.67009879 34.65064,6.31899699 34.65064,8.35233267 C34.65064,8.59534497 34.62664,8.83198317 34.58144,9.06145052 C35.75984,9.52954798 36.59264,10.6752912 36.59264,12.0154443 C36.59264,12.5217863 36.47304,13.0002416 36.26184,13.425314 C36.98064,14.275857 37.41424,15.3729978 37.41424,16.5717257 C37.41424,19.2723492 35.21584,21.4622486 32.50384,21.4622486 C31.55064,21.4622486 30.66144,21.1909512 29.90824,20.7224554 C29.24544,22.4737374 27.54784,23.7194743 25.55744,23.7194743 C24.68984,23.7194743 23.87744,23.4820393 23.18264,23.0693168 C22.64424,23.9234452 21.69104,24.4919347 20.60424,24.4919347 C19.82464,24.4919347 19.11384,24.1995231 18.57544,23.7194743 C18.33464,25.7802982 16.57664,27.3797972 14.44264,27.3797972 C13.15104,27.3797972 11.99704,26.793779 11.23384,25.8747145 C10.59584,26.6746631 9.61104,27.188176 8.50584,27.188176 C6.58224,27.188176 5.02304,25.6348892 5.02304,23.7194743 C5.02304,23.513113 5.04144,23.3107355 5.07624,23.1143338 C5.05864,23.1147322 5.04024,23.1159273 5.02304,23.1159273 C3.09944,23.1159273 1.53984,21.5626405 1.53984,19.6468272 C1.53984,18.8851231 1.78704,18.1811842 2.20504,17.6087109 C1.19104,16.8772837 0.53144,15.6893122 0.53144,14.3471672" id="Fill-1"></path>
                    <g id="Group-5" transform="translate(0.000000, 0.338464)" stroke="#B38006" stroke-width="0.5" fill="#B38006" fill-rule="nonzero">
                        <path d="M30.1756,19.9287613 C29.9428,19.8044665 29.5724,19.84789 29.4508,20.1179922 C28.3672,22.5266026 25.8716,23.506221 23.45,22.2756227 C23.2572,22.1772226 22.9568,22.1660679 22.808,22.3580875 C21.7272,23.7464446 20.2088,23.9416512 18.8428,22.9253818 C18.5804,22.7297768 18.1228,22.9273737 18.0648,23.240501 C17.4704,26.4295394 13.9188,27.5720956 11.6084,25.1630868 C11.4132,24.9587175 11.0548,24.9579207 10.8592,25.1630868 C8.6408,27.4928178 5.3336,25.8463099 5.6064,22.7755906 C5.6316,22.4951305 5.3464,22.2397684 5.0764,22.2481344 C2.4776,22.3278106 1.4568,19.4837699 2.6624,17.5364845 C2.7796,17.347652 2.756,17.0464761 2.5796,16.8974817 C1.6216,16.0871751 1.1692,15.3326418 1.0612,14.0088224 C1.172,12.4208764 1.9784,11.3500288 3.4144,10.6966843 C3.6244,10.6010729 3.72,10.3098565 3.658,10.1011049 C2.9256,7.64787587 4.4488,5.35559266 7.1224,5.48745671 C7.3628,5.49940813 7.5644,5.31655134 7.6336,5.10023056 C8.2924,3.02546327 10.2832,2.09404892 12.3176,3.01072318 C12.584,3.13023742 12.882,3.08641553 13.0428,2.82109391 C14.2204,0.879784193 16.5248,0.557494114 18.1952,2.16177366 C18.4044,2.36295597 18.7352,2.36574464 18.9444,2.16177366 C20.5752,0.572632585 22.8384,0.782977655 24.0812,2.690425 C24.2332,2.92387616 24.5544,3.04020336 24.8056,2.88005427 C26.7128,1.66021221 28.8852,2.42988395 29.5344,4.5843274 C29.6228,4.8771373 29.8972,5.00700944 30.186,4.95322803 C32.6404,4.49269981 34.2788,6.39337468 34.0516,8.72310569 C34.0352,8.89440944 34.1624,9.10316099 34.3144,9.17885335 C34.9044,9.40672717 35.3712,9.80231932 35.7152,10.3656298 C36.5476,11.5663496 35.7324,11.889038 35.7324,13.0865708 C35.7328,13.1817838 35.7568,13.2710211 35.8044,13.3530875 C36.4744,14.2649812 36.802,15.0892311 36.8844,16.2333808 C37.1436,19.8287677 32.9228,21.3880302 30.1756,19.9287613 M37.874,15.38722 C37.7372,14.7609653 36.8036,13.1415473 37.0172,12.5527405 C37.4056,11.4822912 36.9268,10.261254 36.3252,9.39397899 C36.0636,9.01591559 35.6956,8.77409844 35.3316,8.50837843 C35.0836,8.32671678 35.0804,7.14511928 35.0048,6.81008102 C34.5364,4.72097202 32.3624,3.71346694 30.4008,3.87242088 C29.4544,1.54229149 26.9404,0.582592105 24.6872,1.7331159 C23.1164,-0.223332285 20.5288,-0.497816667 18.5672,1.08853574 C16.5564,-0.508174569 13.9048,-0.166762209 12.384,1.91159051 C11.0184,1.42317563 9.474,1.40883392 8.2716,2.36933006 C7.6388,2.87487532 7.0336,3.49156882 6.7808,4.28753369 C6.734,4.43413783 4.7452,4.89745472 4.3644,5.10700303 C2.9032,5.91412256 1.9484,8.07613525 2.4284,9.68519536 C2.5396,10.0580798 1.1948,10.8978666 0.97,11.2153761 C0.3864,12.0412195 0.1116,12.8463471 0.0192,13.8267623 C0.0044,13.8809421 -0.0036,13.9403009 0.0016,14.0088224 C-0.0024,14.0717665 0.0052,14.1271415 0.018,14.1785326 C0.1068,15.1075566 0.3084,16.0369791 0.946,16.7707966 C1.7672,17.7157558 0.956,18.6419912 1.0556,19.8709961 C1.198,21.6286522 2.8156,23.0576442 4.5308,23.2727698 C4.5764,26.7972449 8.5504,28.5453399 11.2332,26.260626 C13.8752,28.5501205 17.8308,27.505566 18.908,24.2189243 C19.6568,24.6296549 20.5448,24.8643012 21.3788,24.5961909 C22.4896,24.2396401 23.034,23.3217707 24.1644,23.7193547 C26.538,24.5543609 29.0072,23.115011 30.1472,21.0820737 C32.3084,22.0230492 34.5344,21.6856207 36.3508,20.0642108 C37.2424,19.2682459 37.692,18.0850549 37.892,16.9436938 C37.9784,16.4520919 37.9812,15.8732446 37.874,15.38722" id="Fill-3"></path>
                    </g>
                    <path d="M18.96972,9.28705358 L18.96972,2.12695518 L18.16972,2.12695518 L18.16972,9.02969957 L15.78172,12.327496 C15.68852,12.2988125 15.59092,12.2788935 15.48812,12.2788935 C14.93532,12.2788935 14.48772,12.7246816 14.48772,13.2752439 C14.48772,13.8254078 14.93532,14.2715943 15.48812,14.2715943 C16.04052,14.2715943 16.48852,13.8254078 16.48852,13.2752439 C16.48852,13.1222657 16.45132,12.9796454 16.38972,12.8501716 L18.96972,9.28705358 Z" id="Fill-6" fill="#B38006" fill-rule="nonzero"></path>
                    <path d="M29.18456,13.2751244 L26.05176,15.2941184 C25.90096,15.2028892 25.72616,15.1475142 25.53656,15.1475142 C24.98376,15.1475142 24.53576,15.5937008 24.53576,16.1438647 C24.53576,16.694427 24.98376,17.1406135 25.53656,17.1406135 C26.08896,17.1406135 26.53696,16.694427 26.53696,16.1438647 C26.53696,16.0749448 26.52976,16.0080168 26.51656,15.9430807 L29.42056,14.071886 L36.29296,14.071886 L36.29296,13.2751244 L29.18456,13.2751244 Z" id="Fill-8" fill="#B38006" fill-rule="nonzero"></path>
                    <path d="M12.98536,5.38240369 L12.98536,2.89332035 L12.18536,2.89332035 L12.18536,5.38240369 C11.83216,5.53617868 11.58456,5.88635542 11.58456,6.29469576 C11.58456,6.84485966 12.03256,7.29144456 12.58496,7.29144456 C13.13776,7.29144456 13.58576,6.84485966 13.58576,6.29469576 C13.58576,5.88635542 13.33856,5.53617868 12.98536,5.38240369" id="Fill-10" fill="#B38006" fill-rule="nonzero"></path>
                    <path d="M25.53652,11.4441263 C25.53652,11.9942902 25.98412,12.4404768 26.53652,12.4404768 C27.08932,12.4404768 27.53732,11.9942902 27.53732,11.4441263 C27.53732,10.8939624 27.08932,10.4477759 26.53652,10.4477759 C26.53372,10.4477759 26.53092,10.4485727 26.52812,10.4485727 L24.93852,6.16558053 L24.93852,2.7626116 L24.13852,2.7626116 L24.13852,6.30820086 L25.79772,10.7780336 C25.63692,10.9545163 25.53652,11.1867723 25.53652,11.4441263" id="Fill-12" fill="#B38006" fill-rule="nonzero"></path>
                    <path d="M28.53732,8.28759579 C29.09012,8.28759579 29.53812,7.84140927 29.53812,7.29124537 C29.53812,7.07094077 29.46372,6.8689617 29.34292,6.70443042 L30.38732,4.98940101 L29.70372,4.57628011 L28.64972,6.30604961 C28.61252,6.30166742 28.57612,6.29489495 28.53732,6.29489495 C27.98492,6.29489495 27.53732,6.74068308 27.53732,7.29124537 C27.53732,7.84140927 27.98492,8.28759579 28.53732,8.28759579" id="Fill-14" fill="#B38006" fill-rule="nonzero"></path>
                    <path d="M32.08964,12.1939986 C32.64204,12.1939986 33.09004,11.747812 33.09004,11.1976481 C33.09004,11.0952643 33.07004,10.9984577 33.04124,10.9052366 L34.95844,9.43481302 L34.47004,8.80337943 L32.51804,10.3004945 C32.38764,10.2387455 32.24364,10.2012977 32.08964,10.2012977 C31.53684,10.2012977 31.08884,10.6470858 31.08884,11.1976481 C31.08884,11.747812 31.53684,12.1939986 32.08964,12.1939986" id="Fill-16" fill="#B38006" fill-rule="nonzero"></path>
                    <path d="M23.1826,18.9553576 C22.6298,18.9553576 22.1822,19.4015441 22.1822,19.951708 C22.1822,20.3600484 22.4294,20.7102251 22.7826,20.8643985 L22.7826,23.0694363 L23.5826,23.0694363 L23.5826,20.8643985 C23.9358,20.7102251 24.183,20.3600484 24.183,19.951708 C24.183,19.4015441 23.735,18.9553576 23.1826,18.9553576" id="Fill-18" fill="#B38006" fill-rule="nonzero"></path>
                    <path d="M21.13576,13.092666 C20.58336,13.092666 20.13536,13.5388525 20.13536,14.0890164 C20.13536,14.2961744 20.19936,14.4889908 20.30856,14.6483431 L18.12416,17.19559 L18.12416,24.2477272 L18.92416,24.2477272 L18.92416,17.4895951 L20.99696,15.0714235 C21.04296,15.0777976 21.08856,15.0853668 21.13576,15.0853668 C21.68856,15.0853668 22.13656,14.6391803 22.13656,14.0890164 C22.13656,13.5388525 21.68856,13.092666 21.13576,13.092666" id="Fill-20" fill="#B38006" fill-rule="nonzero"></path>
                    <path d="M9.78456,13.1496743 C9.78456,13.6998382 10.23256,14.1460247 10.78496,14.1460247 C11.33776,14.1460247 11.78576,13.6998382 11.78576,13.1496743 C11.78576,12.5995104 11.33776,12.1533239 10.78496,12.1533239 C10.60016,12.1533239 10.42936,12.2067069 10.28096,12.2935539 L7.72336,9.92199292 L7.72336,5.1732936 L6.92336,5.1732936 L6.92336,10.2689826 L9.80696,12.9425163 C9.79296,13.0094442 9.78456,13.0787625 9.78456,13.1496743" id="Fill-22" fill="#B38006" fill-rule="nonzero"></path>
                    <path d="M31.81232,15.4302451 C31.25992,15.4302451 30.81232,15.8764316 30.81232,16.4265955 C30.81232,16.4963122 30.82032,16.5644353 30.83352,16.6297697 L29.50832,17.3763354 L29.50832,20.7227342 L30.30832,20.7227342 L30.30832,17.8408474 L31.30392,17.2803256 C31.45392,17.3687662 31.62552,17.4229459 31.81232,17.4229459 C32.36512,17.4229459 32.81312,16.9767594 32.81312,16.4265955 C32.81312,15.8764316 32.36512,15.4302451 31.81232,15.4302451" id="Fill-24" fill="#B38006" fill-rule="nonzero"></path>
                    <path d="M11.73416,16.8784789 C11.73416,16.328315 11.28616,15.8821285 10.73376,15.8821285 C10.56896,15.8821285 10.41616,15.925552 10.27896,15.995667 L3.31496,10.1358836 L2.79856,10.7442111 L9.77376,16.6131573 C9.75016,16.6980124 9.73336,16.7860545 9.73336,16.8784789 C9.73336,17.4286428 10.18096,17.8748293 10.73376,17.8748293 C11.28616,17.8748293 11.73416,17.4286428 11.73416,16.8784789" id="Fill-26" fill="#B38006" fill-rule="nonzero"></path>
                    <path d="M12.00956,20.7675521 C11.45676,20.7675521 11.00916,21.2137386 11.00916,21.7639025 C11.00916,22.1156728 11.19316,22.4232228 11.46916,22.6005022 L10.84116,25.7979066 L11.62636,25.9508849 L12.25996,22.7251954 C12.69036,22.6136488 13.00996,22.2276178 13.00996,21.7639025 C13.00996,21.2137386 12.56196,20.7675521 12.00956,20.7675521" id="Fill-28" fill="#B38006" fill-rule="nonzero"></path>
                    <path d="M7.63692,19.5813334 C7.08452,19.5813334 6.63652,20.0275199 6.63652,20.5776838 C6.63652,20.7290685 6.67332,20.8712905 6.73412,20.9999675 L4.80732,22.8938699 L5.36932,23.4611641 L7.33972,21.5242366 C7.43412,21.5537168 7.53252,21.5740342 7.63692,21.5740342 C8.18972,21.5740342 8.63772,21.1278477 8.63772,20.5776838 C8.63772,20.0275199 8.18972,19.5813334 7.63692,19.5813334" id="Fill-30" fill="#B38006" fill-rule="nonzero"></path>
                    <path d="M5.142,18.5597256 C5.6944,18.5597256 6.1424,18.1135391 6.1424,17.5633752 C6.1424,17.0128129 5.6944,16.5670248 5.142,16.5670248 C4.7148,16.5670248 4.3524,16.8347367 4.2092,17.2104098 L2.2048,17.2104098 L2.2048,18.0071714 L4.2504,18.0071714 C4.4152,18.3334453 4.7504,18.5597256 5.142,18.5597256" id="Fill-32" fill="#B38006" fill-rule="nonzero"></path>
                </g>
                <g id="Group" transform="translate(276.000000, 31.000000)" stroke="#B38006">
                    <path d="M28.2329643,6.12591778 C32.6485752,11.5785392 34.125,14.2111 34.125,18.125 C34.125,23.6359676 29.5891694,28.125 24.0116279,28.125 C18.4340865,28.125 13.8982558,23.6359676 13.8982558,18.125 C13.8982558,14.2111 15.3746806,11.5785392 19.7902915,6.12591778 C20.0891588,5.75692861 20.2222226,5.59240513 20.3890036,5.3852918 C21.8032969,3.62898288 22.7008516,2.42874719 23.5090722,1.14863059 C23.6159684,0.97930703 23.8061551,0.875 24.0116279,0.875 C24.2171007,0.875 24.4072874,0.97930703 24.5141664,1.14860326 C25.3222815,2.4281707 26.219063,3.62732697 27.6341972,5.38504071 C27.8006581,5.59179888 27.9311351,5.75316398 28.2329356,6.12588229 L28.2329643,6.12591778 Z" id="Shape" stroke-width="1.75"></path>
                    <path d="M30.8488372,17.2283429 C30.9787018,17.2283429 31.0813953,17.3299769 31.0813953,17.4533429 C31.0813953,21.5729315 27.6910037,24.9283429 23.5232558,24.9283429 C23.3933912,24.9283429 23.2906977,24.8267089 23.2906977,24.7033429 C23.2906977,24.5799769 23.3933912,24.4783429 23.5232558,24.4783429 C27.4336783,24.4783429 30.6162791,21.3285785 30.6162791,17.4533429 C30.6162791,17.3299769 30.7189726,17.2283429 30.8488372,17.2283429 L30.8488372,17.2283429 Z" id="Shape"></path>
                    <path d="M4.88374512,7.50339985 C5.20841575,7.98941449 5.58093275,8.47915507 6.11510644,9.14264296 C6.18947001,9.23500866 6.24934203,9.30905429 6.38206801,9.47296563 L6.38209675,9.47300111 C8.27564315,11.8112487 8.89244186,12.9110407 8.89244186,14.5 C8.89244186,16.6797122 7.09527855,18.4583333 4.88372093,18.4583333 C2.67216332,18.4583333 0.875,16.6797122 0.875,14.5 C0.875,12.9110407 1.49179871,11.8112487 3.38534511,9.47300111 C3.51803316,9.30918179 3.57777053,9.23532098 3.65228043,9.1427925 C4.18621373,8.47973923 4.55896263,7.98968848 4.88374512,7.50339985 L4.88374512,7.50339985 Z" id="Shape" stroke-width="1.75"></path>
                </g>
                <g id="Group" transform="translate(276.000000, 1.000000)" stroke="#5B4130">
                    <path d="M28.2329643,6.12591778 C32.6485752,11.5785392 34.125,14.2111 34.125,18.125 C34.125,23.6359676 29.5891694,28.125 24.0116279,28.125 C18.4340865,28.125 13.8982558,23.6359676 13.8982558,18.125 C13.8982558,14.2111 15.3746806,11.5785392 19.7902915,6.12591778 C20.0891588,5.75692861 20.2222226,5.59240513 20.3890036,5.3852918 C21.8032969,3.62898288 22.7008516,2.42874719 23.5090722,1.14863059 C23.6159684,0.97930703 23.8061551,0.875 24.0116279,0.875 C24.2171007,0.875 24.4072874,0.97930703 24.5141664,1.14860326 C25.3222815,2.4281707 26.219063,3.62732697 27.6341972,5.38504071 C27.8006581,5.59179888 27.9311351,5.75316398 28.2329356,6.12588229 L28.2329643,6.12591778 Z" id="Shape" stroke-width="1.75"></path>
                    <path d="M30.8488372,17.2283429 C30.9787018,17.2283429 31.0813953,17.3299769 31.0813953,17.4533429 C31.0813953,21.5729315 27.6910037,24.9283429 23.5232558,24.9283429 C23.3933912,24.9283429 23.2906977,24.8267089 23.2906977,24.7033429 C23.2906977,24.5799769 23.3933912,24.4783429 23.5232558,24.4783429 C27.4336783,24.4783429 30.6162791,21.3285785 30.6162791,17.4533429 C30.6162791,17.3299769 30.7189726,17.2283429 30.8488372,17.2283429 L30.8488372,17.2283429 Z" id="Shape"></path>
                    <path d="M4.88374512,7.50339985 C5.20841575,7.98941449 5.58093275,8.47915507 6.11510644,9.14264296 C6.18947001,9.23500866 6.24934203,9.30905429 6.38206801,9.47296563 L6.38209675,9.47300111 C8.27564315,11.8112487 8.89244186,12.9110407 8.89244186,14.5 C8.89244186,16.6797122 7.09527855,18.4583333 4.88372093,18.4583333 C2.67216332,18.4583333 0.875,16.6797122 0.875,14.5 C0.875,12.9110407 1.49179871,11.8112487 3.38534511,9.47300111 C3.51803316,9.30918179 3.57777053,9.23532098 3.65228043,9.1427925 C4.18621373,8.47973923 4.55896263,7.98968848 4.88374512,7.50339985 L4.88374512,7.50339985 Z" id="Shape" stroke-width="1.75"></path>
                </g>
                <g id="Group" fill-rule="nonzero">
                    <g id="Shape" transform="translate(243.000000, 0.000000)" fill="#5B4130">
                        <path d="M16.000274,21.0361599 C15.7788171,21.1085283 15.6294929,21.3143825 15.6294929,21.5454527 L15.6294929,22.5146241 L11.3179056,22.5146241 L11.3179056,21.5454527 C11.3179056,21.3138737 11.1686382,21.1085283 10.9471245,21.0361599 C7.62339611,19.948994 5.38950137,16.8806294 5.38950137,13.4015741 C5.38950137,8.96776453 9.01602769,5.36065104 13.4736993,5.36065104 C17.931314,5.36065104 21.5578971,8.96776453 21.5578971,13.4015741 C21.5578971,16.8806294 19.3240024,19.948994 16.000274,21.0361599 L16.000274,21.0361599 Z M15.0905161,26.2670963 C14.7924929,26.2670963 14.5515961,26.5067037 14.5515961,26.8031315 L14.5515961,27.8752584 L12.3958024,27.8752584 L12.3958024,26.8031315 C12.3958024,26.5067037 12.1549056,26.2670963 11.8568256,26.2670963 L11.3179056,26.2670963 L11.3179056,23.586751 L15.6294929,23.586751 L15.6294929,26.2670963 L15.0905161,26.2670963 Z M13.4736993,4.28846765 C8.42157295,4.28846765 4.31160453,8.37649192 4.31160453,13.4015741 C4.31160453,17.2139765 6.67811189,20.5912637 10.2400087,21.9249911 L10.2400087,26.8031315 C10.2400087,27.0995594 10.4809056,27.3391667 10.7789856,27.3391667 L11.3179056,27.3391667 L11.3179056,28.4112935 C11.3179056,28.7077214 11.5588024,28.9473852 11.8568256,28.9473852 L15.0905161,28.9473852 C15.3885393,28.9473852 15.6294929,28.7077214 15.6294929,28.4112935 L15.6294929,27.3391667 L16.1684129,27.3391667 C16.4664361,27.3391667 16.7073329,27.0995594 16.7073329,26.8031315 L16.7073329,21.9249911 C20.2692866,20.5912637 22.635794,17.2139765 22.635794,13.4015741 C22.635794,8.37649192 18.5257687,4.28846765 13.4736993,4.28846765 L13.4736993,4.28846765 Z"></path>
                        <path d="M13.4736879,3.21636359 C13.771711,3.21636359 14.0126079,2.97675627 14.0126079,2.68032843 L14.0126079,0.53607473 C14.0126079,0.2396469 13.771711,-1.696e-05 13.4736879,-1.696e-05 C13.1756647,-1.696e-05 12.9347679,0.2396469 12.9347679,0.53607473 L12.9347679,2.68032843 C12.9347679,2.97675627 13.1756647,3.21636359 13.4736879,3.21636359"></path>
                        <path d="M26.4084329,12.8655052 L24.2526391,12.8655052 C23.954616,12.8655052 23.7137191,13.1051125 23.7137191,13.4015404 C23.7137191,13.6980248 23.954616,13.9376321 24.2526391,13.9376321 L26.4084329,13.9376321 C26.706456,13.9376321 26.9473529,13.6980248 26.9473529,13.4015404 C26.9473529,13.1051125 26.706456,12.8655052 26.4084329,12.8655052"></path>
                        <path d="M2.69472505,12.8655052 L0.53893137,12.8655052 C0.24090821,12.8655052 1.137e-05,13.1051125 1.137e-05,13.4015404 C1.137e-05,13.6980248 0.24090821,13.9376321 0.53893137,13.9376321 L2.69472505,13.9376321 C2.99280505,13.9376321 3.23370189,13.6980248 3.23370189,13.4015404 C3.23370189,13.1051125 2.99280505,12.8655052 2.69472505,12.8655052"></path>
                        <path d="M22.2391383,3.92504266 L20.7150309,5.44104801 C20.5042604,5.65063374 20.5042604,5.98940841 20.7150309,6.19899414 C20.8200751,6.30353259 20.9580309,6.35611277 21.0960436,6.35611277 C21.2339425,6.35611277 21.3719551,6.30353259 21.4770562,6.19899414 L23.0011636,4.68304533 C23.2119341,4.4734596 23.2119341,4.13468493 23.0011636,3.92504266 C22.7904499,3.71545693 22.4492836,3.71596577 22.2391383,3.92504266"></path>
                        <path d="M5.47033074,20.604064 L3.94616653,22.1200694 C3.73545284,22.3296551 3.73545284,22.6684863 3.94616653,22.8780721 C4.05126758,22.9826105 4.18922337,23.0351342 4.327236,23.0351342 C4.46519179,23.0351342 4.60314758,22.9826105 4.70824863,22.8780721 L6.23241284,21.3620667 C6.44312653,21.152481 6.44312653,20.8137063 6.23241284,20.604064 C6.02164231,20.3944783 5.68104442,20.3944783 5.47033074,20.604064"></path>
                        <path d="M21.4770449,20.604064 C21.2663311,20.3944783 20.9257333,20.3944783 20.7150196,20.604064 C20.5042491,20.8137063 20.5042491,21.152481 20.7150196,21.3620667 L22.2391269,22.8780721 C22.344228,22.9826105 22.4821838,23.0351342 22.6201396,23.0351342 C22.7581522,23.0351342 22.896108,22.9826105 23.0011522,22.8780721 C23.2119227,22.6684863 23.2119227,22.3296551 23.0011522,22.1200694 L21.4770449,20.604064 Z"></path>
                        <path d="M5.47033074,6.1990111 C5.57543179,6.30354954 5.71338758,6.35607319 5.85134337,6.35607319 C5.98929916,6.35607319 6.12731179,6.30354954 6.23241284,6.1990111 C6.44312653,5.98942537 6.44312653,5.6506507 6.23241284,5.44106496 L4.70824863,3.92505962 C4.49753495,3.71547389 4.15693705,3.71547389 3.94616653,3.92505962 C3.73545284,4.13464536 3.73545284,4.47342002 3.94616653,4.6830623 L5.47033074,6.1990111 Z"></path>
                        <path d="M13.4736878,6.96881322 C9.90747093,6.96881322 7.00630674,9.85444745 7.00630674,13.4015743 C7.00630674,13.6980021 7.24720358,13.9376094 7.54528358,13.9376094 C7.84330674,13.9376094 8.08420357,13.6980021 8.08420357,13.4015743 C8.08420357,10.4457201 10.5019257,8.04094011 13.4736878,8.04094011 C13.7717109,8.04094011 14.0126078,7.80133275 14.0126078,7.50484838 C14.0126078,7.20842054 13.7717109,6.96881322 13.4736878,6.96881322"></path>
                    </g>
                    <g id="Shape" transform="translate(243.000000, 31.000000)" fill="#B38006">
                        <path d="M16.000274,21.0361599 C15.7788171,21.1085283 15.6294929,21.3143825 15.6294929,21.5454527 L15.6294929,22.5146241 L11.3179056,22.5146241 L11.3179056,21.5454527 C11.3179056,21.3138737 11.1686382,21.1085283 10.9471245,21.0361599 C7.62339611,19.948994 5.38950137,16.8806294 5.38950137,13.4015741 C5.38950137,8.96776453 9.01602769,5.36065104 13.4736993,5.36065104 C17.931314,5.36065104 21.5578971,8.96776453 21.5578971,13.4015741 C21.5578971,16.8806294 19.3240024,19.948994 16.000274,21.0361599 L16.000274,21.0361599 Z M15.0905161,26.2670963 C14.7924929,26.2670963 14.5515961,26.5067037 14.5515961,26.8031315 L14.5515961,27.8752584 L12.3958024,27.8752584 L12.3958024,26.8031315 C12.3958024,26.5067037 12.1549056,26.2670963 11.8568256,26.2670963 L11.3179056,26.2670963 L11.3179056,23.586751 L15.6294929,23.586751 L15.6294929,26.2670963 L15.0905161,26.2670963 Z M13.4736993,4.28846765 C8.42157295,4.28846765 4.31160453,8.37649192 4.31160453,13.4015741 C4.31160453,17.2139765 6.67811189,20.5912637 10.2400087,21.9249911 L10.2400087,26.8031315 C10.2400087,27.0995594 10.4809056,27.3391667 10.7789856,27.3391667 L11.3179056,27.3391667 L11.3179056,28.4112935 C11.3179056,28.7077214 11.5588024,28.9473852 11.8568256,28.9473852 L15.0905161,28.9473852 C15.3885393,28.9473852 15.6294929,28.7077214 15.6294929,28.4112935 L15.6294929,27.3391667 L16.1684129,27.3391667 C16.4664361,27.3391667 16.7073329,27.0995594 16.7073329,26.8031315 L16.7073329,21.9249911 C20.2692866,20.5912637 22.635794,17.2139765 22.635794,13.4015741 C22.635794,8.37649192 18.5257687,4.28846765 13.4736993,4.28846765 L13.4736993,4.28846765 Z"></path>
                        <path d="M13.4736879,3.21636359 C13.771711,3.21636359 14.0126079,2.97675627 14.0126079,2.68032843 L14.0126079,0.53607473 C14.0126079,0.2396469 13.771711,-1.696e-05 13.4736879,-1.696e-05 C13.1756647,-1.696e-05 12.9347679,0.2396469 12.9347679,0.53607473 L12.9347679,2.68032843 C12.9347679,2.97675627 13.1756647,3.21636359 13.4736879,3.21636359"></path>
                        <path d="M26.4084329,12.8655052 L24.2526391,12.8655052 C23.954616,12.8655052 23.7137191,13.1051125 23.7137191,13.4015404 C23.7137191,13.6980248 23.954616,13.9376321 24.2526391,13.9376321 L26.4084329,13.9376321 C26.706456,13.9376321 26.9473529,13.6980248 26.9473529,13.4015404 C26.9473529,13.1051125 26.706456,12.8655052 26.4084329,12.8655052"></path>
                        <path d="M2.69472505,12.8655052 L0.53893137,12.8655052 C0.24090821,12.8655052 1.137e-05,13.1051125 1.137e-05,13.4015404 C1.137e-05,13.6980248 0.24090821,13.9376321 0.53893137,13.9376321 L2.69472505,13.9376321 C2.99280505,13.9376321 3.23370189,13.6980248 3.23370189,13.4015404 C3.23370189,13.1051125 2.99280505,12.8655052 2.69472505,12.8655052"></path>
                        <path d="M22.2391383,3.92504266 L20.7150309,5.44104801 C20.5042604,5.65063374 20.5042604,5.98940841 20.7150309,6.19899414 C20.8200751,6.30353259 20.9580309,6.35611277 21.0960436,6.35611277 C21.2339425,6.35611277 21.3719551,6.30353259 21.4770562,6.19899414 L23.0011636,4.68304533 C23.2119341,4.4734596 23.2119341,4.13468493 23.0011636,3.92504266 C22.7904499,3.71545693 22.4492836,3.71596577 22.2391383,3.92504266"></path>
                        <path d="M5.47033074,20.604064 L3.94616653,22.1200694 C3.73545284,22.3296551 3.73545284,22.6684863 3.94616653,22.8780721 C4.05126758,22.9826105 4.18922337,23.0351342 4.327236,23.0351342 C4.46519179,23.0351342 4.60314758,22.9826105 4.70824863,22.8780721 L6.23241284,21.3620667 C6.44312653,21.152481 6.44312653,20.8137063 6.23241284,20.604064 C6.02164231,20.3944783 5.68104442,20.3944783 5.47033074,20.604064"></path>
                        <path d="M21.4770449,20.604064 C21.2663311,20.3944783 20.9257333,20.3944783 20.7150196,20.604064 C20.5042491,20.8137063 20.5042491,21.152481 20.7150196,21.3620667 L22.2391269,22.8780721 C22.344228,22.9826105 22.4821838,23.0351342 22.6201396,23.0351342 C22.7581522,23.0351342 22.896108,22.9826105 23.0011522,22.8780721 C23.2119227,22.6684863 23.2119227,22.3296551 23.0011522,22.1200694 L21.4770449,20.604064 Z"></path>
                        <path d="M5.47033074,6.1990111 C5.57543179,6.30354954 5.71338758,6.35607319 5.85134337,6.35607319 C5.98929916,6.35607319 6.12731179,6.30354954 6.23241284,6.1990111 C6.44312653,5.98942537 6.44312653,5.6506507 6.23241284,5.44106496 L4.70824863,3.92505962 C4.49753495,3.71547389 4.15693705,3.71547389 3.94616653,3.92505962 C3.73545284,4.13464536 3.73545284,4.47342002 3.94616653,4.6830623 L5.47033074,6.1990111 Z"></path>
                        <path d="M13.4736878,6.96881322 C9.90747093,6.96881322 7.00630674,9.85444745 7.00630674,13.4015743 C7.00630674,13.6980021 7.24720358,13.9376094 7.54528358,13.9376094 C7.84330674,13.9376094 8.08420357,13.6980021 8.08420357,13.4015743 C8.08420357,10.4457201 10.5019257,8.04094011 13.4736878,8.04094011 C13.7717109,8.04094011 14.0126078,7.80133275 14.0126078,7.50484838 C14.0126078,7.20842054 13.7717109,6.96881322 13.4736878,6.96881322"></path>
                    </g>
                    <g id="Shape">
                        <g id="Group" transform="translate(31.000000, 1.000000)" fill="#5B4101">
                            <path d="M9.034,17.901 C9.034,18.555 8.503,19.089 7.848,19.089 C7.193,19.089 6.661,18.558 6.661,17.901 C6.661,17.244 7.192,16.715 7.848,16.715 C8.503,16.716 9.034,17.247 9.034,17.901 Z" id="Shape"></path>
                            <path d="M15.744,17.901 C15.744,18.555 15.213,19.089 14.557,19.089 C13.903,19.089 13.37,18.558 13.37,17.901 C13.37,17.244 13.9,16.715 14.557,16.715 C15.213,16.716 15.744,17.247 15.744,17.901 Z" id="Shape"></path>
                            <path d="M11.203,28.522 C13.961,28.522 16.551,27.35 18.495,25.223 C20.425,23.11 21.487,20.307 21.487,17.328 C21.487,16.248 21.346,15.191 21.078,14.185 C21.147,14.2 21.217,14.213 21.287,14.227 C22.261,14.405 23.056,14.682 23.647,15.052 C24.106,15.339 24.323,15.611 24.412,15.747 C24.649,16.114 25.054,16.333 25.494,16.333 C26.086,16.333 26.598,15.937 26.739,15.366 C26.843,14.943 26.961,14.277 26.925,13.511 C26.881,12.564 26.621,11.699 26.152,10.939 C25.55,9.97 24.635,9.212 23.421,8.676 C23.658,8.439 23.893,8.169 24.109,7.864 C24.538,7.26 24.843,6.593 25.021,5.88 C25.224,5.054 25.25,4.165 25.103,3.237 C25.049,2.921 24.88,2.635 24.624,2.436 C24.398,2.26 24.115,2.163 23.828,2.163 C23.58,2.163 23.34,2.233 23.131,2.368 C22.795,2.585 21.854,3.108 20.391,3.285 C18.953,3.458 18.124,4.602 17.627,5.453 C17.625,5.452 17.623,5.451 17.622,5.45 C16.867,2.612 14.279,0.52 11.204,0.52 C7.605,0.52 4.677,3.382 4.567,6.955 C4.487,7.038 4.407,7.123 4.33,7.209 C4.12,7.444 4.081,7.644 4.011,8.002 C3.984,8.14 3.949,8.331 3.904,8.567 C3.828,8.969 3.754,9.375 3.753,9.379 L3.753,9.381 C3.738,9.465 3.732,9.55 3.732,9.634 C1.918,11.722 0.92,14.442 0.92,17.327 C0.92,20.306 1.982,23.108 3.912,25.222 C5.855,27.351 8.444,28.522 11.203,28.522 L11.203,28.522 Z M17.839,6.974 C17.865,7.006 17.892,7.021 17.921,7.021 C18.283,7.021 18.862,4.599 20.525,4.4 C22.198,4.197 23.299,3.593 23.736,3.312 C23.765,3.293 23.798,3.287 23.828,3.287 C23.907,3.287 23.98,3.34 23.995,3.422 C24.534,6.772 22.226,8.38 21.267,8.895 C21.14,8.964 21.171,9.145 21.318,9.178 C26.378,10.305 25.951,13.899 25.652,15.102 C25.632,15.178 25.564,15.219 25.496,15.219 C25.441,15.219 25.389,15.194 25.353,15.143 C25.002,14.603 24.029,13.592 21.488,13.128 C21.189,13.072 20.914,12.999 20.658,12.908 C18.144,12.023 17.671,9.605 17.601,9.146 C17.597,9.117 17.583,9.089 17.564,9.066 C17.549,9.051 17.535,9.039 17.517,9.029 C15.871,8.17 14.077,7.857 12.371,7.857 C8.906,7.857 5.813,9.144 5.125,9.728 C5.112,9.738 5.101,9.746 5.088,9.75 C5.066,9.76 5.043,9.767 5.019,9.767 C4.924,9.767 4.833,9.687 4.853,9.582 C4.853,9.582 4.875,9.457 4.91,9.276 C4.961,9.005 5.035,8.61 5.09,8.321 C5.131,8.112 5.161,7.96 5.166,7.955 C6.93,5.977 9.449,5.347 11.78,5.347 C14.759,5.347 17.434,6.379 17.827,6.953 C17.83,6.963 17.834,6.969 17.839,6.974 L17.839,6.974 Z M3.297,16.165 C3.881,15.56 4.45,14.937 4.991,14.292 C5.908,13.198 7.116,11.825 7.32,10.354 C7.527,8.875 11.446,14.295 13.993,14.841 C16.331,15.342 17.954,16.61 18.204,19.207 C18.227,19.447 18.541,19.521 18.668,19.314 C19.019,18.748 19.492,17.826 19.733,16.683 C19.772,16.501 20.02,16.474 20.1,16.642 C20.13,16.71 20.162,16.779 20.194,16.849 C20.201,17.007 20.205,17.165 20.205,17.326 C20.205,22.793 16.166,27.238 11.201,27.238 C6.265,27.238 2.353,22.72 2.214,17.929 C2.191,17.097 2.768,16.714 3.297,16.165 L3.297,16.165 Z" id="Shape"></path>
                        </g>
                        <g id="Group" transform="translate(61.000000, 0.000000)" fill="#5B4101">
                            <path d="M13.665,6.446 C13.545,6.446 13.483,6.415 13.377,6.353 C13.161,6.229 13.089,6 13.089,5.75 L13.089,1.631 C13.089,1.381 13.161,1.152 13.377,1.027 C13.591,0.903 13.827,0.903 14.042,1.027 L17.596,3.089 C17.812,3.212 17.937,3.442 17.937,3.691 C17.937,3.94 17.8,4.17 17.584,4.293 L14.014,6.353 C13.905,6.415 13.784,6.446 13.665,6.446 L13.665,6.446 Z M14.36,2.835 L14.36,4.548 L15.842,3.693 L14.36,2.835 Z" id="Shape"></path>
                            <path d="M13.396,29.279 C6.215,29.279 0.375,23.437 0.375,16.257 C0.375,9.197 5.906,3.486 12.967,3.257 C13.303,3.21 13.671,3.544 13.684,3.929 C13.698,4.313 13.397,4.634 13.012,4.645 C6.705,4.852 1.765,9.955 1.765,16.257 C1.765,22.671 6.983,27.89 13.397,27.89 C19.811,27.89 25.028,22.671 25.028,16.257 C25.028,12.725 23.444,9.421 20.68,7.196 C20.381,6.956 20.334,6.517 20.575,6.217 C20.817,5.92 21.255,5.871 21.554,6.113 C24.646,8.603 26.42,12.3 26.42,16.257 C26.418,23.438 20.575,29.279 13.396,29.279 L13.396,29.279 Z" id="Shape"></path>
                            <g id="Shape" transform="translate(3.000000, 14.000000)">
                                <path d="M2.276,1.905 C2.168,1.947 2.063,1.986 1.961,2.016 C1.858,2.045 1.761,2.07 1.669,2.088 C1.579,2.106 1.495,2.119 1.417,2.125 C1.34,2.133 1.276,2.139 1.224,2.139 C1.089,2.139 0.988,2.107 0.918,2.045 C0.85,1.981 0.815,1.867 0.815,1.701 C0.815,1.629 0.825,1.565 0.846,1.513 C0.866,1.461 0.899,1.416 0.946,1.377 C0.993,1.338 1.052,1.309 1.124,1.282 C1.198,1.258 1.287,1.235 1.391,1.215 L1.689,1.148 C1.836,1.116 1.958,1.067 2.05,1.002 C2.141,0.937 2.218,0.862 2.279,0.783 C2.34,0.703 2.389,0.621 2.431,0.537 C2.472,0.453 2.517,0.375 2.566,0.308 C2.615,0.239 2.674,0.183 2.742,0.138 C2.81,0.094 2.902,0.072 3.016,0.072 C3.081,0.072 3.141,0.079 3.197,0.094 C3.253,0.109 3.301,0.138 3.344,0.18 C3.386,0.221 3.42,0.277 3.445,0.347 C3.469,0.418 3.482,0.508 3.482,0.618 L3.482,5.241 C3.482,5.345 3.471,5.441 3.451,5.527 C3.43,5.614 3.396,5.689 3.348,5.751 C3.301,5.813 3.24,5.861 3.162,5.896 C3.085,5.932 2.989,5.948 2.879,5.948 C2.766,5.948 2.671,5.932 2.595,5.896 C2.519,5.862 2.456,5.813 2.409,5.751 C2.362,5.689 2.328,5.614 2.306,5.527 C2.285,5.442 2.274,5.345 2.274,5.241 L2.274,1.905 L2.276,1.905 Z"></path>
                                <path d="M5.284,2.981 C5.284,2.822 5.286,2.661 5.294,2.491 C5.301,2.323 5.315,2.154 5.336,1.985 C5.357,1.816 5.39,1.649 5.432,1.485 C5.474,1.321 5.531,1.167 5.605,1.02 C5.674,0.874 5.762,0.738 5.867,0.613 C5.971,0.489 6.097,0.384 6.242,0.292 C6.388,0.202 6.558,0.13 6.751,0.079 C6.944,0.028 7.165,0.003 7.412,0.003 C7.746,0.003 8.029,0.048 8.265,0.134 C8.5,0.224 8.698,0.343 8.858,0.495 C9.014,0.643 9.139,0.819 9.233,1.017 C9.327,1.215 9.395,1.426 9.442,1.646 C9.489,1.868 9.52,2.09 9.534,2.321 C9.549,2.551 9.555,2.77 9.555,2.98 C9.555,3.2 9.549,3.426 9.534,3.661 C9.52,3.894 9.489,4.12 9.442,4.341 C9.395,4.563 9.327,4.772 9.233,4.97 C9.139,5.167 9.014,5.339 8.858,5.488 C8.698,5.636 8.501,5.754 8.265,5.84 C8.029,5.926 7.746,5.972 7.412,5.972 C7.164,5.972 6.943,5.947 6.751,5.897 C6.559,5.848 6.388,5.78 6.242,5.69 C6.097,5.603 5.971,5.499 5.867,5.374 C5.763,5.253 5.675,5.12 5.605,4.975 C5.531,4.828 5.473,4.673 5.432,4.511 C5.39,4.345 5.357,4.179 5.336,4.007 C5.315,3.837 5.301,3.665 5.294,3.491 C5.287,3.317 5.284,3.146 5.284,2.981 L5.284,2.981 Z M6.507,2.981 C6.507,3.1 6.509,3.231 6.512,3.372 C6.514,3.514 6.527,3.655 6.544,3.798 C6.562,3.943 6.588,4.079 6.626,4.212 C6.664,4.343 6.716,4.462 6.782,4.565 C6.848,4.668 6.934,4.75 7.036,4.812 C7.139,4.874 7.264,4.906 7.414,4.906 C7.565,4.906 7.694,4.875 7.798,4.812 C7.903,4.75 7.987,4.667 8.057,4.565 C8.127,4.463 8.178,4.345 8.215,4.212 C8.253,4.079 8.28,3.941 8.297,3.798 C8.316,3.655 8.325,3.514 8.328,3.372 C8.332,3.231 8.333,3.101 8.333,2.981 C8.333,2.864 8.332,2.735 8.328,2.596 C8.327,2.455 8.315,2.317 8.297,2.174 C8.28,2.035 8.253,1.898 8.215,1.767 C8.177,1.635 8.126,1.518 8.057,1.416 C7.988,1.313 7.904,1.233 7.798,1.172 C7.694,1.11 7.568,1.08 7.414,1.08 C7.266,1.08 7.142,1.11 7.041,1.172 C6.938,1.234 6.854,1.315 6.787,1.416 C6.719,1.518 6.666,1.633 6.628,1.767 C6.591,1.898 6.564,2.036 6.545,2.174 C6.528,2.317 6.519,2.457 6.513,2.596 C6.509,2.736 6.507,2.864 6.507,2.981 L6.507,2.981 Z"></path>
                                <path d="M10.087,2.981 C10.087,2.822 10.09,2.661 10.098,2.491 C10.105,2.323 10.119,2.154 10.14,1.985 C10.162,1.816 10.195,1.649 10.238,1.485 C10.279,1.321 10.337,1.167 10.406,1.02 C10.48,0.874 10.568,0.738 10.673,0.613 C10.777,0.489 10.902,0.384 11.048,0.292 C11.194,0.202 11.361,0.13 11.555,0.079 C11.749,0.028 11.969,0.003 12.217,0.003 C12.55,0.003 12.835,0.048 13.071,0.134 C13.305,0.224 13.503,0.343 13.663,0.495 C13.821,0.643 13.946,0.819 14.039,1.017 C14.131,1.215 14.2,1.426 14.249,1.646 C14.295,1.868 14.327,2.09 14.341,2.321 C14.355,2.552 14.361,2.77 14.361,2.98 C14.361,3.2 14.355,3.426 14.341,3.661 C14.327,3.894 14.296,4.12 14.249,4.341 C14.2,4.563 14.131,4.772 14.039,4.97 C13.946,5.167 13.821,5.339 13.663,5.488 C13.503,5.636 13.306,5.754 13.071,5.84 C12.836,5.926 12.551,5.972 12.217,5.972 C11.969,5.972 11.75,5.947 11.555,5.897 C11.362,5.848 11.194,5.78 11.048,5.69 C10.902,5.603 10.777,5.499 10.673,5.374 C10.569,5.253 10.481,5.12 10.406,4.975 C10.336,4.828 10.279,4.673 10.238,4.511 C10.195,4.345 10.163,4.179 10.14,4.007 C10.119,3.837 10.103,3.665 10.098,3.491 C10.09,3.315 10.087,3.146 10.087,2.981 L10.087,2.981 Z M11.31,2.981 C11.31,3.1 11.312,3.231 11.316,3.372 C11.318,3.514 11.329,3.655 11.345,3.798 C11.363,3.943 11.39,4.079 11.428,4.212 C11.466,4.343 11.517,4.462 11.586,4.565 C11.651,4.668 11.737,4.75 11.839,4.812 C11.943,4.874 12.068,4.906 12.216,4.906 C12.368,4.906 12.496,4.875 12.601,4.812 C12.705,4.75 12.791,4.667 12.859,4.565 C12.927,4.462 12.98,4.345 13.016,4.212 C13.055,4.079 13.082,3.941 13.099,3.798 C13.117,3.655 13.127,3.514 13.13,3.372 C13.133,3.231 13.134,3.101 13.134,2.981 C13.134,2.864 13.133,2.735 13.13,2.596 C13.127,2.455 13.116,2.317 13.099,2.174 C13.082,2.035 13.055,1.898 13.016,1.767 C12.98,1.635 12.927,1.518 12.859,1.416 C12.792,1.313 12.705,1.233 12.601,1.172 C12.497,1.11 12.369,1.08 12.216,1.08 C12.07,1.08 11.945,1.11 11.843,1.172 C11.741,1.234 11.657,1.315 11.589,1.416 C11.521,1.517 11.468,1.633 11.431,1.767 C11.394,1.898 11.367,2.036 11.348,2.174 C11.331,2.317 11.32,2.457 11.318,2.596 C11.313,2.736 11.31,2.864 11.31,2.981 L11.31,2.981 Z"></path>
                                <path d="M14.89,2.981 C14.89,2.822 14.896,2.661 14.902,2.491 C14.91,2.323 14.923,2.154 14.945,1.985 C14.966,1.816 14.999,1.649 15.041,1.485 C15.084,1.321 15.142,1.167 15.214,1.02 C15.285,0.874 15.374,0.738 15.477,0.613 C15.582,0.489 15.706,0.384 15.852,0.292 C15.998,0.202 16.167,0.13 16.36,0.079 C16.553,0.028 16.774,0.003 17.022,0.003 C17.354,0.003 17.638,0.048 17.874,0.134 C18.11,0.224 18.307,0.343 18.466,0.495 C18.625,0.643 18.75,0.819 18.842,1.017 C18.935,1.215 19.005,1.426 19.052,1.646 C19.099,1.868 19.13,2.09 19.143,2.321 C19.158,2.551 19.164,2.77 19.164,2.98 C19.164,3.2 19.158,3.426 19.143,3.661 C19.129,3.894 19.099,4.12 19.052,4.341 C19.005,4.563 18.935,4.772 18.842,4.97 C18.75,5.167 18.625,5.339 18.466,5.488 C18.306,5.636 18.111,5.754 17.874,5.84 C17.639,5.926 17.354,5.972 17.022,5.972 C16.774,5.972 16.553,5.947 16.36,5.897 C16.168,5.848 15.998,5.78 15.852,5.69 C15.706,5.603 15.581,5.499 15.477,5.374 C15.373,5.253 15.286,5.12 15.214,4.975 C15.142,4.828 15.085,4.673 15.041,4.511 C14.999,4.345 14.968,4.179 14.945,4.007 C14.924,3.837 14.91,3.665 14.902,3.491 C14.896,3.315 14.89,3.146 14.89,2.981 L14.89,2.981 Z M16.112,2.981 C16.112,3.1 16.114,3.231 16.116,3.372 C16.12,3.514 16.13,3.655 16.147,3.798 C16.166,3.943 16.194,4.079 16.231,4.212 C16.268,4.343 16.321,4.462 16.386,4.565 C16.454,4.668 16.539,4.75 16.641,4.812 C16.745,4.874 16.87,4.906 17.02,4.906 C17.171,4.906 17.299,4.875 17.403,4.812 C17.507,4.75 17.594,4.667 17.663,4.565 C17.732,4.463 17.782,4.345 17.821,4.212 C17.856,4.079 17.885,3.941 17.905,3.798 C17.922,3.655 17.931,3.514 17.934,3.372 C17.936,3.231 17.938,3.101 17.938,2.981 C17.938,2.864 17.936,2.735 17.934,2.596 C17.931,2.455 17.921,2.317 17.905,2.174 C17.885,2.035 17.856,1.898 17.821,1.767 C17.782,1.635 17.731,1.518 17.663,1.416 C17.595,1.313 17.509,1.233 17.403,1.172 C17.299,1.11 17.172,1.08 17.02,1.08 C16.873,1.08 16.748,1.11 16.647,1.172 C16.544,1.234 16.459,1.315 16.391,1.416 C16.323,1.517 16.272,1.633 16.235,1.767 C16.196,1.898 16.17,2.036 16.151,2.174 C16.133,2.317 16.123,2.457 16.12,2.596 C16.116,2.736 16.112,2.864 16.112,2.981 L16.112,2.981 Z"></path>
                            </g>
                        </g>
                        <path d="M109.704,2.104 L96.08,2.104 C95.167,2.104 94.421,2.849 94.421,3.764 L94.421,27.515 C94.421,28.429 95.166,29.174 96.08,29.174 L112.769,29.174 C113.683,29.174 114.427,28.429 114.427,27.515 L114.427,7.236 L109.704,2.104 Z M110.098,4.588 L112.169,6.84 L110.098,6.84 L110.098,4.588 Z M113.035,27.514 C113.035,27.661 112.917,27.781 112.769,27.781 L96.08,27.781 C95.934,27.781 95.814,27.662 95.814,27.514 L95.814,3.765 C95.814,3.619 95.933,3.499 96.08,3.499 L108.701,3.499 L108.701,7.536 C108.701,7.921 109.016,8.231 109.399,8.231 L113.034,8.231 L113.035,27.514 Z M98.275,9.519 L110.112,9.519 C110.4,9.519 110.633,9.753 110.633,10.04 C110.633,10.329 110.401,10.563 110.112,10.563 L98.275,10.563 C97.985,10.563 97.751,10.329 97.751,10.04 C97.751,9.753 97.986,9.519 98.275,9.519 Z M110.633,13.552 C110.633,13.838 110.401,14.073 110.112,14.073 L98.275,14.073 C97.985,14.073 97.751,13.838 97.751,13.552 C97.751,13.262 97.985,13.029 98.275,13.029 L110.112,13.029 C110.4,13.028 110.633,13.262 110.633,13.552 Z M110.633,16.945 C110.633,17.234 110.401,17.468 110.112,17.468 L98.275,17.468 C97.985,17.468 97.751,17.234 97.751,16.945 C97.751,16.656 97.985,16.422 98.275,16.422 L110.112,16.422 C110.4,16.422 110.633,16.656 110.633,16.945 Z M110.633,20.396 C110.633,20.686 110.401,20.92 110.112,20.92 L98.275,20.92 C97.985,20.92 97.751,20.686 97.751,20.396 C97.751,20.109 97.985,19.873 98.275,19.873 L110.112,19.873 C110.4,19.874 110.633,20.11 110.633,20.396 Z" fill="#5B4101"></path>
                        <g id="Group" transform="translate(121.000000, 3.000000)" fill="#5B4101">
                            <path d="M7.38,21.295 L19.572,21.295 C19.939,21.295 20.238,20.998 20.238,20.63 L20.238,13.646 C20.238,13.279 19.939,12.98 19.572,12.98 L7.38,12.98 C7.014,12.98 6.715,13.279 6.715,13.646 L6.715,20.63 C6.715,20.998 7.015,21.295 7.38,21.295 L7.38,21.295 Z M8.047,14.311 L18.906,14.311 L18.906,19.964 L8.047,19.964 L8.047,14.311 Z" id="Shape"></path>
                            <path d="M3.441,0.59 L1.548,0.59 C1.179,0.59 0.882,0.89 0.882,1.256 L0.882,23.15 C0.882,23.517 1.18,23.816 1.548,23.816 L3.441,23.816 C3.808,23.816 4.106,23.517 4.106,23.15 L4.106,22.825 L4.849,22.825 L4.849,23.15 C4.849,23.517 5.148,23.816 5.514,23.816 L21.435,23.816 C21.804,23.816 22.101,23.517 22.101,23.15 L22.101,22.825 L22.844,22.825 L22.844,23.15 C22.844,23.517 23.143,23.816 23.511,23.816 L25.404,23.816 C25.77,23.816 26.069,23.517 26.069,23.15 L26.069,1.256 C26.069,0.889 25.77,0.59 25.404,0.59 L23.511,0.59 C23.143,0.59 22.844,0.89 22.844,1.256 L22.844,1.518 L22.101,1.518 L22.101,1.256 C22.101,0.889 21.804,0.59 21.435,0.59 L5.516,0.59 C5.148,0.59 4.851,0.89 4.851,1.256 L4.851,1.518 L4.106,1.518 L4.106,1.256 C4.106,0.89 3.81,0.59 3.441,0.59 L3.441,0.59 Z M5.517,2.85 C5.885,2.85 6.182,2.551 6.182,2.184 L6.182,1.921 L20.771,1.921 L20.771,2.184 C20.771,2.553 21.07,2.85 21.437,2.85 L23.512,2.85 C23.879,2.85 24.176,2.551 24.176,2.184 L24.176,1.921 L24.738,1.921 L24.738,22.484 L24.177,22.484 L24.177,22.159 C24.177,21.791 23.879,21.492 23.512,21.492 L21.438,21.492 C21.07,21.492 20.773,21.791 20.773,22.159 L20.773,22.484 L6.182,22.484 L6.182,22.159 C6.182,21.791 5.885,21.492 5.517,21.492 L3.442,21.492 C3.075,21.492 2.777,21.791 2.777,22.159 L2.777,22.484 L2.215,22.484 L2.215,1.921 L2.777,1.921 L2.777,2.184 C2.777,2.553 3.075,2.85 3.442,2.85 L5.517,2.85 Z" id="Shape"></path>
                            <path d="M7.38,11.427 L19.572,11.427 C19.939,11.427 20.238,11.129 20.238,10.761 L20.238,3.778 C20.238,3.409 19.939,3.112 19.572,3.112 L7.38,3.112 C7.014,3.112 6.715,3.411 6.715,3.778 L6.715,10.761 C6.715,11.129 7.015,11.427 7.38,11.427 L7.38,11.427 Z M8.047,4.442 L18.906,4.442 L18.906,10.095 L8.047,10.095 L8.047,4.442 Z" id="Shape"></path>
                            <path d="M3.956,19.616 L5.001,19.616 C5.196,19.616 5.353,19.458 5.353,19.263 L5.353,18.313 C5.353,18.12 5.196,17.962 5.001,17.962 L3.956,17.962 C3.763,17.962 3.604,18.119 3.604,18.313 L3.604,19.263 C3.604,19.458 3.763,19.616 3.956,19.616 L3.956,19.616 Z" id="Shape"></path>
                            <path d="M3.956,15.225 L5.001,15.225 C5.196,15.225 5.353,15.067 5.353,14.873 L5.353,13.924 C5.353,13.731 5.196,13.572 5.001,13.572 L3.956,13.572 C3.763,13.572 3.604,13.73 3.604,13.924 L3.604,14.873 C3.604,15.066 3.763,15.225 3.956,15.225 L3.956,15.225 Z" id="Shape"></path>
                            <path d="M3.956,10.834 L5.001,10.834 C5.196,10.834 5.353,10.675 5.353,10.481 L5.353,9.533 C5.353,9.34 5.196,9.181 5.001,9.181 L3.956,9.181 C3.763,9.181 3.604,9.339 3.604,9.533 L3.604,10.481 C3.604,10.676 3.763,10.834 3.956,10.834 L3.956,10.834 Z" id="Shape"></path>
                            <path d="M3.956,6.443 L5.001,6.443 C5.196,6.443 5.353,6.286 5.353,6.092 L5.353,5.142 C5.353,4.948 5.196,4.789 5.001,4.789 L3.956,4.789 C3.763,4.789 3.604,4.947 3.604,5.142 L3.604,6.09 C3.604,6.285 3.763,6.443 3.956,6.443 L3.956,6.443 Z" id="Shape"></path>
                            <path d="M21.952,19.616 L22.998,19.616 C23.192,19.616 23.35,19.458 23.35,19.263 L23.35,18.313 C23.35,18.12 23.193,17.962 22.998,17.962 L21.952,17.962 C21.758,17.962 21.599,18.119 21.599,18.313 L21.599,19.263 C21.6,19.458 21.759,19.616 21.952,19.616 Z" id="Shape"></path>
                            <path d="M21.952,15.225 L22.998,15.225 C23.192,15.225 23.35,15.067 23.35,14.873 L23.35,13.924 C23.35,13.731 23.193,13.572 22.998,13.572 L21.952,13.572 C21.758,13.572 21.599,13.73 21.599,13.924 L21.599,14.873 C21.6,15.066 21.759,15.225 21.952,15.225 Z" id="Shape"></path>
                            <path d="M21.952,10.834 L22.998,10.834 C23.192,10.834 23.35,10.675 23.35,10.481 L23.35,9.533 C23.35,9.34 23.193,9.181 22.998,9.181 L21.952,9.181 C21.758,9.181 21.599,9.339 21.599,9.533 L21.599,10.481 C21.6,10.676 21.759,10.834 21.952,10.834 Z" id="Shape"></path>
                            <path d="M21.952,6.443 L22.998,6.443 C23.192,6.443 23.35,6.286 23.35,6.092 L23.35,5.142 C23.35,4.948 23.193,4.789 22.998,4.789 L21.952,4.789 C21.758,4.789 21.599,4.947 21.599,5.142 L21.599,6.09 C21.6,6.285 21.759,6.443 21.952,6.443 Z" id="Shape"></path>
                        </g>
                        <g id="Group" transform="translate(151.000000, 2.000000)" fill="#5B4101">
                            <path d="M7.047,6.766 L1.53,1.249 C1.26,0.978 0.822,0.978 0.553,1.249 C0.284,1.518 0.284,1.956 0.553,2.226 L6.07,7.744 C6.047,8.052 6.156,8.348 6.375,8.567 C6.789,8.98 7.459,8.979 7.871,8.567 C8.283,8.156 8.285,7.484 7.871,7.072 C7.652,6.852 7.355,6.743 7.047,6.766 L7.047,6.766 Z" id="Shape"></path>
                            <path d="M7.258,2.759 C7.282,2.765 7.31,2.771 7.334,2.778 C7.418,2.798 7.502,2.819 7.588,2.84 C8.151,2.981 8.854,3.155 9.623,3.053 C10.271,2.967 10.778,2.68 11.148,2.47 C11.227,2.425 11.306,2.381 11.384,2.339 C11.513,2.272 11.571,2.254 11.593,2.249 C11.775,2.21 11.902,2.227 11.972,2.297 L24.321,14.644 L14.782,24.183 L2.435,11.835 C2.268,11.667 2.596,11.013 2.807,10.638 C3.323,9.717 3.268,8.533 3.106,7.326 L3.559,7.779 C3.706,8.449 4.044,9.065 4.538,9.56 C5.96,10.983 8.276,10.983 9.7,9.56 C11.122,8.138 11.122,5.822 9.7,4.398 C9.204,3.904 8.589,3.567 7.917,3.419 L7.258,2.759 Z M3.698,1.318 L7.213,4.834 C7.748,4.855 8.254,5.072 8.641,5.459 C9.48,6.298 9.479,7.662 8.641,8.5 C7.803,9.34 6.438,9.34 5.599,8.5 C5.211,8.115 4.995,7.609 4.974,7.074 L1.459,3.557 C0.767,4.958 2.263,8.542 1.5,9.904 C1.008,10.779 0.465,11.981 1.375,12.893 L13.723,25.24 C14.309,25.826 15.258,25.826 15.842,25.24 L25.383,15.701 C25.967,15.115 25.967,14.166 25.381,13.58 L13.035,1.234 C12.561,0.76 11.918,0.643 11.282,0.779 C11.074,0.824 10.883,0.908 10.694,1.006 C10.282,1.221 9.896,1.5 9.425,1.563 C8.846,1.64 8.236,1.448 7.675,1.315 C7.007,1.161 6.347,0.974 5.671,0.86 C5.303,0.798 4.85,0.739 4.499,0.915 C4.447,0.939 3.744,1.363 3.698,1.318 L3.698,1.318 Z" id="Shape"></path>
                            <path d="M21.531,16.36 L15.666,22.225 C15.433,22.459 15.053,22.459 14.818,22.225 C14.583,21.991 14.584,21.612 14.818,21.375 L20.682,15.512 C20.915,15.278 21.296,15.278 21.53,15.512 C21.765,15.747 21.766,16.126 21.531,16.36 Z" id="Shape"></path>
                        </g>
                        <g id="Group" transform="translate(182.000000, 1.000000)" fill="#5B4101">
                            <path d="M20.398,28.899 C20.348,28.899 20.297,28.893 20.249,28.879 L1.266,23.798 C1.015,23.731 0.839,23.503 0.839,23.241 L0.839,1.671 C0.839,1.502 0.915,1.343 1.042,1.233 C1.171,1.126 1.339,1.075 1.507,1.103 L20.489,4.171 C20.768,4.216 20.972,4.455 20.972,4.738 L20.972,28.322 C20.972,28.5 20.889,28.671 20.746,28.779 C20.646,28.858 20.522,28.899 20.398,28.899 L20.398,28.899 Z M1.99,22.802 L19.822,27.574 L19.822,5.229 L1.99,2.346 L1.99,22.802 Z" id="Shape"></path>
                            <path d="M20.398,28.899 C20.295,28.899 20.194,28.873 20.104,28.818 C19.93,28.714 19.823,28.527 19.823,28.324 L19.823,4.74 C19.823,4.496 19.976,4.279 20.206,4.197 L23.275,3.111 C23.45,3.049 23.646,3.076 23.799,3.184 C23.95,3.29 24.041,3.466 24.041,3.654 L24.041,26.664 C24.041,26.875 23.926,27.07 23.74,27.17 L20.672,28.832 C20.587,28.875 20.491,28.899 20.398,28.899 Z M20.973,5.146 L20.973,27.358 L22.892,26.319 L22.892,4.468 L20.973,5.146 Z" id="Shape"></path>
                            <path d="M20.398,5.314 C20.367,5.314 20.336,5.312 20.306,5.307 L1.323,2.24 C1.059,2.197 0.86,1.979 0.841,1.714 C0.821,1.449 0.987,1.203 1.239,1.123 L4.243,0.166 C4.329,0.139 4.419,0.132 4.507,0.145 L23.554,3.083 C23.815,3.124 24.015,3.335 24.038,3.599 C24.063,3.861 23.906,4.107 23.657,4.195 L20.589,5.281 C20.527,5.304 20.462,5.314 20.398,5.314 L20.398,5.314 Z M3.884,1.488 L20.345,4.147 L21.12,3.873 L4.466,1.303 L3.884,1.488 Z" id="Shape"></path>
                            <path d="M15.37,23.274 C11.177,23.274 7.976,22.076 5.827,20.88 C2.609,19.089 1.018,16.962 0.952,16.872 L1.878,16.188 C1.893,16.208 3.417,18.235 6.435,19.901 C9.212,21.434 13.868,22.968 20.276,21.577 L20.52,22.7 C18.665,23.105 16.947,23.274 15.37,23.274 L15.37,23.274 Z" id="Shape"></path>
                        </g>
                        <path d="M234.382,5.989 L214.612,5.989 C212.792,5.989 211.317,7.465 211.317,9.284 L211.317,22.466 C211.317,24.283 212.792,25.76 214.612,25.76 L234.382,25.76 C236.202,25.76 237.677,24.285 237.677,22.466 L237.677,9.286 C237.677,7.466 236.202,5.989 234.382,5.989 L234.382,5.989 Z M228.958,14.783 L235.933,8.806 C235.982,8.959 236.03,9.114 236.03,9.285 L236.03,22.465 C236.03,22.579 235.988,22.68 235.965,22.787 L228.958,14.783 Z M234.382,7.639 C234.491,7.639 234.589,7.679 234.691,7.701 L224.498,16.44 L214.304,7.7 C214.406,7.679 214.504,7.638 214.613,7.638 L234.382,7.638 L234.382,7.639 Z M213.03,22.787 C213.008,22.679 212.966,22.58 212.966,22.466 L212.966,9.286 C212.966,9.115 213.014,8.961 213.062,8.807 L220.035,14.782 L213.03,22.787 Z M214.612,24.113 C214.445,24.113 214.295,24.064 214.142,24.017 L221.287,15.854 L223.962,18.147 C224.115,18.28 224.309,18.346 224.498,18.346 C224.688,18.346 224.881,18.28 225.033,18.147 L227.709,15.854 L234.853,24.017 C234.702,24.064 234.551,24.113 234.383,24.113 L214.612,24.113 Z" fill="#5B4101"></path>
                        <g id="Group" transform="translate(0.000000, 2.000000)" fill="#5A4319">
                            <path d="M23.938,13.123 C23.488,13.123 23.14,13.47 23.14,13.923 L23.14,24.866 L17.464,24.866 L17.464,20.398 C17.464,19.979 17.112,19.612 16.692,19.612 L12.587,19.612 C12.136,19.612 11.772,19.979 11.772,20.398 L11.772,24.866 L6.106,24.866 L6.106,14.287 C6.106,13.864 5.757,13.513 5.306,13.513 C4.884,13.513 4.535,13.865 4.535,14.287 L4.535,25.669 C4.535,26.09 4.884,26.442 5.306,26.442 L12.586,26.442 C13.008,26.442 13.357,26.089 13.357,25.669 L13.357,21.201 L15.891,21.201 L15.891,25.669 C15.891,26.09 16.239,26.442 16.692,26.442 L23.938,26.442 C24.361,26.442 24.711,26.089 24.711,25.669 L24.711,13.923 C24.709,13.47 24.36,13.123 23.938,13.123 L23.938,13.123 Z" id="Shape"></path>
                            <path d="M28.291,13.746 L21.974,7.401 L21.974,3.078 C21.974,2.627 21.608,2.278 21.159,2.278 C20.736,2.278 20.387,2.627 20.387,3.078 L20.387,5.816 L15.177,0.574 C15.019,0.413 14.829,0.326 14.638,0.326 C14.419,0.326 14.231,0.414 14.072,0.574 L0.983,13.66 C0.669,13.973 0.649,14.477 0.983,14.764 C1.274,15.099 1.775,15.078 2.089,14.764 L14.637,2.247 L27.155,14.884 C27.286,15.013 27.475,15.086 27.722,15.086 C27.941,15.086 28.129,15.013 28.288,14.884 C28.583,14.592 28.604,14.062 28.291,13.746 Z" id="Shape"></path>
                        </g>
                        <g id="Group" transform="translate(0.000000, 30.000000)" fill="#B38006">
                            <g id="Shape" transform="translate(31.000000, 1.000000)">
                                <path d="M9.034,17.901 C9.034,18.555 8.503,19.089 7.848,19.089 C7.193,19.089 6.661,18.558 6.661,17.901 C6.661,17.244 7.192,16.715 7.848,16.715 C8.503,16.716 9.034,17.247 9.034,17.901 Z"></path>
                                <path d="M15.744,17.901 C15.744,18.555 15.213,19.089 14.557,19.089 C13.903,19.089 13.37,18.558 13.37,17.901 C13.37,17.244 13.9,16.715 14.557,16.715 C15.213,16.716 15.744,17.247 15.744,17.901 Z"></path>
                                <path d="M11.203,28.522 C13.961,28.522 16.551,27.35 18.495,25.223 C20.425,23.11 21.487,20.307 21.487,17.328 C21.487,16.248 21.346,15.191 21.078,14.185 C21.147,14.2 21.217,14.213 21.287,14.227 C22.261,14.405 23.056,14.682 23.647,15.052 C24.106,15.339 24.323,15.611 24.412,15.747 C24.649,16.114 25.054,16.333 25.494,16.333 C26.086,16.333 26.598,15.937 26.739,15.366 C26.843,14.943 26.961,14.277 26.925,13.511 C26.881,12.564 26.621,11.699 26.152,10.939 C25.55,9.97 24.635,9.212 23.421,8.676 C23.658,8.439 23.893,8.169 24.109,7.864 C24.538,7.26 24.843,6.593 25.021,5.88 C25.224,5.054 25.25,4.165 25.103,3.237 C25.049,2.921 24.88,2.635 24.624,2.436 C24.398,2.26 24.115,2.163 23.828,2.163 C23.58,2.163 23.34,2.233 23.131,2.368 C22.795,2.585 21.854,3.108 20.391,3.285 C18.953,3.458 18.124,4.602 17.627,5.453 C17.625,5.452 17.623,5.451 17.622,5.45 C16.867,2.612 14.279,0.52 11.204,0.52 C7.605,0.52 4.677,3.382 4.567,6.955 C4.487,7.038 4.407,7.123 4.33,7.209 C4.12,7.444 4.081,7.644 4.011,8.002 C3.984,8.14 3.949,8.331 3.904,8.567 C3.828,8.969 3.754,9.375 3.753,9.379 L3.753,9.381 C3.738,9.465 3.732,9.55 3.732,9.634 C1.918,11.722 0.92,14.442 0.92,17.327 C0.92,20.306 1.982,23.108 3.912,25.222 C5.855,27.351 8.444,28.522 11.203,28.522 L11.203,28.522 Z M17.839,6.974 C17.865,7.006 17.892,7.021 17.921,7.021 C18.283,7.021 18.862,4.599 20.525,4.4 C22.198,4.197 23.299,3.593 23.736,3.312 C23.765,3.293 23.798,3.287 23.828,3.287 C23.907,3.287 23.98,3.34 23.995,3.422 C24.534,6.772 22.226,8.38 21.267,8.895 C21.14,8.964 21.171,9.145 21.318,9.178 C26.378,10.305 25.951,13.899 25.652,15.102 C25.632,15.178 25.564,15.219 25.496,15.219 C25.441,15.219 25.389,15.194 25.353,15.143 C25.002,14.603 24.029,13.592 21.488,13.128 C21.189,13.072 20.914,12.999 20.658,12.908 C18.144,12.023 17.671,9.605 17.601,9.146 C17.597,9.117 17.583,9.089 17.564,9.066 C17.549,9.051 17.535,9.039 17.517,9.029 C15.871,8.17 14.077,7.857 12.371,7.857 C8.906,7.857 5.813,9.144 5.125,9.728 C5.112,9.738 5.101,9.746 5.088,9.75 C5.066,9.76 5.043,9.767 5.019,9.767 C4.924,9.767 4.833,9.687 4.853,9.582 C4.853,9.582 4.875,9.457 4.91,9.276 C4.961,9.005 5.035,8.61 5.09,8.321 C5.131,8.112 5.161,7.96 5.166,7.955 C6.93,5.977 9.449,5.347 11.78,5.347 C14.759,5.347 17.434,6.379 17.827,6.953 C17.83,6.963 17.834,6.969 17.839,6.974 L17.839,6.974 Z M3.297,16.165 C3.881,15.56 4.45,14.937 4.991,14.292 C5.908,13.198 7.116,11.825 7.32,10.354 C7.527,8.875 11.446,14.295 13.993,14.841 C16.331,15.342 17.954,16.61 18.204,19.207 C18.227,19.447 18.541,19.521 18.668,19.314 C19.019,18.748 19.492,17.826 19.733,16.683 C19.772,16.501 20.02,16.474 20.1,16.642 C20.13,16.71 20.162,16.779 20.194,16.849 C20.201,17.007 20.205,17.165 20.205,17.326 C20.205,22.793 16.166,27.238 11.201,27.238 C6.265,27.238 2.353,22.72 2.214,17.929 C2.191,17.097 2.768,16.714 3.297,16.165 L3.297,16.165 Z"></path>
                            </g>
                            <g id="Shape" transform="translate(61.000000, 0.000000)">
                                <path d="M13.665,6.446 C13.545,6.446 13.483,6.415 13.377,6.353 C13.161,6.229 13.089,6 13.089,5.75 L13.089,1.631 C13.089,1.381 13.161,1.152 13.377,1.027 C13.591,0.903 13.827,0.903 14.042,1.027 L17.596,3.089 C17.812,3.212 17.937,3.442 17.937,3.691 C17.937,3.94 17.8,4.17 17.584,4.293 L14.014,6.353 C13.905,6.415 13.784,6.446 13.665,6.446 L13.665,6.446 Z M14.36,2.835 L14.36,4.548 L15.842,3.693 L14.36,2.835 Z"></path>
                                <path d="M13.396,29.279 C6.215,29.279 0.375,23.437 0.375,16.257 C0.375,9.197 5.906,3.486 12.967,3.257 C13.303,3.21 13.671,3.544 13.684,3.929 C13.698,4.313 13.397,4.634 13.012,4.645 C6.705,4.852 1.765,9.955 1.765,16.257 C1.765,22.671 6.983,27.89 13.397,27.89 C19.811,27.89 25.028,22.671 25.028,16.257 C25.028,12.725 23.444,9.421 20.68,7.196 C20.381,6.956 20.334,6.517 20.575,6.217 C20.817,5.92 21.255,5.871 21.554,6.113 C24.646,8.603 26.42,12.3 26.42,16.257 C26.418,23.438 20.575,29.279 13.396,29.279 L13.396,29.279 Z"></path>
                                <g id="Group" transform="translate(3.000000, 14.000000)">
                                    <path d="M2.276,1.905 C2.168,1.947 2.063,1.986 1.961,2.016 C1.858,2.045 1.761,2.07 1.669,2.088 C1.579,2.106 1.495,2.119 1.417,2.125 C1.34,2.133 1.276,2.139 1.224,2.139 C1.089,2.139 0.988,2.107 0.918,2.045 C0.85,1.981 0.815,1.867 0.815,1.701 C0.815,1.629 0.825,1.565 0.846,1.513 C0.866,1.461 0.899,1.416 0.946,1.377 C0.993,1.338 1.052,1.309 1.124,1.282 C1.198,1.258 1.287,1.235 1.391,1.215 L1.689,1.148 C1.836,1.116 1.958,1.067 2.05,1.002 C2.141,0.937 2.218,0.862 2.279,0.783 C2.34,0.703 2.389,0.621 2.431,0.537 C2.472,0.453 2.517,0.375 2.566,0.308 C2.615,0.239 2.674,0.183 2.742,0.138 C2.81,0.094 2.902,0.072 3.016,0.072 C3.081,0.072 3.141,0.079 3.197,0.094 C3.253,0.109 3.301,0.138 3.344,0.18 C3.386,0.221 3.42,0.277 3.445,0.347 C3.469,0.418 3.482,0.508 3.482,0.618 L3.482,5.241 C3.482,5.345 3.471,5.441 3.451,5.527 C3.43,5.614 3.396,5.689 3.348,5.751 C3.301,5.813 3.24,5.861 3.162,5.896 C3.085,5.932 2.989,5.948 2.879,5.948 C2.766,5.948 2.671,5.932 2.595,5.896 C2.519,5.862 2.456,5.813 2.409,5.751 C2.362,5.689 2.328,5.614 2.306,5.527 C2.285,5.442 2.274,5.345 2.274,5.241 L2.274,1.905 L2.276,1.905 Z" id="Shape"></path>
                                    <path d="M5.284,2.981 C5.284,2.822 5.286,2.661 5.294,2.491 C5.301,2.323 5.315,2.154 5.336,1.985 C5.357,1.816 5.39,1.649 5.432,1.485 C5.474,1.321 5.531,1.167 5.605,1.02 C5.674,0.874 5.762,0.738 5.867,0.613 C5.971,0.489 6.097,0.384 6.242,0.292 C6.388,0.202 6.558,0.13 6.751,0.079 C6.944,0.028 7.165,0.003 7.412,0.003 C7.746,0.003 8.029,0.048 8.265,0.134 C8.5,0.224 8.698,0.343 8.858,0.495 C9.014,0.643 9.139,0.819 9.233,1.017 C9.327,1.215 9.395,1.426 9.442,1.646 C9.489,1.868 9.52,2.09 9.534,2.321 C9.549,2.551 9.555,2.77 9.555,2.98 C9.555,3.2 9.549,3.426 9.534,3.661 C9.52,3.894 9.489,4.12 9.442,4.341 C9.395,4.563 9.327,4.772 9.233,4.97 C9.139,5.167 9.014,5.339 8.858,5.488 C8.698,5.636 8.501,5.754 8.265,5.84 C8.029,5.926 7.746,5.972 7.412,5.972 C7.164,5.972 6.943,5.947 6.751,5.897 C6.559,5.848 6.388,5.78 6.242,5.69 C6.097,5.603 5.971,5.499 5.867,5.374 C5.763,5.253 5.675,5.12 5.605,4.975 C5.531,4.828 5.473,4.673 5.432,4.511 C5.39,4.345 5.357,4.179 5.336,4.007 C5.315,3.837 5.301,3.665 5.294,3.491 C5.287,3.317 5.284,3.146 5.284,2.981 L5.284,2.981 Z M6.507,2.981 C6.507,3.1 6.509,3.231 6.512,3.372 C6.514,3.514 6.527,3.655 6.544,3.798 C6.562,3.943 6.588,4.079 6.626,4.212 C6.664,4.343 6.716,4.462 6.782,4.565 C6.848,4.668 6.934,4.75 7.036,4.812 C7.139,4.874 7.264,4.906 7.414,4.906 C7.565,4.906 7.694,4.875 7.798,4.812 C7.903,4.75 7.987,4.667 8.057,4.565 C8.127,4.463 8.178,4.345 8.215,4.212 C8.253,4.079 8.28,3.941 8.297,3.798 C8.316,3.655 8.325,3.514 8.328,3.372 C8.332,3.231 8.333,3.101 8.333,2.981 C8.333,2.864 8.332,2.735 8.328,2.596 C8.327,2.455 8.315,2.317 8.297,2.174 C8.28,2.035 8.253,1.898 8.215,1.767 C8.177,1.635 8.126,1.518 8.057,1.416 C7.988,1.313 7.904,1.233 7.798,1.172 C7.694,1.11 7.568,1.08 7.414,1.08 C7.266,1.08 7.142,1.11 7.041,1.172 C6.938,1.234 6.854,1.315 6.787,1.416 C6.719,1.518 6.666,1.633 6.628,1.767 C6.591,1.898 6.564,2.036 6.545,2.174 C6.528,2.317 6.519,2.457 6.513,2.596 C6.509,2.736 6.507,2.864 6.507,2.981 L6.507,2.981 Z" id="Shape"></path>
                                    <path d="M10.087,2.981 C10.087,2.822 10.09,2.661 10.098,2.491 C10.105,2.323 10.119,2.154 10.14,1.985 C10.162,1.816 10.195,1.649 10.238,1.485 C10.279,1.321 10.337,1.167 10.406,1.02 C10.48,0.874 10.568,0.738 10.673,0.613 C10.777,0.489 10.902,0.384 11.048,0.292 C11.194,0.202 11.361,0.13 11.555,0.079 C11.749,0.028 11.969,0.003 12.217,0.003 C12.55,0.003 12.835,0.048 13.071,0.134 C13.305,0.224 13.503,0.343 13.663,0.495 C13.821,0.643 13.946,0.819 14.039,1.017 C14.131,1.215 14.2,1.426 14.249,1.646 C14.295,1.868 14.327,2.09 14.341,2.321 C14.355,2.552 14.361,2.77 14.361,2.98 C14.361,3.2 14.355,3.426 14.341,3.661 C14.327,3.894 14.296,4.12 14.249,4.341 C14.2,4.563 14.131,4.772 14.039,4.97 C13.946,5.167 13.821,5.339 13.663,5.488 C13.503,5.636 13.306,5.754 13.071,5.84 C12.836,5.926 12.551,5.972 12.217,5.972 C11.969,5.972 11.75,5.947 11.555,5.897 C11.362,5.848 11.194,5.78 11.048,5.69 C10.902,5.603 10.777,5.499 10.673,5.374 C10.569,5.253 10.481,5.12 10.406,4.975 C10.336,4.828 10.279,4.673 10.238,4.511 C10.195,4.345 10.163,4.179 10.14,4.007 C10.119,3.837 10.103,3.665 10.098,3.491 C10.09,3.315 10.087,3.146 10.087,2.981 L10.087,2.981 Z M11.31,2.981 C11.31,3.1 11.312,3.231 11.316,3.372 C11.318,3.514 11.329,3.655 11.345,3.798 C11.363,3.943 11.39,4.079 11.428,4.212 C11.466,4.343 11.517,4.462 11.586,4.565 C11.651,4.668 11.737,4.75 11.839,4.812 C11.943,4.874 12.068,4.906 12.216,4.906 C12.368,4.906 12.496,4.875 12.601,4.812 C12.705,4.75 12.791,4.667 12.859,4.565 C12.927,4.462 12.98,4.345 13.016,4.212 C13.055,4.079 13.082,3.941 13.099,3.798 C13.117,3.655 13.127,3.514 13.13,3.372 C13.133,3.231 13.134,3.101 13.134,2.981 C13.134,2.864 13.133,2.735 13.13,2.596 C13.127,2.455 13.116,2.317 13.099,2.174 C13.082,2.035 13.055,1.898 13.016,1.767 C12.98,1.635 12.927,1.518 12.859,1.416 C12.792,1.313 12.705,1.233 12.601,1.172 C12.497,1.11 12.369,1.08 12.216,1.08 C12.07,1.08 11.945,1.11 11.843,1.172 C11.741,1.234 11.657,1.315 11.589,1.416 C11.521,1.517 11.468,1.633 11.431,1.767 C11.394,1.898 11.367,2.036 11.348,2.174 C11.331,2.317 11.32,2.457 11.318,2.596 C11.313,2.736 11.31,2.864 11.31,2.981 L11.31,2.981 Z" id="Shape"></path>
                                    <path d="M14.89,2.981 C14.89,2.822 14.896,2.661 14.902,2.491 C14.91,2.323 14.923,2.154 14.945,1.985 C14.966,1.816 14.999,1.649 15.041,1.485 C15.084,1.321 15.142,1.167 15.214,1.02 C15.285,0.874 15.374,0.738 15.477,0.613 C15.582,0.489 15.706,0.384 15.852,0.292 C15.998,0.202 16.167,0.13 16.36,0.079 C16.553,0.028 16.774,0.003 17.022,0.003 C17.354,0.003 17.638,0.048 17.874,0.134 C18.11,0.224 18.307,0.343 18.466,0.495 C18.625,0.643 18.75,0.819 18.842,1.017 C18.935,1.215 19.005,1.426 19.052,1.646 C19.099,1.868 19.13,2.09 19.143,2.321 C19.158,2.551 19.164,2.77 19.164,2.98 C19.164,3.2 19.158,3.426 19.143,3.661 C19.129,3.894 19.099,4.12 19.052,4.341 C19.005,4.563 18.935,4.772 18.842,4.97 C18.75,5.167 18.625,5.339 18.466,5.488 C18.306,5.636 18.111,5.754 17.874,5.84 C17.639,5.926 17.354,5.972 17.022,5.972 C16.774,5.972 16.553,5.947 16.36,5.897 C16.168,5.848 15.998,5.78 15.852,5.69 C15.706,5.603 15.581,5.499 15.477,5.374 C15.373,5.253 15.286,5.12 15.214,4.975 C15.142,4.828 15.085,4.673 15.041,4.511 C14.999,4.345 14.968,4.179 14.945,4.007 C14.924,3.837 14.91,3.665 14.902,3.491 C14.896,3.315 14.89,3.146 14.89,2.981 L14.89,2.981 Z M16.112,2.981 C16.112,3.1 16.114,3.231 16.116,3.372 C16.12,3.514 16.13,3.655 16.147,3.798 C16.166,3.943 16.194,4.079 16.231,4.212 C16.268,4.343 16.321,4.462 16.386,4.565 C16.454,4.668 16.539,4.75 16.641,4.812 C16.745,4.874 16.87,4.906 17.02,4.906 C17.171,4.906 17.299,4.875 17.403,4.812 C17.507,4.75 17.594,4.667 17.663,4.565 C17.732,4.463 17.782,4.345 17.821,4.212 C17.856,4.079 17.885,3.941 17.905,3.798 C17.922,3.655 17.931,3.514 17.934,3.372 C17.936,3.231 17.938,3.101 17.938,2.981 C17.938,2.864 17.936,2.735 17.934,2.596 C17.931,2.455 17.921,2.317 17.905,2.174 C17.885,2.035 17.856,1.898 17.821,1.767 C17.782,1.635 17.731,1.518 17.663,1.416 C17.595,1.313 17.509,1.233 17.403,1.172 C17.299,1.11 17.172,1.08 17.02,1.08 C16.873,1.08 16.748,1.11 16.647,1.172 C16.544,1.234 16.459,1.315 16.391,1.416 C16.323,1.517 16.272,1.633 16.235,1.767 C16.196,1.898 16.17,2.036 16.151,2.174 C16.133,2.317 16.123,2.457 16.12,2.596 C16.116,2.736 16.112,2.864 16.112,2.981 L16.112,2.981 Z" id="Shape"></path>
                                </g>
                            </g>
                            <path d="M109.704,2.104 L96.08,2.104 C95.167,2.104 94.421,2.849 94.421,3.764 L94.421,27.515 C94.421,28.429 95.166,29.174 96.08,29.174 L112.769,29.174 C113.683,29.174 114.427,28.429 114.427,27.515 L114.427,7.236 L109.704,2.104 Z M110.098,4.588 L112.169,6.84 L110.098,6.84 L110.098,4.588 Z M113.035,27.514 C113.035,27.661 112.917,27.781 112.769,27.781 L96.08,27.781 C95.934,27.781 95.814,27.662 95.814,27.514 L95.814,3.765 C95.814,3.619 95.933,3.499 96.08,3.499 L108.701,3.499 L108.701,7.536 C108.701,7.921 109.016,8.231 109.399,8.231 L113.034,8.231 L113.035,27.514 Z M98.275,9.519 L110.112,9.519 C110.4,9.519 110.633,9.753 110.633,10.04 C110.633,10.329 110.401,10.563 110.112,10.563 L98.275,10.563 C97.985,10.563 97.751,10.329 97.751,10.04 C97.751,9.753 97.986,9.519 98.275,9.519 Z M110.633,13.552 C110.633,13.838 110.401,14.073 110.112,14.073 L98.275,14.073 C97.985,14.073 97.751,13.838 97.751,13.552 C97.751,13.262 97.985,13.029 98.275,13.029 L110.112,13.029 C110.4,13.028 110.633,13.262 110.633,13.552 Z M110.633,16.945 C110.633,17.234 110.401,17.468 110.112,17.468 L98.275,17.468 C97.985,17.468 97.751,17.234 97.751,16.945 C97.751,16.656 97.985,16.422 98.275,16.422 L110.112,16.422 C110.4,16.422 110.633,16.656 110.633,16.945 Z M110.633,20.396 C110.633,20.686 110.401,20.92 110.112,20.92 L98.275,20.92 C97.985,20.92 97.751,20.686 97.751,20.396 C97.751,20.109 97.985,19.873 98.275,19.873 L110.112,19.873 C110.4,19.874 110.633,20.11 110.633,20.396 Z" id="Shape"></path>
                            <g id="Shape" transform="translate(121.000000, 3.000000)">
                                <path d="M7.38,21.295 L19.572,21.295 C19.939,21.295 20.238,20.998 20.238,20.63 L20.238,13.646 C20.238,13.279 19.939,12.98 19.572,12.98 L7.38,12.98 C7.014,12.98 6.715,13.279 6.715,13.646 L6.715,20.63 C6.715,20.998 7.015,21.295 7.38,21.295 L7.38,21.295 Z M8.047,14.311 L18.906,14.311 L18.906,19.964 L8.047,19.964 L8.047,14.311 Z"></path>
                                <path d="M3.441,0.59 L1.548,0.59 C1.179,0.59 0.882,0.89 0.882,1.256 L0.882,23.15 C0.882,23.517 1.18,23.816 1.548,23.816 L3.441,23.816 C3.808,23.816 4.106,23.517 4.106,23.15 L4.106,22.825 L4.849,22.825 L4.849,23.15 C4.849,23.517 5.148,23.816 5.514,23.816 L21.435,23.816 C21.804,23.816 22.101,23.517 22.101,23.15 L22.101,22.825 L22.844,22.825 L22.844,23.15 C22.844,23.517 23.143,23.816 23.511,23.816 L25.404,23.816 C25.77,23.816 26.069,23.517 26.069,23.15 L26.069,1.256 C26.069,0.889 25.77,0.59 25.404,0.59 L23.511,0.59 C23.143,0.59 22.844,0.89 22.844,1.256 L22.844,1.518 L22.101,1.518 L22.101,1.256 C22.101,0.889 21.804,0.59 21.435,0.59 L5.516,0.59 C5.148,0.59 4.851,0.89 4.851,1.256 L4.851,1.518 L4.106,1.518 L4.106,1.256 C4.106,0.89 3.81,0.59 3.441,0.59 L3.441,0.59 Z M5.517,2.85 C5.885,2.85 6.182,2.551 6.182,2.184 L6.182,1.921 L20.771,1.921 L20.771,2.184 C20.771,2.553 21.07,2.85 21.437,2.85 L23.512,2.85 C23.879,2.85 24.176,2.551 24.176,2.184 L24.176,1.921 L24.738,1.921 L24.738,22.484 L24.177,22.484 L24.177,22.159 C24.177,21.791 23.879,21.492 23.512,21.492 L21.438,21.492 C21.07,21.492 20.773,21.791 20.773,22.159 L20.773,22.484 L6.182,22.484 L6.182,22.159 C6.182,21.791 5.885,21.492 5.517,21.492 L3.442,21.492 C3.075,21.492 2.777,21.791 2.777,22.159 L2.777,22.484 L2.215,22.484 L2.215,1.921 L2.777,1.921 L2.777,2.184 C2.777,2.553 3.075,2.85 3.442,2.85 L5.517,2.85 Z"></path>
                                <path d="M7.38,11.427 L19.572,11.427 C19.939,11.427 20.238,11.129 20.238,10.761 L20.238,3.778 C20.238,3.409 19.939,3.112 19.572,3.112 L7.38,3.112 C7.014,3.112 6.715,3.411 6.715,3.778 L6.715,10.761 C6.715,11.129 7.015,11.427 7.38,11.427 L7.38,11.427 Z M8.047,4.442 L18.906,4.442 L18.906,10.095 L8.047,10.095 L8.047,4.442 Z"></path>
                                <path d="M3.956,19.616 L5.001,19.616 C5.196,19.616 5.353,19.458 5.353,19.263 L5.353,18.313 C5.353,18.12 5.196,17.962 5.001,17.962 L3.956,17.962 C3.763,17.962 3.604,18.119 3.604,18.313 L3.604,19.263 C3.604,19.458 3.763,19.616 3.956,19.616 L3.956,19.616 Z"></path>
                                <path d="M3.956,15.225 L5.001,15.225 C5.196,15.225 5.353,15.067 5.353,14.873 L5.353,13.924 C5.353,13.731 5.196,13.572 5.001,13.572 L3.956,13.572 C3.763,13.572 3.604,13.73 3.604,13.924 L3.604,14.873 C3.604,15.066 3.763,15.225 3.956,15.225 L3.956,15.225 Z"></path>
                                <path d="M3.956,10.834 L5.001,10.834 C5.196,10.834 5.353,10.675 5.353,10.481 L5.353,9.533 C5.353,9.34 5.196,9.181 5.001,9.181 L3.956,9.181 C3.763,9.181 3.604,9.339 3.604,9.533 L3.604,10.481 C3.604,10.676 3.763,10.834 3.956,10.834 L3.956,10.834 Z"></path>
                                <path d="M3.956,6.443 L5.001,6.443 C5.196,6.443 5.353,6.286 5.353,6.092 L5.353,5.142 C5.353,4.948 5.196,4.789 5.001,4.789 L3.956,4.789 C3.763,4.789 3.604,4.947 3.604,5.142 L3.604,6.09 C3.604,6.285 3.763,6.443 3.956,6.443 L3.956,6.443 Z"></path>
                                <path d="M21.952,19.616 L22.998,19.616 C23.192,19.616 23.35,19.458 23.35,19.263 L23.35,18.313 C23.35,18.12 23.193,17.962 22.998,17.962 L21.952,17.962 C21.758,17.962 21.599,18.119 21.599,18.313 L21.599,19.263 C21.6,19.458 21.759,19.616 21.952,19.616 Z"></path>
                                <path d="M21.952,15.225 L22.998,15.225 C23.192,15.225 23.35,15.067 23.35,14.873 L23.35,13.924 C23.35,13.731 23.193,13.572 22.998,13.572 L21.952,13.572 C21.758,13.572 21.599,13.73 21.599,13.924 L21.599,14.873 C21.6,15.066 21.759,15.225 21.952,15.225 Z"></path>
                                <path d="M21.952,10.834 L22.998,10.834 C23.192,10.834 23.35,10.675 23.35,10.481 L23.35,9.533 C23.35,9.34 23.193,9.181 22.998,9.181 L21.952,9.181 C21.758,9.181 21.599,9.339 21.599,9.533 L21.599,10.481 C21.6,10.676 21.759,10.834 21.952,10.834 Z"></path>
                                <path d="M21.952,6.443 L22.998,6.443 C23.192,6.443 23.35,6.286 23.35,6.092 L23.35,5.142 C23.35,4.948 23.193,4.789 22.998,4.789 L21.952,4.789 C21.758,4.789 21.599,4.947 21.599,5.142 L21.599,6.09 C21.6,6.285 21.759,6.443 21.952,6.443 Z"></path>
                            </g>
                            <g id="Shape" transform="translate(151.000000, 2.000000)">
                                <path d="M7.047,6.766 L1.53,1.249 C1.26,0.978 0.822,0.978 0.553,1.249 C0.284,1.518 0.284,1.956 0.553,2.226 L6.07,7.744 C6.047,8.052 6.156,8.348 6.375,8.567 C6.789,8.98 7.459,8.979 7.871,8.567 C8.283,8.156 8.285,7.484 7.871,7.072 C7.652,6.852 7.355,6.743 7.047,6.766 L7.047,6.766 Z"></path>
                                <path d="M7.258,2.759 C7.282,2.765 7.31,2.771 7.334,2.778 C7.418,2.798 7.502,2.819 7.588,2.84 C8.151,2.981 8.854,3.155 9.623,3.053 C10.271,2.967 10.778,2.68 11.148,2.47 C11.227,2.425 11.306,2.381 11.384,2.339 C11.513,2.272 11.571,2.254 11.593,2.249 C11.775,2.21 11.902,2.227 11.972,2.297 L24.321,14.644 L14.782,24.183 L2.435,11.835 C2.268,11.667 2.596,11.013 2.807,10.638 C3.323,9.717 3.268,8.533 3.106,7.326 L3.559,7.779 C3.706,8.449 4.044,9.065 4.538,9.56 C5.96,10.983 8.276,10.983 9.7,9.56 C11.122,8.138 11.122,5.822 9.7,4.398 C9.204,3.904 8.589,3.567 7.917,3.419 L7.258,2.759 Z M3.698,1.318 L7.213,4.834 C7.748,4.855 8.254,5.072 8.641,5.459 C9.48,6.298 9.479,7.662 8.641,8.5 C7.803,9.34 6.438,9.34 5.599,8.5 C5.211,8.115 4.995,7.609 4.974,7.074 L1.459,3.557 C0.767,4.958 2.263,8.542 1.5,9.904 C1.008,10.779 0.465,11.981 1.375,12.893 L13.723,25.24 C14.309,25.826 15.258,25.826 15.842,25.24 L25.383,15.701 C25.967,15.115 25.967,14.166 25.381,13.58 L13.035,1.234 C12.561,0.76 11.918,0.643 11.282,0.779 C11.074,0.824 10.883,0.908 10.694,1.006 C10.282,1.221 9.896,1.5 9.425,1.563 C8.846,1.64 8.236,1.448 7.675,1.315 C7.007,1.161 6.347,0.974 5.671,0.86 C5.303,0.798 4.85,0.739 4.499,0.915 C4.447,0.939 3.744,1.363 3.698,1.318 L3.698,1.318 Z"></path>
                                <path d="M21.531,16.36 L15.666,22.225 C15.433,22.459 15.053,22.459 14.818,22.225 C14.583,21.991 14.584,21.612 14.818,21.375 L20.682,15.512 C20.915,15.278 21.296,15.278 21.53,15.512 C21.765,15.747 21.766,16.126 21.531,16.36 Z"></path>
                            </g>
                            <g id="Shape" transform="translate(182.000000, 1.000000)">
                                <path d="M20.398,28.899 C20.348,28.899 20.297,28.893 20.249,28.879 L1.266,23.798 C1.015,23.731 0.839,23.503 0.839,23.241 L0.839,1.671 C0.839,1.502 0.915,1.343 1.042,1.233 C1.171,1.126 1.339,1.075 1.507,1.103 L20.489,4.171 C20.768,4.216 20.972,4.455 20.972,4.738 L20.972,28.322 C20.972,28.5 20.889,28.671 20.746,28.779 C20.646,28.858 20.522,28.899 20.398,28.899 L20.398,28.899 Z M1.99,22.802 L19.822,27.574 L19.822,5.229 L1.99,2.346 L1.99,22.802 Z"></path>
                                <path d="M20.398,28.899 C20.295,28.899 20.194,28.873 20.104,28.818 C19.93,28.714 19.823,28.527 19.823,28.324 L19.823,4.74 C19.823,4.496 19.976,4.279 20.206,4.197 L23.275,3.111 C23.45,3.049 23.646,3.076 23.799,3.184 C23.95,3.29 24.041,3.466 24.041,3.654 L24.041,26.664 C24.041,26.875 23.926,27.07 23.74,27.17 L20.672,28.832 C20.587,28.875 20.491,28.899 20.398,28.899 Z M20.973,5.146 L20.973,27.358 L22.892,26.319 L22.892,4.468 L20.973,5.146 Z"></path>
                                <path d="M20.398,5.314 C20.367,5.314 20.336,5.312 20.306,5.307 L1.323,2.24 C1.059,2.197 0.86,1.979 0.841,1.714 C0.821,1.449 0.987,1.203 1.239,1.123 L4.243,0.166 C4.329,0.139 4.419,0.132 4.507,0.145 L23.554,3.083 C23.815,3.124 24.015,3.335 24.038,3.599 C24.063,3.861 23.906,4.107 23.657,4.195 L20.589,5.281 C20.527,5.304 20.462,5.314 20.398,5.314 L20.398,5.314 Z M3.884,1.488 L20.345,4.147 L21.12,3.873 L4.466,1.303 L3.884,1.488 Z"></path>
                                <path d="M15.37,23.274 C11.177,23.274 7.976,22.076 5.827,20.88 C2.609,19.089 1.018,16.962 0.952,16.872 L1.878,16.188 C1.893,16.208 3.417,18.235 6.435,19.901 C9.212,21.434 13.868,22.968 20.276,21.577 L20.52,22.7 C18.665,23.105 16.947,23.274 15.37,23.274 L15.37,23.274 Z"></path>
                            </g>
                            <path d="M234.382,5.989 L214.612,5.989 C212.792,5.989 211.317,7.465 211.317,9.284 L211.317,22.466 C211.317,24.283 212.792,25.76 214.612,25.76 L234.382,25.76 C236.202,25.76 237.677,24.285 237.677,22.466 L237.677,9.286 C237.677,7.466 236.202,5.989 234.382,5.989 L234.382,5.989 Z M228.958,14.783 L235.933,8.806 C235.982,8.959 236.03,9.114 236.03,9.285 L236.03,22.465 C236.03,22.579 235.988,22.68 235.965,22.787 L228.958,14.783 Z M234.382,7.639 C234.491,7.639 234.589,7.679 234.691,7.701 L224.498,16.44 L214.304,7.7 C214.406,7.679 214.504,7.638 214.613,7.638 L234.382,7.638 L234.382,7.639 Z M213.03,22.787 C213.008,22.679 212.966,22.58 212.966,22.466 L212.966,9.286 C212.966,9.115 213.014,8.961 213.062,8.807 L220.035,14.782 L213.03,22.787 Z M214.612,24.113 C214.445,24.113 214.295,24.064 214.142,24.017 L221.287,15.854 L223.962,18.147 C224.115,18.28 224.309,18.346 224.498,18.346 C224.688,18.346 224.881,18.28 225.033,18.147 L227.709,15.854 L234.853,24.017 C234.702,24.064 234.551,24.113 234.383,24.113 L214.612,24.113 Z" id="Shape"></path>
                            <g id="Shape" transform="translate(0.000000, 2.000000)">
                                <path d="M23.938,13.123 C23.488,13.123 23.14,13.47 23.14,13.923 L23.14,24.866 L17.464,24.866 L17.464,20.398 C17.464,19.979 17.112,19.612 16.692,19.612 L12.587,19.612 C12.136,19.612 11.772,19.979 11.772,20.398 L11.772,24.866 L6.106,24.866 L6.106,14.287 C6.106,13.864 5.757,13.513 5.306,13.513 C4.884,13.513 4.535,13.865 4.535,14.287 L4.535,25.669 C4.535,26.09 4.884,26.442 5.306,26.442 L12.586,26.442 C13.008,26.442 13.357,26.089 13.357,25.669 L13.357,21.201 L15.891,21.201 L15.891,25.669 C15.891,26.09 16.239,26.442 16.692,26.442 L23.938,26.442 C24.361,26.442 24.711,26.089 24.711,25.669 L24.711,13.923 C24.709,13.47 24.36,13.123 23.938,13.123 L23.938,13.123 Z"></path>
                                <path d="M28.291,13.746 L21.974,7.401 L21.974,3.078 C21.974,2.627 21.608,2.278 21.159,2.278 C20.736,2.278 20.387,2.627 20.387,3.078 L20.387,5.816 L15.177,0.574 C15.019,0.413 14.829,0.326 14.638,0.326 C14.419,0.326 14.231,0.414 14.072,0.574 L0.983,13.66 C0.669,13.973 0.649,14.477 0.983,14.764 C1.274,15.099 1.775,15.078 2.089,14.764 L14.637,2.247 L27.155,14.884 C27.286,15.013 27.475,15.086 27.722,15.086 C27.941,15.086 28.129,15.013 28.288,14.884 C28.583,14.592 28.604,14.062 28.291,13.746 Z"></path>
                            </g>
                        </g>
                    </g>
                </g>
            </g>
            <g id="icon" transform="translate(360.000000, 31.000000)" fill-rule="nonzero" fill="#B38006">
                <path d="M5.24501725,14.6211753 L9.24113556,14.6211753 L8.15469974,17.3588904 L7.59055343,18.7804854 L12.1948516,13.1589485 L9.46155001,13.1589485 L10.8798234,10.2760751 L14.9513645,2 L11.4545496,2 L5.24501725,14.6211753 Z M2.03207835,16.6211753 L10.2095836,0 L18.1642227,0 L12.6744082,11.1589484 L16.4181608,11.1589485 L0.986469966,30 L6.29572784,16.6211753 L2.03207835,16.6211753 Z" id="Page-1"></path>
                <path d="M20.8954467,16.1661825 L20.5967751,18.4280075 L20.4120343,19.8270409 L23.2397048,15.6315825 L21.3740213,15.6315825 L21.7267781,13.3287475 L21.9036483,12.1741195 L18.9914343,16.1661825 L20.8954467,16.1661825 Z M15.0568137,18.1661825 L25.1227863,4.36774722 L23.7037179,13.6315825 L26.9995214,13.6315825 L17.3154421,27.9999999 L18.6139873,18.1661825 L15.0568137,18.1661825 Z" id="Page-1"></path>
            </g>
        </g>
    </g>
</svg>