<?xml version="1.0" encoding="utf-8"?>
<!-- Generator: Adobe Illustrator 16.0.0, SVG Export Plug-In . SVG Version: 6.00 Build 0)  -->
<!DOCTYPE svg PUBLIC "-//W3C//DTD SVG 1.1//EN" "http://www.w3.org/Graphics/SVG/1.1/DTD/svg11.dtd">
<svg version="1.1" id="Layer_1" xmlns="http://www.w3.org/2000/svg" xmlns:xlink="http://www.w3.org/1999/xlink" x="0px" y="0px"
	 width="33px" height="31px" viewBox="0 0 33 31" enable-background="new 0 0 33 31" xml:space="preserve">
<g>
	<g>
		<g>
			<defs>
				<rect id="SVGID_1_" x="0.078" y="0.078" width="33" height="31.167"/>
			</defs>
			<clipPath id="SVGID_2_">
				<use xlink:href="#SVGID_1_"  overflow="visible"/>
			</clipPath>
			<path clip-path="url(#SVGID_2_)" fill="#B38006" d="M27.469,15.189c-0.531,0-0.943,0.41-0.943,0.945v12.921h-6.702v-5.275
				c0-0.494-0.414-0.928-0.911-0.928h-4.847c-0.533,0-0.963,0.434-0.963,0.928v5.275H6.414v-12.49c0-0.5-0.412-0.914-0.945-0.914
				c-0.498,0-0.91,0.414-0.91,0.914v13.438c0,0.498,0.412,0.913,0.91,0.913h8.595c0.498,0,0.91-0.416,0.91-0.913v-5.275h2.992v5.275
				c0,0.498,0.412,0.913,0.945,0.913h8.558c0.5,0,0.912-0.416,0.912-0.913V16.134C28.38,15.599,27.968,15.189,27.469,15.189
				L27.469,15.189z"/>
		</g>
		<g>
			<defs>
				<rect id="SVGID_3_" x="0.078" y="0.078" width="33" height="31.167"/>
			</defs>
			<clipPath id="SVGID_4_">
				<use xlink:href="#SVGID_3_"  overflow="visible"/>
			</clipPath>
			<path clip-path="url(#SVGID_4_)" fill="#B38006" d="M32.609,15.925L25.15,8.434V3.328c0-0.532-0.433-0.944-0.963-0.944
				c-0.5,0-0.912,0.412-0.912,0.944v3.234l-6.152-6.19c-0.188-0.191-0.412-0.293-0.636-0.293c-0.258,0-0.481,0.105-0.669,0.293
				L0.365,15.823c-0.371,0.37-0.394,0.965,0,1.305c0.344,0.396,0.936,0.371,1.307,0l14.815-14.78l14.781,14.919
				c0.154,0.153,0.379,0.241,0.67,0.241c0.258,0,0.481-0.088,0.67-0.241C32.953,16.924,32.979,16.299,32.609,15.925L32.609,15.925z"
				/>
		</g>
	</g>
</g>
</svg>
