<?xml version="1.0" encoding="utf-8"?>
<!-- Generator: Adobe Illustrator 16.0.0, SVG Export Plug-In . SVG Version: 6.00 Build 0)  -->
<!DOCTYPE svg PUBLIC "-//W3C//DTD SVG 1.1//EN" "http://www.w3.org/Graphics/SVG/1.1/DTD/svg11.dtd">
<svg version="1.1" id="Layer_1" xmlns="http://www.w3.org/2000/svg" xmlns:xlink="http://www.w3.org/1999/xlink" x="0px" y="0px"
	 width="363px" height="72px" viewBox="-6 -5.5 363 72" enable-background="new -6 -5.5 363 72" xml:space="preserve">
<g>
	<g>
		
			<linearGradient id="SVGID_1_" gradientUnits="userSpaceOnUse" x1="1251.9854" y1="-885.8442" x2="162.3744" y2="-431.8389" gradientTransform="matrix(1 -3.000000e-04 -3.000000e-04 -1 -599.7053 -696.1784)">
			<stop  offset="0" style="stop-color:#E3B035"/>
			<stop  offset="0.0573" style="stop-color:#E7B74A"/>
			<stop  offset="0.2065" style="stop-color:#F2CC7A"/>
			<stop  offset="0.3353" style="stop-color:#F8DC9A"/>
			<stop  offset="0.4374" style="stop-color:#FEE7AF"/>
			<stop  offset="0.5" style="stop-color:#FFEBB7"/>
			<stop  offset="0.5626" style="stop-color:#FEE7AF"/>
			<stop  offset="0.6647" style="stop-color:#F8DC9A"/>
			<stop  offset="0.7935" style="stop-color:#F2CC7A"/>
			<stop  offset="0.9427" style="stop-color:#E7B74A"/>
			<stop  offset="1" style="stop-color:#E3B035"/>
		</linearGradient>
		<path fill="url(#SVGID_1_)" d="M346.605,32.518c-2.083-1.986-5.025-2.907-8.179-2.877c-1.963-0.005-3.88,0.326-5.678,0.969
			l3.821-14.603l-3.299-0.23c-1.276-0.064-2.46-0.121-3.623-0.111c-0.375,0-0.756-0.007-1.119,0l-2.983,0.021l-0.617,1.883
			c-1.061,3.42-2.524,8.386-4.393,14.924c-1.152,4.102-1.994,7.3-2.595,9.59c-0.407,1.764-0.703,2.838-0.83,3.762l-0.774,0.311
			c-0.81,0.328-1.672,0.652-2.533,0.943c0.302-1.23,0.737-2.925,1.292-4.985c0.776-2.739,1.551-5.496,2.321-8.286l0.937-3.339
			h-10.68l-0.653,1.784c-0.645,1.8-2.604,4.963-5.857,8.953c-1.485,1.864-2.812,3.317-3.91,4.311
			c0.347-1.061,0.753-2.385,1.283-3.919c0.862-2.511,1.765-5.066,2.633-7.63l1.205-3.499h-11.503l-0.701,1.649
			c-1.986,4.596-3.381,8.391-4.154,11.543l-3.533,1.573c-4.154,1.817-7.42,2.629-9.387,2.62c-0.304-0.016-0.589-0.059-0.844-0.102
			c6.114-3.978,10.855-7.806,14.244-11.602c3.841-4.263,6.051-8.592,6.054-13.027c0.044-2.289-1.006-4.567-2.881-6.001
			c-1.735-1.328-3.896-1.954-6.106-1.933c-4.363,0.017-8.34,2.117-12.133,5.688c-1.016,0.99-3.836,3.533-5.076,6.063
			c0.662-4.073-0.92-8.022-4.351-10.5c-2.469-1.798-5.667-2.512-9.112-2.512c-4.766,0.004-9.623,1.377-14.523,3.932
			c-4.895,2.568-8.986,5.866-12.169,9.861c-3.472,4.364-5.33,8.996-5.341,13.728c-0.069,5.034,2.427,9.488,6.854,12.305
			c3.802,2.482,8.396,3.707,13.494,3.685l0.08-0.015c3.295,0.017,6.778-0.479,10.458-1.416c3.161-0.828,7.816-1.846,10.209-3.102
			c0.146,0.188,0.293,0.37,0.443,0.531c2.154,2.464,5.398,3.848,8.824,3.822c0.068,0,0.111,0,0.145,0.007
			c5.418,0.013,10.238-1.515,13.85-4.644l0.721-0.637c0.308,0.852,0.772,1.635,1.356,2.331c1.349,1.722,3.671,2.828,5.976,2.789
			c3.324-0.005,6.41-1.463,9.022-3.854l0.083-0.076l0.033-0.053c0.104-0.08,0.186-0.166,0.246-0.24
			c0.324,0.695,0.738,1.375,1.265,1.986c1.138,1.396,2.98,2.367,4.896,2.389c0.051,0,0.079,0,0.104-0.006
			c3.261,0.01,6.399-1.109,9.236-3.112l0.739-0.522l0.208-0.623c0.552,0.734,1.182,1.354,1.915,1.896
			c2.381,1.733,5.318,2.534,8.557,2.519l0.063-0.005c4.798-0.003,9.344-1.647,13.308-4.712c4.283-3.287,6.763-7.583,6.736-12.363
			C349.726,37.318,348.737,34.496,346.605,32.518z M275.877,31.425c1.71-2.848,3.311-4.885,4.646-6.101
			c0.317-0.266,0.619-0.522,0.871-0.717c-0.541,2.026-2.138,4.766-5.088,7.986c-0.877,0.987-1.752,1.929-2.678,2.777
			C274.277,34.134,275.025,32.816,275.877,31.425z M242.468,47.292c-3.183,0.009-5.405-0.627-6.889-1.671
			c-1.707-1.165-2.453-2.496-2.519-5.13c-0.013-3.115,1.869-6.739,6.506-10.862c4.638-4.112,8.709-5.833,12.115-5.812
			c1.707-0.013,2.539,0.349,2.871,0.642c0.309,0.262,0.622,0.676,0.616,1.96c0.026,1.122-0.335,2.839-1.178,4.954l-1.437,3.549
			l8.147,0.083c-1.453,3.333-2.269,6.373-2.411,9.188C253.098,46.273,247.249,47.292,242.468,47.292z M335.632,45.573
			c-2.227,2.004-3.997,2.651-5.135,2.64c-0.401-0.016-0.771-0.078-1.42-0.656c-0.623-0.613-0.654-0.806-0.676-1.146
			c-0.01-1.29,0.651-2.891,2.697-4.873c2.061-1.949,3.719-2.586,5.115-2.576c0.793,0.01,1.177,0.174,1.674,0.596
			c0.408,0.418,0.553,0.672,0.602,1.469C338.514,42.045,337.834,43.613,335.632,45.573z"/>
		
			<linearGradient id="SVGID_2_" gradientUnits="userSpaceOnUse" x1="884.7627" y1="-754.7446" x2="884.7627" y2="-730.0377" gradientTransform="matrix(1 -3.000000e-04 -3.000000e-04 -1 -599.7053 -696.1784)">
			<stop  offset="0" style="stop-color:#6D60AA"/>
			<stop  offset="1" style="stop-color:#2A357D"/>
		</linearGradient>
		<path fill="url(#SVGID_2_)" d="M273.084,50.116c-1.064,0.014-2.036-0.273-2.934-0.78c-0.936-0.593-1.383-1.207-1.444-1.994
			c14.229-8.865,21.467-16.88,21.479-24.195c0.024-1.754-0.666-3.231-2.027-4.286c-1.23-0.945-2.784-1.408-4.576-1.392
			c-3.532-0.014-7.059,1.718-10.614,5.078c-3.157,2.991-5.853,6.703-8.036,11.083c-2.188,4.371-3.285,8.113-3.279,11.271
			c-0.006,0.254,0.008,0.494,0.021,0.74c-5.975,2.577-13.625,3.875-19.207,3.891c-3.501,0.017-6.243-0.702-8.262-2.092
			c-2.322-1.563-3.499-3.807-3.488-6.946c-0.026-4.024,2.356-8.185,7.233-12.494c4.886-4.346,9.471-6.454,13.734-6.46
			c4.062,0.065,5.801,1.552,5.856,4.868c0.011,1.562-0.44,3.492-1.345,5.753l-0.215,0.537l6.11,0.064c0,0,2.457-3.567,2.589-7.692
			c0.112-2.845-1.688-5.164-4.025-6.801c-2.049-1.37-4.657-2.075-7.741-2.076c-4.304,0.024-8.782,1.23-13.412,3.661
			c-4.615,2.417-8.453,5.517-11.437,9.265c-3.217,4.078-4.848,8.218-4.851,12.38c0.011,4.362,1.97,7.899,5.843,10.428
			c3.377,2.177,7.459,3.281,12.217,3.271c3.066,0.024,6.359-0.441,9.86-1.328c8.249-2.083,11.281-3.792,11.281-3.792
			s1.037,1.277,1.81,2.023c1.934,1.892,4.209,2.942,7.151,2.943c0,0,0,0,0.005,0c5,0.007,9.122-1.359,12.243-4.068l0.125-0.117
			l0.353-3.861l-0.65,0.3C279.143,49.186,275.664,50.116,273.084,50.116z M273.838,30.309c3.533-5.892,6.742-8.714,9.35-8.71
			c0.01,0,0.029,0,0.056,0c0.462,0.011,0.709,0.243,0.743,1.398c0.009,2.969-1.909,6.691-5.889,11.077
			c-3.09,3.478-6.252,6.186-9.449,8.166C269.215,39.048,270.938,35.059,273.838,30.309z M314.559,49.24
			c-1.213,0.453-2.098,0.66-2.575,0.646c-0.24-0.013-0.508-0.049-0.76-0.179l-0.208-0.686c0.017-0.588,0.639-3.158,1.818-7.467
			c0.76-2.75,1.527-5.521,2.315-8.315l0.141-0.497l-5.944-0.018l-0.103,0.265c-0.809,2.276-2.88,5.485-6.185,9.603
			c-3.688,4.654-6.567,6.899-8.104,6.826c-0.194-0.006-0.359-0.05-0.568-0.227c-0.134-0.459-0.185-0.867-0.174-1.215
			c-0.039-0.399,0.684-2.86,2.066-7.037c0.91-2.519,1.785-5.114,2.654-7.666l0.184-0.525l-6.667-0.012l-0.108,0.252
			c-3.097,7.229-4.699,12.441-4.693,15.734c0.002,1.604,0.511,3.021,1.494,4.205c0.998,1.295,2.459,1.963,4.149,1.963
			c2.569-0.029,5.049-1.111,7.388-3.248c1.453-1.494,2.873-2.966,4.278-4.431c-0.324,1.172-0.498,2.172-0.498,2.968
			c-0.006,1.184,0.431,2.316,1.274,3.305c0.861,1.002,1.945,1.552,3.175,1.556l0.003-0.024c2.685,0.028,5.321-0.877,7.856-2.666
			l0.104-0.08l0.066-0.125c0.358-1.168,0.644-2.321,0.885-3.486l0.144-0.715l-0.716,0.265
			C316.364,48.579,315.488,48.907,314.559,49.24z M344.94,34.124c-1.572-1.522-3.777-2.238-6.529-2.228
			c-1.812-0.012-3.565,0.312-5.196,0.97c-1.324,0.515-2.609,1.045-3.877,1.595l4.287-16.415l-0.522-0.018
			c-1.212-0.067-2.372-0.12-3.439-0.119c-0.385-0.008-0.722-0.008-1.058,0.006l-1.301,0.023l-0.094,0.271
			c-1.078,3.387-2.542,8.346-4.38,14.861c-2.291,8.195-3.419,12.636-3.441,13.721c-0.037,2.682,1.031,4.833,3.08,6.34
			c1.88,1.389,4.267,2.046,7.104,2.055l0,0c4.271-0.009,8.273-1.439,11.897-4.234c3.888-2.989,5.874-6.561,5.871-10.6
			C347.349,37.727,346.551,35.646,344.94,34.124z M337.233,47.232c-2.46,2.197-4.705,3.228-6.738,3.235
			c-1.062-0.001-2.041-0.405-3.029-1.262c-0.959-0.883-1.425-1.795-1.438-2.797c0.016-2.093,1.104-4.244,3.424-6.466
			c2.306-2.2,4.541-3.241,6.779-3.25c1.302,0.013,2.357,0.42,3.27,1.229c0.901,0.807,1.338,1.812,1.338,3.105
			C340.861,42.958,339.682,45.034,337.233,47.232z"/>
		
			<linearGradient id="SVGID_3_" gradientUnits="userSpaceOnUse" x1="884.1895" y1="-729.4326" x2="884.1895" y2="-776.1939" gradientTransform="matrix(1 -3.000000e-04 -3.000000e-04 -1 -599.7053 -696.1784)">
			<stop  offset="0" style="stop-color:#6D60AA"/>
			<stop  offset="1" style="stop-color:#2A357D"/>
		</linearGradient>
		<path fill="url(#SVGID_3_)" d="M314.748,33.38l-5.274,0.007l-0.101,0.258c-0.821,2.25-2.896,5.469-6.211,9.584
			c-3.68,4.641-6.549,6.883-8.096,6.832c-0.035,0-0.072-0.017-0.102-0.016c0.016,0.084,0.016,0.171,0.047,0.273
			c0.206,0.184,0.396,0.244,0.582,0.226c1.535,0.069,4.387-2.168,8.096-6.828c3.319-4.095,5.353-7.317,6.187-9.575l0.104-0.256
			l4.623-0.025L314.748,33.38z M272.59,50.859c-1.084-0.006-2.062-0.252-2.96-0.781c-0.162-0.107-0.298-0.205-0.444-0.316
			c0.244,0.301,0.553,0.581,0.979,0.799c0.893,0.543,1.852,0.809,2.932,0.797c2.562,0,6.029-0.926,10.361-2.83l0.054-0.014
			l0.074-0.771l-0.646,0.302C278.602,49.939,275.146,50.854,272.59,50.859z M284.455,22.327c0.084,0.214,0.127,0.498,0.139,0.881
			c0.01,2.971-1.918,6.695-5.892,11.08c-2.869,3.223-6.714,6.7-9.644,8.623c-0.08,0.348-0.148,0.679-0.229,0.971
			c3.22-1.94,7.29-5.612,10.375-9.096c3.99-4.376,5.904-8.109,5.893-11.069C285.072,22.641,284.872,22.374,284.455,22.327z
			 M329.969,34.745l-0.228,0.808c1.283-0.55,2.565-1.076,3.905-1.611c1.631-0.629,3.39-0.951,5.2-0.959
			c2.586,0,4.684,0.685,6.25,2.031c-0.081-0.107-0.146-0.216-0.245-0.275c-1.587-1.537-3.785-2.271-6.522-2.252
			c-1.818,0.013-3.565,0.332-5.229,0.976C332.056,33.883,331.005,34.322,329.969,34.745z M313.971,49.843
			c-1.191,0.421-2.067,0.65-2.562,0.667c-0.11-0.007-0.226-0.014-0.349-0.054l0.11,0.354c0.258,0.129,0.521,0.166,0.747,0.166
			c0.487,0.026,1.375-0.197,2.583-0.656c0.929-0.328,1.812-0.637,2.704-0.991l0.034-0.015c0.007-0.023,0.007-0.023,0.007-0.039
			l0.155-0.748l-0.71,0.31C315.812,49.186,314.914,49.514,313.971,49.843z M340.601,38.081c0.666,0.745,1.008,1.653,1.031,2.783
			c0,1.918-1.932,4.866-4.384,7.053c-2.445,2.188-4.717,3.249-6.735,3.249c-1.008,0.006-1.958-0.381-2.865-1.16
			c0.099,0.123,0.22,0.26,0.34,0.369c0.979,0.881,1.981,1.285,3.054,1.277c2.019,0,4.281-1.033,6.729-3.264
			c2.453-2.162,4.396-5.107,4.373-7.039c0-1.293-0.438-2.279-1.337-3.104C340.752,38.188,340.644,38.152,340.601,38.081z
			 M284.1,18.741c1.775,0.015,3.305,0.459,4.549,1.398c-0.162-0.144-0.32-0.325-0.504-0.469c-1.209-0.95-2.771-1.437-4.578-1.423
			c-3.523,0.013-6.295,1.508-9.856,4.857c-3.175,3.012-5.854,6.697-8.036,11.071c-2.168,4.372-3.271,8.144-3.264,11.282
			c0.004,0.266-0.012,0.518,0.015,0.751c-5.954,2.585-14.481,4.033-20.071,4.038c-3.515-0.008-6.25-0.708-8.28-2.094
			c-0.278-0.19-0.533-0.377-0.781-0.584c0.394,0.371,0.826,0.758,1.312,1.104c2.024,1.376,4.766,2.072,8.264,2.082
			c5.574,0,14.127-1.477,20.066-4.057c0.008-0.252-0.029-0.502-0.025-0.741c-0.006-3.164,1.113-6.901,3.293-11.272
			c2.191-4.375,4.855-8.078,8.029-11.079C277.792,20.226,280.566,18.741,284.1,18.741z M298.342,33.466l-5.544-0.021l-0.085,0.283
			c-3.113,7.217-4.449,11.571-4.458,14.846c0.019,1.642,0.499,3.056,1.481,4.221c0.289,0.352,0.586,0.645,0.906,0.905
			c-0.113-0.123-0.271-0.255-0.381-0.399c-0.979-1.175-1.476-2.592-1.476-4.23c-0.011-3.288,1.317-7.62,4.435-14.85l0.123-0.246
			l4.863-0.008L298.342,33.466z M256.859,32.262l0.699,0.018l0.017-0.061c0.896-2.278,1.372-4.209,1.354-5.743
			c-0.037-1.752-0.515-2.98-1.59-3.767c0.703,0.775,1.053,1.841,1.071,3.271c0.009,1.552-0.443,3.47-1.354,5.761L256.859,32.262z
			 M328.074,19.386l0.079-0.289l1.301,0.006c0.353-0.006,0.693,0.009,1.051-0.015c1.054,0.002,1.185,0.026,2.359,0.086l0.125-0.432
			l-0.504-0.04c-1.235-0.075-1.42-0.093-2.49-0.089c-0.353-0.012-0.715-0.02-1.058-0.012l-1.297,0.012l-0.104,0.273
			c-1.074,3.406-2.312,7.523-4.16,14.082c-2.305,8.16-3.426,12.622-3.446,13.69c-0.016,2.435,0.872,4.438,2.596,5.926
			c-1.37-1.415-2.085-3.255-2.065-5.434c0.018-1.077,1.131-5.508,3.438-13.707C325.74,26.917,326.985,22.78,328.074,19.386z
			 M305.477,50.51c0.008-0.826,0.17-1.804,0.51-2.977c-0.281,0.279-0.561,0.566-0.834,0.869c-0.123,0.576-0.188,1.127-0.188,1.606
			c-0.004,1.166,0.433,2.282,1.28,3.296c0.215,0.254,0.469,0.479,0.73,0.686c-0.062-0.074-0.139-0.116-0.214-0.2
			C305.922,52.805,305.479,51.68,305.477,50.51z M253.752,17.894c2.997,0,5.557,0.648,7.532,1.991
			c0.271,0.194,0.515,0.37,0.774,0.556c-0.375-0.354-0.785-0.708-1.273-1.055c-1.996-1.308-4.521-1.988-7.535-1.99
			c-4.193,0.017-8.538,1.19-13.062,3.518c-4.502,2.32-8.223,5.278-11.147,8.867c-3.122,3.916-4.714,7.871-4.728,11.849
			c-0.004,3.354,1.233,6.157,3.65,8.396c-2.08-2.146-3.141-4.801-3.141-7.912c0.017-3.987,1.587-7.938,4.738-11.846
			c2.91-3.583,6.627-6.555,11.148-8.871C245.21,19.072,249.561,17.885,253.752,17.894z"/>
	</g>
	<g>
		<path fill="#A9ABAE" d="M210.962,22.952c-1.172-2.408-2.955-4.27-5.306-5.549c-2.217-1.204-4.825-1.811-7.76-1.811
			c-2.572,0-4.972,0.56-7.117,1.66c-0.93,0.477-1.84,1.069-2.715,1.768c-0.729-0.661-1.52-1.228-2.365-1.698
			c-2.075-1.149-4.525-1.731-7.285-1.731c-2.61,0-5.039,0.546-7.22,1.621c-0.51,0.251-1.015,0.539-1.513,0.857
			c-0.097-0.107-0.195-0.215-0.301-0.316c-1.449-1.455-3.341-2.226-5.462-2.226c-2.243,0-4.182,0.85-5.61,2.456
			c-1.343,1.513-2.019,3.546-2.019,6.048v7.275c-0.221-1.064-0.494-2.105-0.856-3.097c-0.958-2.6-2.379-4.88-4.228-6.776
			c-1.845-1.9-4.092-3.381-6.668-4.403c-2.521-0.999-5.337-1.503-8.367-1.503c-2.99,0-5.78,0.5-8.29,1.482
			c-2.583,1.013-4.822,2.48-6.655,4.364c-1.821,1.874-3.239,4.155-4.205,6.77c-0.444,1.197-0.774,2.461-1.009,3.771V12.287
			c0-4.066-1.714-6.071-3.155-7.035c-1.638-1.1-3.538-1.658-6.032-1.658h-2.882c-2.242,0-2.789,0.23-4.025,0.727
			c-1.64,0.654-2.909,1.872-3.665,3.522c-0.475,1.023-5.778,19.706-5.778,19.706S85.171,8.859,84.7,7.837
			c-0.762-1.649-2.029-2.867-3.666-3.517c-1.24-0.497-2.86-0.727-5.103-0.727h-2.534c-2.488,0-3.506,0.557-5.146,1.655
			c-1.441,0.967-3.158,2.972-3.158,7.038v36.327c0,2.691,0.72,4.84,2.133,6.387c1.477,1.611,3.455,2.462,5.716,2.462
			c2.321,0,3.975-0.868,5.442-2.512c1.384-1.554,2.085-3.687,2.085-6.339v-2.728l0.293,1.173c0.263,0.992,0.509,1.928,0.752,2.821
			c0.314,1.169,0.762,2.271,1.335,3.272c0.71,1.244,1.708,2.273,2.968,3.06c1.322,0.828,2.89,1.249,4.657,1.249
			c2.347,0,4.292-0.676,5.779-2.016c1.277-1.146,2.181-2.473,2.676-3.945c0.334-0.979,0.748-2.439,1.259-4.453l0.293-1.167v2.731
			c0,2.666,0.715,4.806,2.118,6.354c1.478,1.635,3.255,2.495,5.503,2.495c2.34,0,4.355-0.868,5.824-2.513
			c1.383-1.549,2.084-3.684,2.084-6.338v-7.553c0.233,1.288,0.559,2.531,0.992,3.705c0.96,2.592,2.387,4.866,4.244,6.772
			c1.851,1.903,4.072,3.39,6.599,4.407c2.483,1.006,5.281,1.515,8.325,1.515c3.057,0,5.868-0.502,8.363-1.487
			c2.554-1.005,4.789-2.48,6.642-4.387c1.852-1.905,3.276-4.191,4.24-6.807c0.372-1.004,0.649-2.06,0.874-3.138v6.845
			c0,2.683,0.729,4.849,2.167,6.438c1.508,1.659,3.527,2.536,5.834,2.536c2.348,0,4.373-0.89,5.867-2.57
			c1.396-1.577,2.107-3.733,2.107-6.403V36.93c0-3.801,0.542-5.772,1-6.761c0.102-0.22,0.369-0.801,2.269-0.801
			c0.211,0,0.355,0.017,0.443,0.029c0.122,0.215,0.211,0.518,0.254,0.892c0.127,1.041,0.193,2.624,0.193,4.575v13.625
			c0,2.698,0.713,4.866,2.124,6.437c1.484,1.658,3.499,2.537,5.815,2.537c2.345,0,4.379-0.87,5.883-2.52
			c1.428-1.575,2.15-3.748,2.15-6.454V37.123c0-4.245,0.457-5.75,0.596-6.105c0.277-0.531,0.629-0.927,1.101-1.24
			c0.429-0.278,0.808-0.407,1.228-0.407c0.307,0,0.481,0.034,0.566,0.057c0.112,0.148,0.227,0.373,0.284,0.777
			c0.131,0.924,0.202,2.277,0.202,3.912v14.372c0,2.685,0.729,4.85,2.163,6.437c1.517,1.661,3.532,2.537,5.838,2.537
			c2.349,0,4.384-0.87,5.882-2.521c1.43-1.57,2.152-3.742,2.152-6.451V31.799C212.412,27.846,211.952,25.036,210.962,22.952z
			 M139.536,42.374c-0.846,1.074-1.885,1.558-3.366,1.558c-0.978,0-1.74-0.22-2.396-0.677c-0.686-0.485-1.244-1.244-1.655-2.254
			c-0.5-1.229-0.753-2.748-0.753-4.507c0-1.78,0.256-3.316,0.765-4.562c0.429-1.051,0.949-1.758,1.643-2.226
			c0.68-0.467,1.442-0.68,2.396-0.68c1.487,0,2.523,0.478,3.372,1.548c1.015,1.285,1.529,3.275,1.529,5.916
			C141.069,39.098,140.553,41.077,139.536,42.374z"/>
		<path fill="#A9ABAE" d="M63.87,39.945c0.246-0.547,0.393-1.193,0.393-1.979v-5.064c0-1.353-0.523-3.616-4.014-3.616H44.785
			c-2.399,0-3.798,1.278-3.896,3.493c-2.915-4.906-8.152-7.424-11.728-9.132c-7.592-3.676-8.811-4.419-8.811-6.517
			c0-1.398,0.818-2.237,2.185-2.237c1.733,0,2.801,1.466,3.762,3.02c1.324,2.107,2.974,4.732,7.396,4.732
			c4.258,0,7.583-3.064,7.583-6.957c0-4.999-5.731-12.035-18.472-12.035c-11.291,0-18.59,6.228-18.59,15.873
			c0,9.448,7.914,13.751,10.973,15.417l4.104,2.117c5.851,3.008,7.104,3.867,7.104,6.147c0,2.201-1.902,2.378-2.484,2.378
			c-2.084,0-3.16-1.602-4.161-3.384c-1.27-2.265-3.394-6.048-8.459-6.048c-3.752,0-7.744,2.561-7.744,7.312
			c0,5.809,6.093,13.998,19.646,13.998c11.849,0,19.556-6.246,19.816-15.949c0.603,0.229,1.246,0.318,1.864,0.318H60.25
			c1.118,0,1.992-0.245,2.643-0.702C62.891,41.131,63.659,40.516,63.87,39.945z"/>
		<path fill="#FFFFFF" d="M62.324,37.38c0.255-0.549,0.39-1.194,0.39-1.968v-5.071c0-1.352-0.52-3.617-4.015-3.617H43.244
			c-2.398,0-3.801,1.279-3.9,3.494c-2.913-4.913-8.148-7.423-11.725-9.134c-7.595-3.674-8.815-4.418-8.815-6.516
			c0-1.395,0.819-2.236,2.188-2.236c1.731,0,2.805,1.473,3.763,3.012c1.333,2.112,2.974,4.746,7.399,4.746
			c4.255,0,7.582-3.06,7.582-6.968C39.733,8.126,33.998,1.091,21.262,1.091c-11.293,0-18.593,6.228-18.593,15.875
			c0,9.442,7.917,13.75,10.971,15.416l4.104,2.122c5.857,3.005,7.112,3.867,7.112,6.13c0,2.222-1.908,2.392-2.482,2.392
			c-2.087,0-3.16-1.605-4.163-3.392c-1.271-2.254-3.397-6.036-8.461-6.036C5.989,33.596,2,36.156,2,40.902
			c0,5.812,6.092,14.002,19.643,14.002c11.854,0,19.559-6.25,19.817-15.949c0.606,0.229,1.253,0.318,1.87,0.318h15.373
			c1.125,0,2.002-0.252,2.652-0.7C61.351,38.57,62.059,38.165,62.324,37.38z"/>
		<g>
			
				<linearGradient id="SVGID_4_" gradientUnits="userSpaceOnUse" x1="607.5176" y1="-703.7363" x2="607.5176" y2="-681.3758" gradientTransform="matrix(1 0 0 -1 -556.5 -688.5)">
				<stop  offset="0" style="stop-color:#115EAA"/>
				<stop  offset="0.2247" style="stop-color:#0C5AA5"/>
				<stop  offset="0.4554" style="stop-color:#08519B"/>
				<stop  offset="0.689" style="stop-color:#224388"/>
				<stop  offset="0.9232" style="stop-color:#2B3175"/>
				<stop  offset="1" style="stop-color:#2B2C6C"/>
			</linearGradient>
			<path fill="url(#SVGID_4_)" d="M60.375,35.412c0,1.244-0.324,1.523-1.676,1.523H43.327c-1.606,0-1.667-0.619-1.667-1.604V30.48
				c0-0.921,0.238-1.416,1.586-1.416H58.7c1.018,0,1.676,0.083,1.676,1.277L60.375,35.412L60.375,35.412z"/>
			
				<linearGradient id="SVGID_5_" gradientUnits="userSpaceOnUse" x1="578.2422" y1="-738.5693" x2="578.2422" y2="-642.428" gradientTransform="matrix(1 0 0 -1 -556.5 -688.5)">
				<stop  offset="0" style="stop-color:#115EAA"/>
				<stop  offset="0.2247" style="stop-color:#0C5AA5"/>
				<stop  offset="0.4554" style="stop-color:#08519B"/>
				<stop  offset="0.689" style="stop-color:#224388"/>
				<stop  offset="0.9232" style="stop-color:#2B3175"/>
				<stop  offset="1" style="stop-color:#2B2C6C"/>
			</linearGradient>
			<path fill="url(#SVGID_5_)" d="M14.715,30.303c-2.709-1.474-9.703-5.245-9.703-13.338c0-8.896,7.125-13.536,16.25-13.536
				c11.248,0,16.138,5.905,16.138,9.696c0,2.648-2.276,4.621-5.248,4.621c-3.127,0-4.163-1.643-5.414-3.637
				c-0.866-1.392-2.539-4.118-5.747-4.118c-2.551,0-4.528,1.787-4.528,4.577c0,3.724,2.479,4.917,10.135,8.624
				c5.25,2.51,12.546,6.031,12.546,15.259c0,10.083-8.669,14.107-17.505,14.107c-12.401,0-17.3-7.197-17.3-11.656
				c0-3.584,3.216-4.971,5.406-4.971c3.653,0,5.179,2.645,6.423,4.848c0.964,1.715,2.633,4.582,6.202,4.582
				c2.562,0,4.821-1.666,4.821-4.726c0-3.909-2.859-5.372-8.391-8.22L14.715,30.303z"/>
			
				<linearGradient id="SVGID_6_" gradientUnits="userSpaceOnUse" x1="579.8789" y1="-749.4341" x2="583.7163" y2="-746.0106" gradientTransform="matrix(1 -0.1079 0 -1 -556.5 -660.444)">
				<stop  offset="0" style="stop-color:#115EAA"/>
				<stop  offset="0.269" style="stop-color:#90D9F8"/>
				<stop  offset="1" style="stop-color:#115EAA"/>
			</linearGradient>
			<path fill="url(#SVGID_6_)" d="M26.474,25.371c2.868,1.44,6.229,3.154,9.075,5.879c-3.167-4.154-7.56-6.382-11.156-8.201
				c-4.375-2.229-7.351-3.754-9.302-5.341C16.638,20.349,20.078,22.104,26.474,25.371z"/>
			
				<linearGradient id="SVGID_7_" gradientUnits="userSpaceOnUse" x1="563.7451" y1="-712.021" x2="584.2081" y2="-691.5579" gradientTransform="matrix(1 0 0 -1 -556.5 -688.5)">
				<stop  offset="0" style="stop-color:#115EAA"/>
				<stop  offset="0.269" style="stop-color:#90D9F8"/>
				<stop  offset="1" style="stop-color:#115EAA"/>
			</linearGradient>
			<path fill="url(#SVGID_7_)" d="M6.312,17.849c0,2.269,0.532,4.192,1.343,5.831c-0.538-1.396-0.878-2.96-0.878-4.76
				c0-8.894,6.766-13.533,15.418-13.533c5.507,0,9.389,1.585,11.879,3.631c-0.899-1.122-2.146-2.189-3.769-3.069
				c-2.247-0.982-5.088-1.624-8.583-1.624C13.07,4.323,6.312,8.956,6.312,17.849z"/>
			
				<linearGradient id="SVGID_8_" gradientUnits="userSpaceOnUse" x1="561.2217" y1="-732.416" x2="568.0263" y2="-725.6116" gradientTransform="matrix(1 0 0 -1 -556.5 -688.5)">
				<stop  offset="0" style="stop-color:#115EAA"/>
				<stop  offset="0.269" style="stop-color:#90D9F8"/>
				<stop  offset="1" style="stop-color:#115EAA"/>
			</linearGradient>
			<path fill="url(#SVGID_8_)" d="M5.642,41.793c0,1.165,0.278,2.523,0.848,3.891c-0.303-0.994-0.452-1.961-0.452-2.826
				c0-3.58,2.558-4.969,4.3-4.969c1.072,0,1.901,0.363,2.589,0.916c-0.388-0.635-0.848-1.207-1.406-1.656
				c-0.468-0.198-0.985-0.328-1.58-0.328C8.2,36.823,5.642,38.214,5.642,41.793z"/>
			
				<linearGradient id="SVGID_9_" gradientUnits="userSpaceOnUse" x1="577.1729" y1="-735.936" x2="584.7729" y2="-728.336" gradientTransform="matrix(1 0 0 -1 -556.5 -688.5)">
				<stop  offset="0" style="stop-color:#115EAA"/>
				<stop  offset="0.269" style="stop-color:#90D9F8"/>
				<stop  offset="1" style="stop-color:#115EAA"/>
			</linearGradient>
			<path fill="url(#SVGID_9_)" d="M23.534,47.322c2.895,0,5.447-1.664,5.447-4.725c0-1.183-0.333-2.125-0.918-2.97
				c0.218,0.575,0.364,1.185,0.364,1.901c0,3.055-2.555,4.722-5.448,4.722c-1.385,0-2.507-0.354-3.438-0.875
				c-0.567-0.155-1.086-0.367-1.545-0.646C19.176,46.079,20.886,47.322,23.534,47.322z"/>
			
				<linearGradient id="SVGID_10_" gradientUnits="userSpaceOnUse" x1="570" y1="-729.3813" x2="574.4531" y2="-729.3813" gradientTransform="matrix(1 0 0 -1 -556.5 -688.5)">
				<stop  offset="0" style="stop-color:#223E78"/>
				<stop  offset="0.4854" style="stop-color:#06549C"/>
				<stop  offset="1" style="stop-color:#202E5F"/>
			</linearGradient>
			<path fill="url(#SVGID_10_)" d="M17.953,43.848c-0.549-0.699-0.968-1.41-1.292-1.998c-0.788-1.395-1.69-2.966-3.161-3.935
				c0.558,0.741,1.029,1.549,1.461,2.312C15.567,41.316,16.474,42.857,17.953,43.848z"/>
			
				<linearGradient id="SVGID_11_" gradientUnits="userSpaceOnUse" x1="571.7529" y1="-702.5088" x2="579.0996" y2="-702.5088" gradientTransform="matrix(1 0 0 -1 -556.5 -688.5)">
				<stop  offset="0" style="stop-color:#223E78"/>
				<stop  offset="0.4854" style="stop-color:#06549C"/>
				<stop  offset="1" style="stop-color:#202E5F"/>
			</linearGradient>
			<path fill="url(#SVGID_11_)" d="M20.991,9.991c0.594,0,1.115,0.12,1.608,0.281c-0.779-0.498-1.7-0.837-2.815-0.837
				c-2.554,0-4.531,1.789-4.531,4.582c0,1.982,0.726,3.256,2.549,4.566c-0.278-0.393-0.479-0.808-0.613-1.251
				c-0.498-0.786-0.725-1.662-0.725-2.76C16.464,11.778,18.44,9.991,20.991,9.991z"/>
			
				<linearGradient id="SVGID_12_" gradientUnits="userSpaceOnUse" x1="567.8633" y1="-729.0981" x2="595.6445" y2="-729.0981" gradientTransform="matrix(1 0 0 -1 -556.5 -688.5)">
				<stop  offset="0" style="stop-color:#223E78"/>
				<stop  offset="0.4854" style="stop-color:#06549C"/>
				<stop  offset="1" style="stop-color:#202E5F"/>
			</linearGradient>
			<path fill="url(#SVGID_12_)" d="M34.509,28.636c2.017,2.253,3.424,5.204,3.424,9.267c0,10.068-8.664,14.106-17.494,14.106
				c-3.667,0-6.655-0.637-9.076-1.635c2.605,1.321,5.978,2.187,10.277,2.187c8.838,0,17.505-4.023,17.505-14.103
				c0-2.076-0.385-3.856-1.015-5.405C37.211,31.289,35.946,29.833,34.509,28.636z"/>
			
				<linearGradient id="SVGID_13_" gradientUnits="userSpaceOnUse" x1="585.6387" y1="-701.436" x2="593.9004" y2="-701.436" gradientTransform="matrix(1 0 0 -1 -556.5 -688.5)">
				<stop  offset="0" style="stop-color:#223E78"/>
				<stop  offset="0.4854" style="stop-color:#06549C"/>
				<stop  offset="1" style="stop-color:#202E5F"/>
			</linearGradient>
			<path fill="url(#SVGID_13_)" d="M34.284,8.126c1.277,1.512,1.899,3.106,1.899,4.446c0,2.646-2.269,4.619-5.243,4.619
				c-0.698,0-1.281-0.092-1.801-0.245c0.75,0.494,1.691,0.8,3.013,0.8c2.973,0,5.249-1.972,5.249-4.621
				c0-0.599-0.14-1.254-0.395-1.933C36.415,10.139,35.511,9.084,34.284,8.126z"/>
			
				<linearGradient id="SVGID_14_" gradientUnits="userSpaceOnUse" x1="565.4805" y1="-719.417" x2="581.4043" y2="-719.417" gradientTransform="matrix(1 0 0 -1 -556.5 -688.5)">
				<stop  offset="0" style="stop-color:#223E78"/>
				<stop  offset="0.4854" style="stop-color:#06549C"/>
				<stop  offset="1" style="stop-color:#202E5F"/>
			</linearGradient>
			<path fill="url(#SVGID_14_)" d="M17.593,31.035l-4.084-2.117c-1.07-0.583-2.805-1.535-4.529-2.96
				c2.167,2.371,4.794,3.803,6.233,4.581l4.082,2.113c2.378,1.231,4.231,2.197,5.61,3.224C23.613,34.148,21.173,32.87,17.593,31.035
				z"/>
			<path fill="#223E78" d="M58.698,36.936c1.353,0,1.676-0.268,1.676-1.522v-5.071c0-0.007,0-0.017-0.004-0.039
				c-0.159-0.743-0.685-1.019-1.176-1.019h-0.031v5.569c0,1.254-0.32,1.526-1.672,1.526H42.153v0.013c0,0.114,0,0.222,0.003,0.323
				c0.247,0.138,0.61,0.22,1.172,0.22H58.698z"/>
			
				<linearGradient id="SVGID_15_" gradientUnits="userSpaceOnUse" x1="600.0039" y1="-726" x2="611.7307" y2="-714.2734" gradientTransform="matrix(1 0 0 -1 -556.5 -688.5)">
				<stop  offset="0" style="stop-color:#115EAA"/>
				<stop  offset="0.269" style="stop-color:#90D9F8"/>
				<stop  offset="1" style="stop-color:#115EAA"/>
			</linearGradient>
			<path fill="url(#SVGID_15_)" d="M42.625,36.309V31.85c0-0.853,0.236-1.309,1.541-1.309h14.979v-0.319
				c0-0.283-0.042-0.498-0.126-0.66c-0.093-0.002-0.21-0.002-0.323-0.002H43.694c-1.307,0-1.541,0.449-1.541,1.299v4.478
				c0,0.396,0.023,0.716,0.148,0.961c0.1,0.003,0.189,0.011,0.299,0.011H42.625z"/>
		</g>
		<path fill="#FFFFFF" d="M161.532,13.102c-2.242,0-4.183,0.849-5.611,2.454c-1.342,1.514-2.018,3.546-2.018,6.049v24.456
			c0,2.687,0.729,4.851,2.166,6.438c1.51,1.66,3.527,2.539,5.836,2.539c2.348,0,4.373-0.894,5.865-2.57
			c1.398-1.577,2.106-3.733,2.106-6.405V34.512c0-3.801,0.543-5.776,1-6.761c0.101-0.22,0.371-0.803,2.27-0.803
			c0.213,0,0.354,0.019,0.444,0.031c0.122,0.216,0.213,0.52,0.256,0.89c0.127,1.041,0.193,2.625,0.193,4.574v13.619
			c0,2.705,0.715,4.869,2.124,6.44c1.481,1.656,3.495,2.538,5.813,2.538c2.35,0,4.383-0.873,5.887-2.52
			c1.425-1.576,2.15-3.748,2.15-6.457V34.699c0-4.245,0.455-5.747,0.596-6.105c0.279-0.531,0.627-0.926,1.099-1.241
			c0.429-0.277,0.81-0.406,1.231-0.406c0.306,0,0.479,0.035,0.563,0.056c0.11,0.148,0.226,0.374,0.283,0.777
			c0.134,0.923,0.2,2.276,0.2,3.912v14.373c0,2.688,0.729,4.851,2.164,6.437c1.518,1.661,3.535,2.54,5.842,2.54
			c2.349,0,4.382-0.873,5.881-2.521c1.428-1.572,2.15-3.746,2.15-6.453V29.373c0-3.951-0.461-6.763-1.447-8.846
			c-1.178-2.409-2.955-4.271-5.307-5.55c-2.22-1.203-4.83-1.811-7.763-1.811c-2.569,0-4.968,0.559-7.12,1.661
			c-0.929,0.477-1.839,1.068-2.709,1.767c-0.729-0.659-1.523-1.226-2.367-1.696c-2.078-1.149-4.524-1.731-7.281-1.731
			c-2.613,0-5.043,0.544-7.224,1.622c-0.512,0.251-1.017,0.537-1.514,0.857c-0.095-0.109-0.195-0.216-0.297-0.317
			C165.545,13.873,163.652,13.102,161.532,13.102L161.532,13.102z"/>
		<path fill="#FFFFFF" d="M133.786,13.102c-2.991,0-5.781,0.5-8.292,1.482c-2.581,1.01-4.819,2.478-6.65,4.362
			c-1.824,1.876-3.239,4.154-4.208,6.77c-0.934,2.535-1.41,5.345-1.41,8.353c0,2.988,0.471,5.772,1.395,8.274
			c0.958,2.591,2.386,4.867,4.244,6.772c1.847,1.9,4.07,3.387,6.595,4.408c2.481,1,5.286,1.514,8.327,1.514
			c3.056,0,5.87-0.503,8.365-1.489c2.552-1.004,4.784-2.481,6.639-4.387c1.852-1.907,3.276-4.193,4.24-6.806
			c0.938-2.539,1.413-5.328,1.413-8.289c0-2.969-0.469-5.761-1.395-8.283c-0.961-2.599-2.381-4.88-4.229-6.777
			c-1.845-1.898-4.089-3.382-6.668-4.403C139.629,13.607,136.813,13.102,133.786,13.102L133.786,13.102z M133.786,41.506
			c-0.98,0-1.741-0.218-2.396-0.68c-0.688-0.483-1.245-1.238-1.655-2.249c-0.5-1.231-0.754-2.751-0.754-4.509
			c0-1.78,0.257-3.315,0.768-4.563c0.426-1.049,0.946-1.754,1.641-2.223c0.679-0.466,1.441-0.683,2.396-0.683
			c1.486,0,2.522,0.479,3.369,1.552c1.015,1.284,1.53,3.273,1.53,5.917c0,2.604-0.517,4.582-1.535,5.879
			C136.305,41.025,135.265,41.506,133.786,41.506L133.786,41.506z"/>
		<path fill="#FFFFFF" d="M104.442,1.168h-1.802c-2.243,0-3.867,0.231-5.105,0.729c-1.64,0.653-2.909,1.873-3.663,3.522
			c-0.478,1.024-5.778,19.705-5.778,19.705s-5.306-18.69-5.778-19.712c-0.761-1.647-2.029-2.867-3.666-3.517
			c-1.238-0.495-2.858-0.726-5.104-0.726h-1.454c-2.491,0-4.586,0.559-6.224,1.655c-1.441,0.966-3.156,2.972-3.156,7.037v36.331
			c0,2.688,0.717,4.838,2.131,6.381c1.478,1.613,3.455,2.467,5.714,2.467c2.322,0,3.978-0.873,5.445-2.514
			c1.383-1.555,2.086-3.688,2.086-6.334v-2.729l0.292,1.172c0.262,0.993,0.507,1.927,0.752,2.821
			c0.314,1.168,0.762,2.271,1.334,3.271c0.711,1.244,1.708,2.276,2.968,3.062c1.321,0.827,2.89,1.25,4.656,1.25
			c2.345,0,4.291-0.681,5.781-2.017c1.276-1.146,2.177-2.476,2.675-3.943c0.333-0.98,0.747-2.441,1.259-4.455l0.292-1.165v2.731
			c0,2.662,0.711,4.802,2.117,6.353c1.48,1.633,3.255,2.494,5.503,2.494c2.341,0,4.356-0.868,5.821-2.513
			c1.385-1.547,2.087-3.681,2.087-6.334V9.861c0-4.066-1.714-6.071-3.156-7.035C108.836,1.728,106.933,1.168,104.442,1.168
			L104.442,1.168z"/>
		
			<linearGradient id="SVGID_16_" gradientUnits="userSpaceOnUse" x1="644.6699" y1="-740.8491" x2="644.6699" y2="-669.8395" gradientTransform="matrix(1 0 0 -1 -556.5 -688.5)">
			<stop  offset="0" style="stop-color:#115EAA"/>
			<stop  offset="0.2247" style="stop-color:#0C5AA5"/>
			<stop  offset="0.4554" style="stop-color:#08519B"/>
			<stop  offset="0.689" style="stop-color:#224388"/>
			<stop  offset="0.9232" style="stop-color:#2B3175"/>
			<stop  offset="1" style="stop-color:#2B2C6C"/>
		</linearGradient>
		<path fill="url(#SVGID_16_)" d="M109.148,4.805c-1.242-0.832-2.697-1.254-4.707-1.254h-1.802c-1.904,0-3.285,0.183-4.219,0.557
			c-1.078,0.431-1.881,1.205-2.385,2.305c-0.408,0.882-0.854,2.248-1.353,4.174L88.094,34.42l-6.587-23.83
			c-0.505-1.932-0.95-3.298-1.354-4.178c-0.511-1.101-1.313-1.875-2.385-2.304c-0.935-0.375-2.315-0.558-4.22-0.558h-1.455
			c-2.011,0-3.657,0.421-4.897,1.252c-1.394,0.934-2.101,2.637-2.101,5.058v36.33c0,2.076,0.508,3.683,1.505,4.772
			c1.029,1.122,2.361,1.69,3.956,1.69c1.646,0,2.647-0.574,3.667-1.717c0.981-1.104,1.482-2.701,1.482-4.746V24.213l4.988,19.835
			c0.252,0.966,0.499,1.894,0.738,2.782c0.266,0.977,0.634,1.891,1.107,2.712c0.511,0.899,1.24,1.647,2.158,2.224
			c0.941,0.59,2.084,0.889,3.396,0.889c1.737,0,3.146-0.473,4.187-1.404c0.97-0.869,1.646-1.857,2.008-2.938
			c0.319-0.926,0.713-2.322,1.207-4.274l4.988-19.825v21.979c0,2.055,0.505,3.651,1.502,4.754c1.029,1.136,2.156,1.712,3.736,1.712
			c1.668,0,3.027-0.579,4.045-1.72c0.984-1.101,1.48-2.695,1.48-4.746V9.861C111.246,7.44,110.54,5.739,109.148,4.805z"/>
		
			<linearGradient id="SVGID_17_" gradientUnits="userSpaceOnUse" x1="645.3604" y1="-740.853" x2="645.3604" y2="-671.0552" gradientTransform="matrix(1 0 0 -1 -556.5 -688.5)">
			<stop  offset="0" style="stop-color:#1F4176"/>
			<stop  offset="0.4854" style="stop-color:#05589F"/>
			<stop  offset="1" style="stop-color:#1D315C"/>
		</linearGradient>
		<path fill="url(#SVGID_17_)" d="M80.267,9.513l6.583,23.828l0.478-1.802L81.51,10.591c-0.507-1.932-0.949-3.298-1.355-4.179
			c-0.417-0.9-1.035-1.568-1.83-2.022c0.219,0.285,0.424,0.592,0.589,0.942C79.318,6.212,79.761,7.578,80.267,9.513z M109.149,4.805
			c-0.083-0.054-0.181-0.094-0.267-0.146c0.741,0.981,1.12,2.358,1.12,4.122v36.326c0,2.053-0.497,3.651-1.48,4.75
			c-1.016,1.141-2.378,1.717-4.045,1.717c-1.055,0-1.791-0.28-2.606-0.79c0.041,0.05,0.07,0.11,0.114,0.159
			c1.029,1.135,2.155,1.709,3.735,1.709c1.667,0,3.029-0.576,4.046-1.717c0.983-1.102,1.48-2.695,1.48-4.746V9.861
			C111.246,7.44,110.541,5.739,109.149,4.805z M74.466,45.107c0,2.049-0.501,3.646-1.481,4.748
			c-1.019,1.143-2.021,1.719-3.667,1.719c-1.077,0-2.022-0.28-2.844-0.792c0.045,0.053,0.08,0.125,0.131,0.182
			c1.028,1.121,2.357,1.692,3.954,1.692c1.649,0,2.648-0.576,3.668-1.721c0.98-1.104,1.478-2.699,1.478-4.744V28.076l-1.24-4.941
			L74.466,45.107L74.466,45.107z M94.25,42.958c-0.493,1.956-0.887,3.349-1.203,4.278c-0.363,1.078-1.04,2.064-2.009,2.933
			c-1.039,0.937-2.448,1.407-4.188,1.407c-1.311,0-2.453-0.299-3.394-0.891c-0.06-0.035-0.112-0.08-0.17-0.119
			c0.404,0.453,0.87,0.86,1.41,1.199c0.942,0.59,2.084,0.891,3.396,0.891c1.737,0,3.146-0.473,4.187-1.405
			c0.972-0.869,1.646-1.856,2.008-2.937c0.321-0.924,0.712-2.322,1.207-4.277l3.746-14.885v-6.019L94.25,42.958z"/>
		
			<linearGradient id="SVGID_18_" gradientUnits="userSpaceOnUse" x1="659.0059" y1="-718.9668" x2="659.0059" y2="-736.5424" gradientTransform="matrix(1 0 0 -1 -556.5 -688.5)">
			<stop  offset="0" style="stop-color:#0D5DA8"/>
			<stop  offset="0.269" style="stop-color:#90D9F8"/>
			<stop  offset="1" style="stop-color:#0D5DA8"/>
		</linearGradient>
		<path fill="url(#SVGID_18_)" d="M102.434,24.654l-1.243,4.937v15.96c0,2.053,0.506,3.653,1.502,4.756
			c0.342,0.375,0.727,0.668,1.129,0.918c-0.914-1.094-1.388-2.627-1.388-4.594V24.654z"/>
		
			<linearGradient id="SVGID_19_" gradientUnits="userSpaceOnUse" x1="633.5312" y1="-692.9404" x2="620.3953" y2="-725.6195" gradientTransform="matrix(1 0 0 -1 -556.5 -688.5)">
			<stop  offset="0" style="stop-color:#0D5DA8"/>
			<stop  offset="0.269" style="stop-color:#90D9F8"/>
			<stop  offset="1" style="stop-color:#0D5DA8"/>
		</linearGradient>
		<path fill="url(#SVGID_19_)" d="M67.328,11.257c0-2.183,0.642-3.72,1.894-4.563c1.119-0.75,2.258-1.131,4.072-1.131h1.522
			c1.717,0,2.963,0.164,3.808,0.502c0.178,0.07,0.34,0.164,0.503,0.256c-0.431-0.549-0.966-0.971-1.623-1.231
			c-0.842-0.337-2.09-0.501-3.808-0.501h-1.175c-1.812,0-3.3,0.378-4.42,1.128c-1.257,0.842-1.895,2.38-1.895,4.565v32.786
			c0,1.875,0.458,3.32,1.359,4.307c0.304,0.332,0.644,0.583,1.003,0.812c-0.815-0.979-1.242-2.363-1.242-4.146V11.257H67.328z"/>
		
			<linearGradient id="SVGID_20_" gradientUnits="userSpaceOnUse" x1="645.2871" y1="-717.916" x2="661.0678" y2="-693.0173" gradientTransform="matrix(1 0 0 -1 -556.5 -688.5)">
			<stop  offset="0" style="stop-color:#0D5DA8"/>
			<stop  offset="0.269" style="stop-color:#90D9F8"/>
			<stop  offset="1" style="stop-color:#0D5DA8"/>
		</linearGradient>
		<path fill="url(#SVGID_20_)" d="M96.707,11.911c0.452-1.735,0.854-2.97,1.223-3.766c0.457-0.992,1.181-1.69,2.149-2.08
			c0.846-0.335,1.012-0.5,2.729-0.5h2.407c1.696,0,3.091,0.345,4.183,1c-0.248-0.33-0.54-0.615-0.881-0.843
			c-1.119-0.751-2.416-1.132-4.229-1.132h-1.522c-1.72,0-2.965,0.165-3.807,0.502c-0.973,0.389-1.698,1.088-2.154,2.08
			c-0.37,0.796-0.769,2.03-1.222,3.767l-5.619,20.184l0.688,2.6L96.707,11.911z"/>
		
			<linearGradient id="SVGID_21_" gradientUnits="userSpaceOnUse" x1="635.0449" y1="-717.1387" x2="639.8962" y2="-736.0045" gradientTransform="matrix(1 0 0 -1 -556.5 -688.5)">
			<stop  offset="0.0944" style="stop-color:#0D5DA8"/>
			<stop  offset="0.3558" style="stop-color:#90D9F8"/>
			<stop  offset="1" style="stop-color:#0D5DA8"/>
		</linearGradient>
		<path fill="url(#SVGID_21_)" d="M83.384,47.271c-0.24-0.892-0.485-1.816-0.738-2.778l-4.989-19.839v3.863l3.746,14.895
			c0.253,0.965,0.5,1.893,0.738,2.783c0.265,0.974,0.636,1.888,1.107,2.711c0.478,0.841,1.155,1.545,1.99,2.101
			c-0.283-0.317-0.537-0.655-0.748-1.022C84.019,49.158,83.647,48.249,83.384,47.271z"/>
		<g>
			
				<linearGradient id="SVGID_22_" gradientUnits="userSpaceOnUse" x1="690.335" y1="-740.8477" x2="690.335" y2="-669.8438" gradientTransform="matrix(1 0 0 -1 -556.5 -688.5)">
				<stop  offset="0" style="stop-color:#115EAA"/>
				<stop  offset="0.2247" style="stop-color:#0C5AA5"/>
				<stop  offset="0.4554" style="stop-color:#08519B"/>
				<stop  offset="0.689" style="stop-color:#224388"/>
				<stop  offset="0.9232" style="stop-color:#2B3175"/>
				<stop  offset="1" style="stop-color:#2B2C6C"/>
			</linearGradient>
			<path fill="url(#SVGID_22_)" d="M150.808,26.607c-0.837-2.279-2.083-4.278-3.694-5.936c-1.613-1.659-3.579-2.953-5.839-3.85
				c-2.244-0.886-4.765-1.334-7.488-1.334c-2.688,0-5.186,0.442-7.424,1.319c-2.259,0.885-4.216,2.166-5.812,3.805
				c-1.588,1.637-2.827,3.633-3.678,5.934c-0.838,2.271-1.264,4.803-1.264,7.525c0,2.703,0.419,5.213,1.248,7.449
				c0.843,2.272,2.091,4.271,3.71,5.931c1.623,1.673,3.567,2.972,5.786,3.866c2.197,0.89,4.7,1.338,7.433,1.338
				c2.751,0,5.269-0.443,7.486-1.32c2.241-0.882,4.194-2.176,5.81-3.833c1.613-1.662,2.863-3.671,3.711-5.969
				c0.839-2.274,1.267-4.785,1.267-7.466C152.061,31.373,151.639,28.864,150.808,26.607z M139.025,41.419
				c-1.306,1.663-3.02,2.468-5.239,2.468c-1.475,0-2.708-0.363-3.772-1.113c-1.066-0.746-1.901-1.858-2.488-3.299
				c-0.618-1.521-0.929-3.339-0.929-5.408c0-2.086,0.314-3.923,0.942-5.461c0.605-1.481,1.424-2.561,2.508-3.295
				c1.078-0.735,2.299-1.092,3.738-1.092c2.221,0,3.936,0.804,5.24,2.456c1.356,1.716,2.043,4.205,2.043,7.395
				C141.069,37.219,140.38,39.693,139.025,41.419z"/>
			
				<linearGradient id="SVGID_23_" gradientUnits="userSpaceOnUse" x1="693.0293" y1="-740.8774" x2="693.0293" y2="-677.0221" gradientTransform="matrix(1 0 0 -1 -556.5 -688.5)">
				<stop  offset="0" style="stop-color:#1F4176"/>
				<stop  offset="0.4854" style="stop-color:#05589F"/>
				<stop  offset="1" style="stop-color:#1D315C"/>
			</linearGradient>
			<path fill="url(#SVGID_23_)" d="M128.773,41.695c0.06,0.043,0.128,0.07,0.188,0.109c-0.571-0.643-1.059-1.41-1.434-2.332
				c-0.618-1.521-0.928-3.338-0.928-5.408c0-2.086,0.313-3.922,0.942-5.46c0.606-1.481,1.423-2.561,2.509-3.295
				c1.077-0.735,2.298-1.092,3.737-1.092c1.43,0,2.648,0.337,3.682,1.016c-1.264-1.4-2.876-2.096-4.923-2.096
				c-1.438,0-2.66,0.358-3.738,1.092c-1.083,0.736-1.902,1.812-2.508,3.296c-0.628,1.535-0.945,3.372-0.945,5.463
				c0,2.068,0.312,3.885,0.928,5.4C126.871,39.842,127.707,40.945,128.773,41.695z M150.808,26.607
				c-0.837-2.279-2.083-4.278-3.694-5.936c-0.508-0.521-1.061-0.994-1.638-1.441c0.131,0.124,0.271,0.235,0.394,0.364
				c1.613,1.658,2.855,3.654,3.697,5.935c0.829,2.256,1.251,4.766,1.251,7.462c0,2.674-0.426,5.183-1.266,7.464
				c-0.848,2.296-2.098,4.305-3.711,5.968c-1.615,1.66-3.568,2.948-5.81,3.835c-2.216,0.875-4.735,1.317-7.488,1.317
				c-2.733,0-5.234-0.45-7.434-1.341c-1.505-0.606-2.871-1.414-4.11-2.383c1.534,1.469,3.323,2.644,5.353,3.465
				c2.198,0.89,4.7,1.341,7.434,1.341c2.751,0,5.268-0.448,7.486-1.322c2.241-0.882,4.195-2.175,5.81-3.833
				c1.615-1.663,2.863-3.671,3.711-5.967c0.839-2.277,1.267-4.786,1.267-7.465C152.061,31.373,151.639,28.864,150.808,26.607z"/>
			
				<linearGradient id="SVGID_24_" gradientUnits="userSpaceOnUse" x1="678.3242" y1="-732.8711" x2="691.1273" y2="-706.591" gradientTransform="matrix(1 0 0 -1 -556.5 -688.5)">
				<stop  offset="0" style="stop-color:#0D5DA8"/>
				<stop  offset="0.269" style="stop-color:#90D9F8"/>
				<stop  offset="1" style="stop-color:#0D5DA8"/>
			</linearGradient>
			<path fill="url(#SVGID_24_)" d="M119.281,41.467c-0.76-2.056-1.145-4.357-1.145-6.839c0-2.502,0.392-4.829,1.159-6.914
				c0.783-2.113,1.92-3.949,3.38-5.45c1.466-1.507,3.262-2.682,5.338-3.495c2.055-0.806,4.35-1.212,6.819-1.212
				c2.503,0,4.818,0.412,6.879,1.225c1.424,0.566,2.707,1.315,3.86,2.215c-1.415-1.359-3.087-2.444-5-3.204
				c-2.061-0.814-4.375-1.228-6.878-1.228c-2.469,0-4.761,0.405-6.818,1.211c-2.074,0.812-3.873,1.988-5.34,3.493
				c-1.459,1.504-2.596,3.338-3.378,5.451c-0.771,2.086-1.159,4.413-1.159,6.913c0,2.481,0.385,4.785,1.143,6.84
				c0.773,2.092,1.92,3.924,3.411,5.451c0.48,0.493,1,0.938,1.538,1.358c-0.129-0.124-0.272-0.24-0.396-0.366
				C121.205,45.387,120.056,43.557,119.281,41.467z"/>
			
				<linearGradient id="SVGID_25_" gradientUnits="userSpaceOnUse" x1="849.8711" y1="-658.4927" x2="857.217" y2="-643.8" gradientTransform="matrix(0.9837 0.1796 0.1796 -0.9837 -583.9951 -754.7957)">
				<stop  offset="0" style="stop-color:#0D5DA8"/>
				<stop  offset="0.269" style="stop-color:#90D9F8"/>
				<stop  offset="1" style="stop-color:#0D5DA8"/>
			</linearGradient>
			<path fill="url(#SVGID_25_)" d="M141.954,36.909c-0.376,2.052-1.073,4.198-2.627,5.694c-1.731,1.658-4.307,2.162-6.55,1.649
				c-0.736-0.166-1.843-0.458-2.412-0.999c0.239,0.393,0.928,0.87,1.279,1.145c1.959,1.527,5.334,1.277,7.452,0.057
				c2.366-1.368,3.366-3.805,3.829-6.336c0.541-2.965,0.327-5.395-0.643-7.215c-0.333-0.626-0.735-1.155-1.204-1.603
				c0.078,0.128,0.16,0.252,0.231,0.392C142.278,31.516,142.494,33.939,141.954,36.909z"/>
		</g>
		<g>
			
				<linearGradient id="SVGID_26_" gradientUnits="userSpaceOnUse" x1="738.4688" y1="-740.8486" x2="738.4688" y2="-669.8439" gradientTransform="matrix(1 0 0 -1 -556.5 -688.5)">
				<stop  offset="0" style="stop-color:#115EAA"/>
				<stop  offset="0.2247" style="stop-color:#0C5AA5"/>
				<stop  offset="0.4554" style="stop-color:#08519B"/>
				<stop  offset="0.689" style="stop-color:#224388"/>
				<stop  offset="0.9232" style="stop-color:#2B3175"/>
				<stop  offset="1" style="stop-color:#2B2C6C"/>
			</linearGradient>
			<path fill="url(#SVGID_26_)" d="M206.426,21.55c-0.943-1.934-2.389-3.441-4.295-4.479c-1.863-1.009-4.09-1.522-6.619-1.522
				c-2.188,0-4.219,0.469-6.027,1.397c-1.385,0.711-2.709,1.718-3.947,3.006c-0.951-1.261-2.084-2.255-3.377-2.973
				c-1.715-0.949-3.78-1.431-6.128-1.431c-2.245,0-4.318,0.461-6.17,1.375c-1.136,0.56-2.232,1.319-3.277,2.265
				c-0.246-0.848-0.674-1.576-1.271-2.174c-1.013-1.014-2.286-1.527-3.781-1.527c-1.566,0-2.853,0.555-3.831,1.654
				c-0.938,1.058-1.413,2.561-1.413,4.464v24.456c0,2.075,0.521,3.7,1.551,4.836c1.059,1.166,2.428,1.756,4.069,1.756
				c1.667,0,3.041-0.596,4.081-1.771c0.998-1.128,1.507-2.749,1.507-4.823v-11.55c0-3.397,0.411-6.01,1.219-7.764
				c0.681-1.468,2.13-2.185,4.434-2.185c1.026,0,1.747,0.242,2.156,0.719c0.488,0.578,0.797,1.351,0.91,2.296
				c0.142,1.146,0.214,2.784,0.214,4.862v13.623c0,2.092,0.508,3.728,1.512,4.844c1.037,1.162,2.399,1.75,4.041,1.75
				c1.685,0,3.067-0.588,4.121-1.745c1.019-1.118,1.533-2.752,1.533-4.849V34.695c0-4.325,0.456-6.283,0.812-7.104
				c0.472-0.942,1.112-1.672,1.95-2.226c0.82-0.54,1.656-0.804,2.549-0.804c1.037,0,1.795,0.249,2.244,0.738
				c0.524,0.574,0.84,1.277,0.963,2.144c0.146,1.043,0.226,2.471,0.226,4.247v14.371c0,2.075,0.521,3.7,1.548,4.836
				c1.062,1.164,2.432,1.754,4.073,1.754c1.679,0,3.065-0.586,4.116-1.738c1.016-1.121,1.531-2.755,1.531-4.854V29.373
				C207.643,25.839,207.245,23.284,206.426,21.55z"/>
			
				<linearGradient id="SVGID_27_" gradientUnits="userSpaceOnUse" x1="739.1855" y1="-740.8662" x2="739.1855" y2="-674.4086" gradientTransform="matrix(1 0 0 -1 -556.5 -688.5)">
				<stop  offset="0" style="stop-color:#1F4176"/>
				<stop  offset="0.4854" style="stop-color:#05589F"/>
				<stop  offset="1" style="stop-color:#1D315C"/>
			</linearGradient>
			<path fill="url(#SVGID_27_)" d="M206.426,21.55c-0.728-1.49-1.757-2.719-3.059-3.684c0.73,0.756,1.337,1.624,1.814,2.604
				c0.824,1.735,1.219,4.291,1.219,7.822v16.69c0,2.095-0.516,3.729-1.533,4.851c-1.051,1.156-2.438,1.741-4.12,1.741
				c-1.111,0-2.083-0.293-2.938-0.832c0.041,0.048,0.068,0.109,0.114,0.156c1.06,1.164,2.429,1.754,4.069,1.754
				c1.679,0,3.066-0.588,4.117-1.739c1.015-1.12,1.531-2.754,1.531-4.854V29.373C207.643,25.839,207.245,23.284,206.426,21.55z
				 M191.699,23.481c-0.893,0-1.729,0.266-2.549,0.805c-0.838,0.558-1.477,1.284-1.949,2.227c-0.354,0.821-0.812,2.783-0.812,7.105
				v11.364c0,2.095-0.514,3.729-1.533,4.851c-1.051,1.156-2.436,1.741-4.119,1.741c-1.103,0-2.066-0.285-2.902-0.812
				c0.038,0.047,0.062,0.104,0.104,0.145c1.035,1.16,2.399,1.748,4.041,1.748c1.684,0,3.068-0.586,4.121-1.742
				c1.017-1.121,1.532-2.755,1.532-4.85V34.695c0-4.322,0.454-6.281,0.812-7.104c0.474-0.942,1.111-1.671,1.951-2.226
				c0.821-0.54,1.655-0.804,2.547-0.804c0.555,0,1.024,0.077,1.414,0.217c-0.121-0.196-0.256-0.386-0.41-0.561
				C193.495,23.731,192.738,23.481,191.699,23.481z M171.907,23.481c-2.304,0-3.756,0.714-4.434,2.187
				c-0.808,1.753-1.219,4.364-1.219,7.762v11.557c0,2.07-0.509,3.693-1.508,4.822c-1.042,1.172-2.414,1.769-4.08,1.769
				c-1.109,0-2.085-0.294-2.936-0.83c0.041,0.047,0.067,0.106,0.11,0.151c1.058,1.166,2.427,1.756,4.068,1.756
				c1.668,0,3.042-0.594,4.081-1.768c0.998-1.13,1.508-2.752,1.508-4.826V34.509c0-3.397,0.411-6.01,1.219-7.764
				c0.68-1.468,2.133-2.185,4.434-2.185c0.499,0,0.918,0.06,1.274,0.171c-0.107-0.189-0.228-0.37-0.362-0.531
				C173.654,23.724,172.933,23.481,171.907,23.481z"/>
			
				<linearGradient id="SVGID_28_" gradientUnits="userSpaceOnUse" x1="726.5947" y1="-708.6855" x2="735.491" y2="-706.3942" gradientTransform="matrix(1 0 0 -1 -556.5 -688.5)">
				<stop  offset="0.092" style="stop-color:#0D5DA8"/>
				<stop  offset="0.1217" style="stop-color:#1966AE"/>
				<stop  offset="0.2355" style="stop-color:#4886C5"/>
				<stop  offset="0.3407" style="stop-color:#67A5D6"/>
				<stop  offset="0.4339" style="stop-color:#7DBEE6"/>
				<stop  offset="0.5117" style="stop-color:#8CCDF1"/>
				<stop  offset="0.5644" style="stop-color:#90D9F8"/>
				<stop  offset="0.6354" style="stop-color:#79BAE4"/>
				<stop  offset="0.812" style="stop-color:#4383C1"/>
				<stop  offset="0.9378" style="stop-color:#1A67AE"/>
				<stop  offset="1" style="stop-color:#0D5DA8"/>
			</linearGradient>
			<path fill="url(#SVGID_28_)" d="M171.649,18.022c2.799-0.679,5.847-1.019,8.64-0.119c0.706,0.23,1.395,0.541,2.043,0.902
				c0.331,0.184,0.648,0.394,0.952,0.621c-0.615-0.621-1.29-1.147-2.036-1.557c-1.488-0.828-3.283-1.499-5.327-1.499
				c-2.54,0-4.906,1.016-6.951,2.449c-0.258,0.18-0.536,0.458-0.825,0.591C168.145,19.407,170.579,18.282,171.649,18.022z"/>
			
				<linearGradient id="SVGID_29_" gradientUnits="userSpaceOnUse" x1="746.0088" y1="-708.6855" x2="754.9022" y2="-706.395" gradientTransform="matrix(1 0 0 -1 -556.5 -688.5)">
				<stop  offset="0.092" style="stop-color:#0D5DA8"/>
				<stop  offset="0.1217" style="stop-color:#1966AE"/>
				<stop  offset="0.2355" style="stop-color:#4886C5"/>
				<stop  offset="0.3407" style="stop-color:#67A5D6"/>
				<stop  offset="0.4339" style="stop-color:#7DBEE6"/>
				<stop  offset="0.5117" style="stop-color:#8CCDF1"/>
				<stop  offset="0.5644" style="stop-color:#90D9F8"/>
				<stop  offset="0.6354" style="stop-color:#79BAE4"/>
				<stop  offset="0.812" style="stop-color:#4383C1"/>
				<stop  offset="0.9378" style="stop-color:#1A67AE"/>
				<stop  offset="1" style="stop-color:#0D5DA8"/>
			</linearGradient>
			<path fill="url(#SVGID_29_)" d="M191.061,18.022c2.801-0.679,5.85-1.019,8.639-0.119c0.71,0.23,1.396,0.541,2.048,0.902
				c0.334,0.184,0.646,0.394,0.948,0.621c-0.61-0.621-1.288-1.147-2.029-1.557c-1.493-0.828-3.289-1.499-5.334-1.499
				c-2.536,0-4.906,1.016-6.95,2.449c-0.26,0.18-0.534,0.458-0.823,0.591C187.559,19.407,189.988,18.282,191.061,18.022z"/>
			
				<linearGradient id="SVGID_30_" gradientUnits="userSpaceOnUse" x1="713.7783" y1="-733.4761" x2="717.8239" y2="-705.3514" gradientTransform="matrix(1 0 0 -1 -556.5 -688.5)">
				<stop  offset="0" style="stop-color:#0D5DA8"/>
				<stop  offset="0.269" style="stop-color:#90D9F8"/>
				<stop  offset="1" style="stop-color:#0D5DA8"/>
			</linearGradient>
			<path fill="url(#SVGID_30_)" d="M158.076,22.422c0-1.601,0.402-2.862,1.19-3.753c0.822-0.926,1.905-1.394,3.222-1.394
				c0.895,0,1.695,0.228,2.388,0.665c-0.08-0.099-0.161-0.197-0.251-0.286c-0.85-0.854-1.922-1.286-3.179-1.286
				c-1.319,0-2.399,0.467-3.225,1.392c-0.787,0.891-1.189,2.156-1.189,3.754V45.46c0,1.745,0.439,3.114,1.303,4.069
				c0.291,0.312,0.613,0.562,0.954,0.777c-0.799-0.947-1.212-2.264-1.212-3.937L158.076,22.422L158.076,22.422z"/>
			
				<linearGradient id="SVGID_31_" gradientUnits="userSpaceOnUse" x1="754.7012" y1="-716.0537" x2="754.7012" y2="-737.0991" gradientTransform="matrix(1 0 0 -1 -556.5 -688.5)">
				<stop  offset="0" style="stop-color:#0D5DA8"/>
				<stop  offset="0.269" style="stop-color:#90D9F8"/>
				<stop  offset="1" style="stop-color:#0D5DA8"/>
			</linearGradient>
			<path fill="url(#SVGID_31_)" d="M198.455,32.493c0-1.72-0.07-3.104-0.195-4.118c-0.107-0.839-0.383-1.52-0.839-2.078
				c-0.187-0.221-0.428-0.385-0.722-0.505c0.242,0.443,0.402,0.948,0.479,1.539c0.129,1.01,0.194,2.398,0.194,4.114v13.938
				c0,2.015,0.451,3.593,1.347,4.689c0.297,0.366,0.635,0.647,0.987,0.895c-0.824-1.091-1.251-2.608-1.251-4.536V32.493
				L198.455,32.493z"/>
			
				<linearGradient id="SVGID_32_" gradientUnits="userSpaceOnUse" x1="735.0166" y1="-716.0537" x2="735.0166" y2="-737.0991" gradientTransform="matrix(1 0 0 -1 -556.5 -688.5)">
				<stop  offset="0" style="stop-color:#0D5DA8"/>
				<stop  offset="0.269" style="stop-color:#90D9F8"/>
				<stop  offset="1" style="stop-color:#0D5DA8"/>
			</linearGradient>
			<path fill="url(#SVGID_32_)" d="M178.771,32.493c0-1.72-0.064-3.104-0.192-4.118c-0.108-0.839-0.384-1.52-0.843-2.078
				c-0.18-0.221-0.428-0.385-0.723-0.505c0.243,0.443,0.408,0.948,0.479,1.539c0.131,1.01,0.196,2.398,0.196,4.114v13.938
				c0,2.015,0.453,3.593,1.348,4.689c0.298,0.366,0.631,0.647,0.984,0.895c-0.824-1.091-1.25-2.608-1.25-4.536V32.493
				L178.771,32.493z"/>
		</g>
	</g>
</g>
</svg>
