<?xml version="1.0" encoding="utf-8"?>
<!-- Generator: Adobe Illustrator 16.0.0, SVG Export Plug-In . SVG Version: 6.00 Build 0)  -->
<!DOCTYPE svg PUBLIC "-//W3C//DTD SVG 1.1//EN" "http://www.w3.org/Graphics/SVG/1.1/DTD/svg11.dtd">
<svg version="1.1" id="Layer_1" xmlns="http://www.w3.org/2000/svg" xmlns:xlink="http://www.w3.org/1999/xlink" x="0px" y="0px"
	 width="29px" height="26px" viewBox="625.5 187 29 26" enable-background="new 625.5 187 29 26" xml:space="preserve">
<g>
	<g>
		<g>
			<defs>
				<rect id="SVGID_1_" x="627.18" y="188.25" width="26.32" height="23.5"/>
			</defs>
			<clipPath id="SVGID_2_">
				<use xlink:href="#SVGID_1_"  overflow="visible"/>
			</clipPath>
			<path clip-path="url(#SVGID_2_)" fill="#7E6226" d="M628.088,202.222h2.143v8.571c0,0.505,0.414,0.919,0.918,0.919h6.276
				c0.504,0,0.917-0.413,0.917-0.919v-6.276h3.827v6.276c0,0.505,0.413,0.919,0.918,0.919h5.97c0.506,0,0.919-0.413,0.919-0.919
				v-8.571h2.601c0.368,0,0.705-0.23,0.843-0.567c0.138-0.336,0.062-0.734-0.199-0.994l-11.969-12.139
				c-0.353-0.352-0.935-0.367-1.286-0.015l-12.506,12.138c-0.275,0.261-0.352,0.658-0.214,1.01
				C627.384,202.007,627.721,202.222,628.088,202.222L628.088,202.222z M640.579,190.466l9.795,9.918h-1.315
				c-0.505,0-0.919,0.414-0.919,0.919v8.571h-4.133V203.6c0-0.506-0.413-0.919-0.918-0.919h-5.663c-0.506,0-0.919,0.413-0.919,0.919
				v6.274h-4.439v-8.571c0-0.505-0.413-0.919-0.918-0.919h-0.796L640.579,190.466z"/>
		</g>
	</g>
</g>
</svg>
