<?xml version="1.0" encoding="utf-8"?>
<!-- Generator: Adobe Illustrator 16.0.0, SVG Export Plug-In . SVG Version: 6.00 Build 0)  -->
<!DOCTYPE svg PUBLIC "-//W3C//DTD SVG 1.1//EN" "http://www.w3.org/Graphics/SVG/1.1/DTD/svg11.dtd">
<svg version="1.1" id="Layer_1" xmlns="http://www.w3.org/2000/svg" xmlns:xlink="http://www.w3.org/1999/xlink" x="0px" y="0px"
	 width="27px" height="25px" viewBox="0 0 27 25" enable-background="new 0 0 27 25" xml:space="preserve">
<g>
	<path fill="#7E6226" d="M9.675,6.073c-1.541,0-2.789,1.246-2.789,2.788c0,1.538,1.248,2.788,2.789,2.788
		c1.54,0,2.786-1.25,2.788-2.788C12.461,7.319,11.215,6.073,9.675,6.073z M9.675,10.622c-0.975,0-1.76-0.788-1.762-1.76
		c0.002-0.973,0.788-1.76,1.762-1.764c0.97,0.003,1.758,0.791,1.76,1.764C11.434,9.834,10.646,10.622,9.675,10.622z"/>
	<path fill="#7E6226" d="M13.694,13.724l1.724,0.74l0.246-0.277c0.195-0.219,0.381-0.451,0.555-0.692
		c0.166-0.237,0.313-0.473,0.451-0.713l0.188-0.329l-1.285-1.354l0.015-0.037l1.865-0.226l0.074-0.358
		c0.109-0.529,0.166-1.065,0.166-1.602c0-0.044,0-0.081,0-0.114l-0.002-0.381l-1.789-0.529c-0.002-0.015-0.004-0.03-0.006-0.041
		l1.507-1.127l-0.118-0.352c-0.182-0.54-0.42-1.067-0.716-1.571l-0.194-0.328l-1.81,0.438c-0.008-0.011-0.017-0.022-0.026-0.033
		l0.74-1.722l-0.273-0.246c-0.225-0.2-0.455-0.385-0.701-0.559c-0.235-0.163-0.466-0.311-0.714-0.447l-0.329-0.183l-1.344,1.279
		c-0.015-0.005-0.028-0.009-0.043-0.017L11.653,1.08l-0.362-0.076c-0.531-0.107-1.063-0.161-1.598-0.161
		c-0.041,0-0.085,0-0.129,0.002L9.189,0.852l-0.521,1.78C8.653,2.634,8.64,2.638,8.625,2.638L7.501,1.133l-0.35,0.115
		C6.601,1.429,6.073,1.669,5.576,1.969L5.252,2.163l0.435,1.808C5.676,3.98,5.665,3.988,5.654,3.999L3.933,3.255L3.685,3.529
		C3.487,3.751,3.302,3.984,3.132,4.225c-0.167,0.24-0.316,0.473-0.451,0.713L2.492,5.271l1.283,1.346
		C3.77,6.632,3.764,6.646,3.761,6.658L1.898,6.879L1.823,7.238C1.707,7.789,1.655,8.344,1.655,8.891c0,0.022,0,0.048,0,0.078
		l0.009,0.374l1.782,0.525C3.448,9.878,3.45,9.893,3.452,9.904l-1.509,1.131l0.121,0.351c0.183,0.54,0.419,1.069,0.719,1.572
		l0.192,0.326l1.81-0.437c0.009,0.011,0.017,0.022,0.026,0.033l-0.739,1.724l0.275,0.247c0.22,0.196,0.455,0.381,0.697,0.555
		c0.235,0.163,0.474,0.311,0.71,0.444l0.331,0.188l1.346-1.279c0.015,0.003,0.028,0.009,0.042,0.015l0.22,1.865l0.363,0.074
		c0.534,0.11,1.072,0.164,1.61,0.164H9.76l0.392,0.008l0.53-1.799c0.013-0.002,0.026-0.006,0.039-0.006l1.126,1.503l0.351-0.116
		c0.543-0.18,1.072-0.418,1.574-0.714l0.325-0.194l-0.437-1.81C13.672,13.742,13.684,13.731,13.694,13.724z M13.253,12.744
		c-0.152,0.141-0.309,0.27-0.474,0.392l-0.271,0.203l0.412,1.714c-0.228,0.12-0.46,0.224-0.699,0.315l-1.069-1.431l-0.327,0.074
		c-0.194,0.046-0.394,0.079-0.586,0.096L9.893,14.14l-0.504,1.707c-0.255-0.012-0.51-0.033-0.764-0.072l-0.209-1.773l-0.32-0.1
		C7.9,13.842,7.715,13.772,7.53,13.69l-0.316-0.144l-1.28,1.218c-0.102-0.064-0.201-0.131-0.301-0.199
		c-0.109-0.078-0.218-0.159-0.323-0.244l0.701-1.636l-0.222-0.244C5.65,12.289,5.521,12.13,5.4,11.968l-0.203-0.274l-1.716,0.414
		c-0.119-0.229-0.226-0.462-0.32-0.703l1.429-1.068l-0.074-0.326C4.474,9.819,4.444,9.627,4.424,9.42L4.391,9.076L2.688,8.573
		c0.011-0.255,0.035-0.51,0.074-0.762l1.76-0.21L4.626,7.29c0.064-0.196,0.137-0.389,0.22-0.577l0.139-0.314L3.766,5.123
		C3.831,5.02,3.899,4.918,3.969,4.816C4.047,4.709,4.128,4.6,4.213,4.494l1.633,0.703L6.09,4.979
		c0.157-0.142,0.316-0.273,0.477-0.392l0.274-0.202L6.428,2.667c0.228-0.122,0.46-0.227,0.699-0.322l1.065,1.431l0.325-0.072
		c0.196-0.043,0.399-0.076,0.599-0.098l0.342-0.033l0.499-1.699c0.257,0.009,0.51,0.033,0.766,0.072l0.208,1.769l0.316,0.1
		c0.196,0.061,0.384,0.131,0.567,0.216l0.316,0.144l1.281-1.224c0.102,0.065,0.202,0.131,0.305,0.202
		c0.109,0.078,0.216,0.161,0.322,0.246l-0.703,1.634l0.226,0.246c0.135,0.146,0.264,0.305,0.388,0.475l0.203,0.27l1.712-0.415
		c0.118,0.229,0.226,0.462,0.317,0.703L14.76,7.378L14.83,7.7c0.042,0.2,0.075,0.403,0.102,0.606l0.039,0.336l1.691,0.503
		c-0.011,0.251-0.035,0.507-0.074,0.762l-1.772,0.215l-0.099,0.318c-0.059,0.188-0.129,0.377-0.213,0.555l-0.146,0.314l1.224,1.29
		c-0.064,0.1-0.129,0.2-0.199,0.3c-0.08,0.111-0.163,0.218-0.25,0.325l-1.634-0.703L13.253,12.744z"/>
	<path fill="#7E6226" d="M23.898,19.426l1.446-0.563l-0.006-0.357c-0.009-0.555-0.102-1.105-0.271-1.627l-0.113-0.344l-1.582-0.048
		c-0.037-0.062-0.076-0.126-0.117-0.187l0.637-1.459l-0.258-0.248c-0.19-0.181-0.396-0.354-0.619-0.512
		c-0.228-0.161-0.466-0.309-0.716-0.435l-0.319-0.167l-1.178,1.102c-0.066-0.017-0.135-0.031-0.201-0.045l-0.589-1.497l-0.358,0.007
		c-0.549,0.015-1.093,0.107-1.612,0.277l-0.342,0.115l-0.05,1.603c-0.062,0.035-0.124,0.074-0.184,0.113l-1.458-0.633l-0.246,0.254
		c-0.182,0.185-0.339,0.379-0.486,0.578c-0.18,0.255-0.331,0.511-0.462,0.77l-0.159,0.317l1.076,1.148
		c-0.019,0.076-0.037,0.153-0.052,0.231l-1.45,0.565l0.007,0.358c0.013,0.559,0.113,1.106,0.294,1.631l0.112,0.335l1.529,0.052
		c0.045,0.072,0.089,0.145,0.137,0.216l-0.611,1.395l0.264,0.248c0.182,0.17,0.379,0.336,0.592,0.489
		c0.244,0.176,0.499,0.331,0.771,0.463l0.315,0.153l1.097-1.028c0.085,0.022,0.17,0.041,0.257,0.058l0.548,1.401l0.358-0.009
		c0.559-0.012,1.107-0.109,1.637-0.283l0.34-0.111l0.052-1.512c0.072-0.043,0.145-0.091,0.215-0.139l1.396,0.607l0.248-0.259
		c0.181-0.192,0.354-0.4,0.514-0.621c0.168-0.234,0.314-0.479,0.44-0.723l0.162-0.321l-1.054-1.128
		C23.867,19.581,23.884,19.504,23.898,19.426z M23.65,20.953c-0.057,0.095-0.118,0.187-0.183,0.277
		c-0.061,0.085-0.126,0.166-0.19,0.248l-1.279-0.559l-0.242,0.194c-0.176,0.142-0.366,0.263-0.557,0.356l-0.277,0.133l-0.046,1.385
		c-0.215,0.054-0.43,0.091-0.646,0.113l-0.503-1.283l-0.307-0.035c-0.223-0.025-0.442-0.074-0.655-0.146l-0.292-0.1l-1.008,0.947
		c-0.106-0.065-0.212-0.134-0.317-0.209c-0.072-0.052-0.145-0.107-0.217-0.165l0.557-1.271L17.3,20.598
		c-0.139-0.177-0.259-0.367-0.358-0.569l-0.137-0.273l-1.405-0.046c-0.054-0.209-0.093-0.42-0.115-0.635l1.326-0.516l0.037-0.305
		c0.025-0.215,0.073-0.422,0.146-0.635l0.099-0.292l-0.989-1.056c0.062-0.107,0.131-0.211,0.203-0.314
		c0.052-0.07,0.105-0.139,0.159-0.203l1.337,0.581l0.242-0.188c0.162-0.127,0.35-0.242,0.54-0.338l0.271-0.137l0.048-1.468
		c0.203-0.052,0.412-0.087,0.621-0.107l0.538,1.368l0.302,0.04c0.209,0.026,0.418,0.07,0.617,0.138l0.288,0.092l1.074-1.002
		c0.093,0.058,0.186,0.118,0.276,0.183c0.083,0.06,0.162,0.121,0.238,0.184l-0.585,1.342l0.19,0.241
		c0.132,0.166,0.246,0.347,0.341,0.536l0.137,0.273l1.445,0.046c0.051,0.209,0.086,0.42,0.107,0.633l-1.335,0.52l-0.035,0.311
		c-0.023,0.216-0.066,0.425-0.137,0.636l-0.096,0.288L23.65,20.953z"/>
</g>
</svg>
