<?xml version="1.0" encoding="UTF-8"?>
<svg width="85px" height="121px" viewBox="0 0 85 121" version="1.1" xmlns="http://www.w3.org/2000/svg" xmlns:xlink="http://www.w3.org/1999/xlink">
    <!-- Generator: Sketch 42 (36781) - http://www.bohemiancoding.com/sketch -->
    <title>img</title>
    <desc>Created with Sketch.</desc>
    <defs>
        <filter x="-50%" y="-50%" width="200%" height="200%" filterUnits="objectBoundingBox" id="filter-1">
            <feOffset dx="0" dy="2" in="SourceAlpha" result="shadowOffsetOuter1"></feOffset>
            <feGaussianBlur stdDeviation="2" in="shadowOffsetOuter1" result="shadowBlurOuter1"></feGaussianBlur>
            <feColorMatrix values="0 0 0 0 0   0 0 0 0 0   0 0 0 0 0  0 0 0 0.5 0" type="matrix" in="shadowBlurOuter1" result="shadowMatrixOuter1"></feColorMatrix>
            <feMerge>
                <feMergeNode in="shadowMatrixOuter1"></feMergeNode>
                <feMergeNode in="SourceGraphic"></feMergeNode>
            </feMerge>
        </filter>
        <polygon id="path-2" points="34.8806818 12.1543614 34.8806818 0.00649070707 0.0601136364 0.00649070707 0.0601136364 12.1543614 34.8806818 12.1543614"></polygon>
        <path d="M0.830681818,6.11720673 C0.830681818,9.12684512 7.77272727,11.5659845 16.3386364,11.5659845 C24.9022727,11.5659845 31.8465909,9.12684512 31.8465909,6.11720673 C31.8465909,3.11098451 24.9022727,0.670706397 16.3386364,0.670706397 C7.77272727,0.670706397 0.830681818,3.11098451 0.830681818,6.11720673 Z" id="path-4"></path>
    </defs>
    <g id="Page-1" stroke="none" stroke-width="1" fill="none" fill-rule="evenodd">
        <g id="img" filter="url(#filter-1)" transform="translate(5.000000, 2.000000)">
            <g id="Group-7" transform="translate(0.000000, 27.085281)">
                <path d="M37.7685227,0.138338278 C42.62875,0.138338278 47.2742045,0.990101241 51.5264773,2.53420629 C55.7992045,4.08514367 59.6946591,6.33867161 63.0185227,9.14675646 C66.3707955,11.9787544 69.1560227,15.3778352 71.16625,19.1891329 C73.1992045,23.0437019 74.4446591,27.329846 74.6821591,31.881312 C74.9230682,36.4954076 74.1082955,40.9455275 72.4094318,45.0471989 C70.6935227,49.1955578 68.0776136,52.9738326 64.7548864,56.1804696 C61.4014773,59.4144359 57.3389773,62.0528514 52.7719318,63.8884689 C48.1844318,65.7331962 43.1082955,66.7580447 37.7685227,66.7580447 C32.42875,66.7580447 27.3503409,65.7331962 22.7628409,63.8884689 C18.1957955,62.0528514 14.1332955,59.4144359 10.7798864,56.1804696 C7.45715909,52.9738326 4.84011364,49.1955578 3.12420455,45.0471989 C1.42761364,40.9455275 0.611704545,36.4954076 0.852613636,31.881312 C1.09125,27.329846 2.33556818,23.0437019 4.36738636,19.1891329 C6.37875,15.3778352 9.16397727,11.9787544 12.5151136,9.14675646 C15.8401136,6.33867161 19.7355682,4.08514367 24.0082955,2.53420629 C28.2628409,0.990101241 32.9082955,0.138338278 37.7685227,0.138338278" id="Fill-1" fill="#D5D9C6"></path>
                <path d="M37.7685227,0.138338278 C42.62875,0.138338278 47.2742045,0.990101241 51.5264773,2.53420629 C55.7992045,4.08514367 59.6946591,6.33867161 63.0185227,9.14675646 C66.3707955,11.9787544 69.1560227,15.3778352 71.16625,19.1891329 C73.1992045,23.0437019 74.4446591,27.329846 74.6821591,31.881312 C74.9230682,36.4954076 74.1082955,40.9455275 72.4094318,45.0471989 C70.6935227,49.1955578 68.0776136,52.9738326 64.7548864,56.1804696 C61.4014773,59.4144359 57.3389773,62.0528514 52.7719318,63.8884689 C48.1844318,65.7331962 43.1082955,66.7580447 37.7685227,66.7580447 C32.42875,66.7580447 27.3503409,65.7331962 22.7628409,63.8884689 C18.1957955,62.0528514 14.1332955,59.4144359 10.7798864,56.1804696 C7.45715909,52.9738326 4.84011364,49.1955578 3.12420455,45.0471989 C1.42761364,40.9455275 0.611704545,36.4954076 0.852613636,31.881312 C1.09125,27.329846 2.33556818,23.0437019 4.36738636,19.1891329 C6.37875,15.3778352 9.16397727,11.9787544 12.5151136,9.14675646 C15.8401136,6.33867161 19.7355682,4.08514367 24.0082955,2.53420629 C28.2628409,0.990101241 32.9082955,0.138338278 37.7685227,0.138338278 Z" id="Stroke-3" stroke="#991D26" stroke-width="2"></path>
                <path d="M74.1998864,39.058326 C73.0953409,43.393435 72.6180682,51.7607536 70.1726136,61.3818034 C69.3453409,64.6362667 67.9419318,67.7039798 66.0601136,70.4801805 C64.1646591,73.2746007 61.7851136,75.7683987 59.0203409,77.8579509 C56.2407955,79.9566128 53.0782955,81.6396418 49.6396591,82.799998 C46.1919318,83.961493 42.4726136,84.5980377 38.59875,84.5980377 C34.7248864,84.5980377 31.0055682,83.961493 27.5578409,82.799998 C24.1192045,81.6396418 20.9567045,79.9566128 18.1771591,77.8579509 C15.4123864,75.7683987 13.0339773,73.2746007 11.1373864,70.4801805 C9.25670455,67.7039798 7.85443182,64.6385441 7.02602273,61.3818034 C5.25102273,54.4048627 3.47602273,47.4279219 1.70215909,40.4521199 C2.64306818,44.1506842 4.25670455,47.6420014 6.43852273,50.8019509 C8.64079545,53.9926458 11.4135227,56.8417246 14.6419318,59.2307603 C17.8930682,61.6311832 21.5976136,63.5601758 25.6317045,64.8890627 C29.6805682,66.2236431 34.0476136,66.9524243 38.59875,66.9524243 C43.1510227,66.9524243 47.7896591,66.0425866 51.6851136,64.3071765 C55.7305682,62.5023044 58.0226136,61.5526115 61.5101136,58.9574674 C65.02375,56.3361327 68.0010227,52.586326 70.2010227,49.3967697 C72.3828409,46.2356815 73.2589773,42.758029 74.1998864,39.058326" id="Fill-5" fill="#23324F"></path>
            </g>
            <path d="M2.96965909,72.6779274 L7.75715909,91.1923846 L11.1378409,97.5646648 C11.1378409,97.5646648 19.8753409,103.934667 23.09125,99.5107382 L55.8526136,98.1636318 C55.8526136,98.1636318 57.8719318,102.734456 66.9980682,95.9146587 L69.8401136,89.9910345 L73.4310227,70.3549375" id="Fill-8" fill="#F7BCA3"></path>
            <g id="Group-14" transform="translate(1.136364, 66.045791)">
                <path d="M73.0635227,0.0978160943 C71.9589773,4.43292519 71.4817045,12.8002437 69.03625,22.4212935 C68.2089773,25.6757568 66.8055682,28.74347 64.92375,31.5196706 C63.0282955,34.3140908 60.64875,36.8078888 57.8839773,38.897441 C55.1044318,40.996103 51.9419318,42.6791319 48.5032955,43.8394881 C45.0555682,45.0009831 41.33625,45.6375279 37.4623864,45.6375279 C33.5885227,45.6375279 29.8692045,45.0009831 26.4214773,43.8394881 C22.9828409,42.6791319 19.8203409,40.996103 17.0407955,38.897441 C14.2760227,36.8078888 11.8976136,34.3140908 10.0010227,31.5196706 C8.12034091,28.74347 6.71806818,25.6780343 5.88965909,22.4212935 C4.11465909,15.4443528 2.33965909,8.46741205 0.565795455,1.49161003 C1.50670455,5.19017434 3.12034091,8.68149152 5.30215909,11.841441 C7.50443182,15.032136 10.2771591,17.8812147 13.5055682,20.2702504 C16.7567045,22.6706733 20.46125,24.5996659 24.4953409,25.9285528 C28.5442045,27.2631333 32.91125,27.9919144 37.4623864,27.9919144 C42.0146591,27.9919144 46.6532955,27.0820767 50.54875,25.3466666 C54.5942045,23.5417945 56.88625,22.5921016 60.37375,19.9969575 C63.8873864,17.3756228 66.8646591,13.6258161 69.0646591,10.4362599 C71.2464773,7.27517165 72.1226136,3.79751912 73.0635227,0.0978160943 Z" id="Stroke-10" stroke="#991D26" stroke-width="2"></path>
                <path d="M37.9294318,41.0961965 C29.3646591,41.0961965 22.4214773,38.6741379 22.4214773,35.6872739 C22.4214773,32.6992712 29.3646591,30.2772127 37.9294318,30.2772127 C46.4930682,30.2772127 53.4373864,32.6992712 53.4373864,35.6872739 C53.4373864,38.6741379 46.4930682,41.0961965 37.9294318,41.0961965 M37.9294318,29.6748295 C28.4135227,29.6748295 20.69875,32.3667648 20.69875,35.6872739 C20.69875,39.0066443 28.4135227,41.6974409 37.9294318,41.6974409 C47.4453409,41.6974409 55.1589773,39.0066443 55.1589773,35.6872739 C55.1589773,32.3667648 47.4453409,29.6748295 37.9294318,29.6748295" id="Fill-12" fill="#FEFEFE"></path>
            </g>
            <g id="Group-20" transform="translate(21.590909, 95.652525)">
                <path d="M17.4760227,0.738346397 C9.02375,0.738346397 2.15102273,3.13990801 2.15102273,6.08691677 C2.15102273,9.03392552 9.02375,11.4240999 17.4760227,11.4240999 C25.9169318,11.4240999 32.7919318,9.03392552 32.7919318,6.08691677 C32.7919318,3.13990801 25.9169318,0.738346397 17.4760227,0.738346397 M17.4760227,11.5550528 C8.81806818,11.5550528 1.78056818,9.09883259 1.78056818,6.08691677 C1.78056818,3.06361374 8.81806818,0.607393535 17.4760227,0.607393535 C26.1248864,0.607393535 33.16125,3.06361374 33.16125,6.08691677 C33.16125,9.09883259 26.1248864,11.5550528 17.4760227,11.5550528" id="Fill-15" fill="#E7292C"></path>
                <g id="Group-19">
                    <mask id="mask-3" fill="white">
                        <use xlink:href="#path-2"></use>
                    </mask>
                    <g id="Clip-18"></g>
                    <path d="M0.430568182,6.08611966 C0.430568182,9.36107993 8.07715909,12.0245473 17.4760227,12.0245473 C26.8760227,12.0245473 34.5214773,9.36107993 34.5214773,6.08611966 C34.5214773,2.80091091 26.8760227,0.137443569 17.4760227,0.137443569 C8.07715909,0.137443569 0.430568182,2.80091091 0.430568182,6.08611966 M17.4760227,12.1543614 C7.87034091,12.1543614 0.0601136364,9.42712572 0.0601136364,6.08611966 C0.0601136364,2.73600384 7.87034091,0.00649070707 17.4760227,0.00649070707 C27.0726136,0.00649070707 34.8828409,2.73600384 34.8828409,6.08611966 C34.8828409,9.42712572 27.0726136,12.1543614 17.4760227,12.1543614" id="Fill-17" fill="#E7292C" mask="url(#mask-3)"></path>
                </g>
            </g>
            <g id="Group-39" transform="translate(22.727273, 95.652525)">
                <mask id="mask-5" fill="white">
                    <use xlink:href="#path-4"></use>
                </mask>
                <g id="Clip-22"></g>
                <polygon id="Fill-21" fill="#F7BCA3" mask="url(#mask-5)" points="-0.104545455 13.2080195 32.5715909 13.2080195 32.5715909 -0.614909091 -0.104545455 -0.614909091"></polygon>
                <polygon id="Fill-23" fill="#E7292C" mask="url(#mask-5)" points="-3.47613636 11.8529421 34.8397727 11.8529421 34.8397727 11.5432101 -3.47613636 11.5432101"></polygon>
                <polygon id="Fill-24" fill="#E7292C" mask="url(#mask-5)" points="-3.47613636 11.1104963 34.8397727 11.1104963 34.8397727 10.801903 -3.47613636 10.801903"></polygon>
                <polygon id="Fill-25" fill="#E7292C" mask="url(#mask-5)" points="-3.47613636 10.3691892 34.8397727 10.3691892 34.8397727 10.060596 -3.47613636 10.060596"></polygon>
                <polygon id="Fill-26" fill="#E7292C" mask="url(#mask-5)" points="-3.47613636 9.62788215 34.8397727 9.62788215 34.8397727 9.31928889 -3.47613636 9.31928889"></polygon>
                <polygon id="Fill-27" fill="#E7292C" mask="url(#mask-5)" points="-3.47613636 8.88657508 34.8397727 8.88657508 34.8397727 8.57798182 -3.47613636 8.57798182"></polygon>
                <polygon id="Fill-28" fill="#E7292C" mask="url(#mask-5)" points="-3.47613636 8.14526801 34.8397727 8.14526801 34.8397727 7.83667475 -3.47613636 7.83667475"></polygon>
                <polygon id="Fill-29" fill="#E7292C" mask="url(#mask-5)" points="-3.47613636 7.40282222 34.8397727 7.40282222 34.8397727 7.09422896 -3.47613636 7.09422896"></polygon>
                <polygon id="Fill-30" fill="#E7292C" mask="url(#mask-5)" points="-3.47613636 6.66151515 34.8397727 6.66151515 34.8397727 6.35292189 -3.47613636 6.35292189"></polygon>
                <polygon id="Fill-31" fill="#E7292C" mask="url(#mask-5)" points="-3.47613636 5.92020808 34.8397727 5.92020808 34.8397727 5.61047609 -3.47613636 5.61047609"></polygon>
                <polygon id="Fill-32" fill="#E7292C" mask="url(#mask-5)" points="-3.47613636 5.17776229 34.8397727 5.17776229 34.8397727 4.86916902 -3.47613636 4.86916902"></polygon>
                <polygon id="Fill-33" fill="#E7292C" mask="url(#mask-5)" points="-3.47613636 4.43645522 34.8397727 4.43645522 34.8397727 4.12786195 -3.47613636 4.12786195"></polygon>
                <polygon id="Fill-34" fill="#E7292C" mask="url(#mask-5)" points="-3.47613636 3.69514815 34.8397727 3.69514815 34.8397727 3.38655488 -3.47613636 3.38655488"></polygon>
                <polygon id="Fill-35" fill="#E7292C" mask="url(#mask-5)" points="-3.47613636 2.95384108 34.8397727 2.95384108 34.8397727 2.64524781 -3.47613636 2.64524781"></polygon>
                <polygon id="Fill-36" fill="#E7292C" mask="url(#mask-5)" points="-3.47613636 2.21253401 34.8397727 2.21253401 34.8397727 1.90280202 -3.47613636 1.90280202"></polygon>
                <polygon id="Fill-37" fill="#E7292C" mask="url(#mask-5)" points="-3.47613636 1.47008822 34.8397727 1.47008822 34.8397727 1.16149495 -3.47613636 1.16149495"></polygon>
                <polygon id="Fill-38" fill="#E7292C" mask="url(#mask-5)" points="-3.47613636 0.728781145 34.8397727 0.728781145 34.8397727 0.420187879 -3.47613636 0.420187879"></polygon>
            </g>
            <polygon id="Fill-40" fill="#F4E06C" points="62.4089773 31.6062134 66.3771591 47.1360841 9.09761364 47.1360841 13.0635227 31.6062134"></polygon>
            <polygon id="Fill-41" fill="#E99EA2" points="66.3773864 47.1357425 65.2785227 49.9210529 10.1944318 49.9210529 9.09784091 47.1357425"></polygon>
            <polygon id="Fill-42" fill="#E32327" points="65.4829545 50.2171203 9.99204545 50.2171203 8.82045455 47.2473371 9.37272727 47.0264253 10.3954545 49.6215694 65.0772727 49.6215694 66.1 47.0264253 66.6522727 47.2473371"></polygon>
            <path d="M9.47931818,46.8376255 L65.9929545,46.8376255 L62.1781818,31.905583 L13.2952273,31.905583 L9.47931818,46.8376255 Z M66.76,47.434315 L8.71340909,47.434315 L12.8338636,31.3077547 L62.6395455,31.3077547 L66.76,47.434315 Z" id="Fill-43" fill="#E32327"></path>
            <g id="Group-48" transform="translate(29.545455, 0.000000)">
                <path d="M17.8511364,35.6372841 C17.8511364,39.0078969 13.7113636,41.7362713 10.2375,41.7362713 L7.97272727,41.7362713 C4.49886364,41.7362713 0.715909091,39.0078969 0.715909091,35.6372841 L5.62613636,26.8816619 L1.68181818,6.84587401 C1.68181818,3.47526121 4.49886364,0.74347064 7.97272727,0.74347064 L10.2375,0.74347064 C13.7113636,0.74347064 16.5272727,3.47526121 16.5272727,6.84587401 L12.3954545,26.8816619 L17.8511364,35.6372841 Z" id="Fill-44" fill="#F4E06C"></path>
                <path d="M1.01431818,35.7140339 C1.07340909,38.9434453 4.77909091,41.438382 7.97227273,41.438382 L10.2381818,41.438382 C13.5234091,41.438382 17.4847727,38.8956191 17.5540909,35.7208662 L12.0779545,26.9379147 L12.1029545,26.8206265 L16.2302273,6.81444532 C16.2131818,3.62944397 13.5313636,1.04340963 10.2381818,1.04340963 L7.97227273,1.04340963 C4.68022727,1.04340963 1.99727273,3.63058269 1.98022727,6.81558404 L5.93931818,26.9310824 L1.01431818,35.7140339 Z M10.2381818,42.0362103 L7.97227273,42.0362103 C4.48136364,42.0362103 0.42,39.2417901 0.42,35.6377396 L0.42,35.5580292 L5.31545455,26.8308749 L1.38704545,6.87365879 L1.38704545,6.84519077 C1.38704545,3.31743455 4.34159091,0.446720067 7.97227273,0.446720067 L10.2381818,0.446720067 C13.87,0.446720067 16.8234091,3.31743455 16.8234091,6.84519077 L16.8188636,6.90440424 L12.7109091,26.8240426 L18.1484091,35.5523356 L18.1484091,35.6377396 C18.1484091,39.1814379 13.8211364,42.0362103 10.2381818,42.0362103 L10.2381818,42.0362103 Z" id="Fill-46" fill="#E32328"></path>
            </g>
            <polygon id="E" fill="#020302" points="7.54355632 61.917296 7.54355632 56.6906734 10.8115118 56.6906734 10.8115118 57.3084609 8.23856726 57.3084609 8.23856726 58.7406046 10.636004 58.7406046 10.636004 59.3583921 8.23856726 59.3583921 8.23856726 61.2995085 10.8115118 61.2995085 10.8115118 61.917296"></polygon>
            <polygon id="X" fill="#020302" points="15.9379354 61.917296 15.14113 61.917296 13.8669433 59.8252429 12.5716956 61.917296 11.8205222 61.917296 13.4808261 59.3022296 11.8696643 56.6906734 12.6629597 56.6906734 13.9125753 58.7441148 15.1797417 56.6906734 15.9344253 56.6906734 14.2986925 59.2671281"></polygon>
            <path d="M20.5724905,58.2667335 C20.5724905,58.4937248 20.5321241,58.7084272 20.4513901,58.9108472 C20.3706561,59.1132672 20.2589172,59.2858482 20.1161702,59.4285953 C19.9359812,59.6064441 19.7242039,59.7409987 19.4808319,59.8322632 C19.2374598,59.9235278 18.9297392,59.9691593 18.5576608,59.9691593 L17.9679545,59.9691593 L17.9679545,61.917296 L17.2729436,61.917296 L17.2729436,56.6906734 L18.585742,56.6906734 C18.8946373,56.6906734 19.1578964,56.7164143 19.3755272,56.7678968 C19.593158,56.8193794 19.7850446,56.9024522 19.9511928,57.0171179 C20.1454224,57.1505045 20.2975277,57.3195754 20.4075131,57.5243355 C20.5174986,57.7290956 20.5724905,57.9765592 20.5724905,58.2667335 Z M19.8493983,58.2842843 C19.8493983,58.1040954 19.8183922,57.94731 19.7563791,57.8139234 C19.6943661,57.6805368 19.6001778,57.571723 19.4738116,57.4874789 C19.3638261,57.4149353 19.2357067,57.3634535 19.0894495,57.333032 C18.9431922,57.3026105 18.7612509,57.2874 18.5436202,57.2874 L17.9679545,57.2874 L17.9679545,59.3759429 L18.4418256,59.3759429 C18.7226395,59.3759429 18.9496274,59.3531271 19.1227959,59.3074949 C19.2959645,59.2618626 19.4398795,59.1805448 19.5545452,59.063539 C19.6575103,58.9582338 19.7323928,58.8435698 19.7791952,58.7195437 C19.8259975,58.5955176 19.8493983,58.4504326 19.8493983,58.2842843 Z" id="P" fill="#020302"></path>
            <path d="M27.3374602,59.3022296 C27.3374602,60.2406161 27.2011505,60.9291849 26.928527,61.3679566 C26.6559035,61.8067283 26.235274,62.0261109 25.6666258,62.0261109 C25.0909573,62.0261109 24.6685727,61.8026332 24.3994594,61.355671 C24.1303461,60.9087089 23.9957914,60.2265754 23.9957914,59.30925 C23.9957914,58.3661833 24.1321011,57.6764445 24.4047246,57.2400128 C24.6773481,56.8035812 25.0979777,56.5853687 25.6666258,56.5853687 C26.2422943,56.5853687 26.6646789,56.8111865 26.9337922,57.2628289 C27.2029055,57.7144712 27.3374602,58.3942647 27.3374602,59.3022296 Z M26.4388602,60.8958406 C26.5067236,60.722672 26.5546952,60.5038745 26.5827766,60.2394414 C26.610858,59.9750083 26.6248985,59.6626075 26.6248985,59.3022296 C26.6248985,58.9441919 26.610858,58.6329612 26.5827766,58.3685281 C26.5546952,58.104095 26.5055535,57.8841274 26.43535,57.7086187 C26.3651466,57.5307699 26.2686182,57.3956302 26.1457621,57.3031957 C26.0229061,57.2107611 25.8631955,57.1645445 25.6666258,57.1645445 C25.4723962,57.1645445 25.3126857,57.2107611 25.1874895,57.3031957 C25.0622933,57.3956302 24.9634249,57.53311 24.8908813,57.715639 C24.8206778,57.8934878 24.7727062,58.1181356 24.7469649,58.389589 C24.7212236,58.6610425 24.7083532,58.967593 24.7083532,59.30925 C24.7083532,59.674308 24.7194685,59.9796886 24.7416996,60.2254007 C24.7639307,60.4711129 24.8124874,60.6910805 24.8873711,60.8853101 C24.9552345,61.065499 25.0517628,61.2041488 25.176959,61.3012636 C25.3021552,61.3983784 25.4653759,61.4469351 25.6666258,61.4469351 C25.8608554,61.4469351 26.0205659,61.4007185 26.1457621,61.3082839 C26.2709583,61.2158494 26.3686567,61.0783696 26.4388602,60.8958406 Z M30.9954719,61.917296 L28.4470985,61.917296 L28.4470985,61.3837523 L29.3948407,61.3837523 L29.3948407,57.8806164 L28.4470985,57.8806164 L28.4470985,57.4032351 C28.8051362,57.4032351 29.0689803,57.3523384 29.2386387,57.2505433 C29.4082971,57.1487483 29.5036554,56.9562766 29.5247164,56.6731226 L30.0687907,56.6731226 L30.0687907,61.3837523 L30.9954719,61.3837523 L30.9954719,61.917296 Z M34.1585516,56.4554929 L32.1121305,63.0545867 L31.5189141,63.0545867 L33.5548047,56.4554929 L34.1585516,56.4554929 Z" id="-01/" fill="#020302"></path>
            <path d="M40.1887115,61.917296 L37.640338,61.917296 L37.640338,61.3837523 L38.5880802,61.3837523 L38.5880802,57.8806164 L37.640338,57.8806164 L37.640338,57.4032351 C37.9983758,57.4032351 38.2622199,57.3523384 38.4318783,57.2505433 C38.6015367,57.1487483 38.696895,56.9562766 38.717956,56.6731226 L39.2620302,56.6731226 L39.2620302,61.3837523 L40.1887115,61.3837523 L40.1887115,61.917296 Z M44.404838,61.917296 L41.1790044,61.917296 L41.1790044,61.1836734 C41.4106759,60.9637025 41.6294735,60.7530952 41.8354037,60.5518453 C42.0413339,60.3505953 42.2425808,60.1411581 42.4391505,59.9235273 C42.8369702,59.4859256 43.1084196,59.1354985 43.2535068,58.8722355 C43.398594,58.6089725 43.4711365,58.3369381 43.4711365,58.0561242 C43.4711365,57.911037 43.4483207,57.7835026 43.4026884,57.6735171 C43.3570562,57.5635317 43.294459,57.4722685 43.2148951,57.399725 C43.132991,57.3295215 43.0382177,57.2768697 42.9305724,57.2417679 C42.8229271,57.2066662 42.704753,57.1891156 42.5760466,57.1891156 C42.4520205,57.1891156 42.3262412,57.2049111 42.1987048,57.2365027 C42.0711685,57.2680943 41.9488993,57.3072906 41.8318935,57.3540929 C41.7336086,57.3938749 41.6388354,57.4418465 41.5475709,57.4980093 C41.4563063,57.5541721 41.3825938,57.6021438 41.326431,57.6419257 L41.2878193,57.6419257 L41.2878193,56.8977726 C41.4329065,56.825229 41.6347384,56.7544416 41.8933212,56.6854082 C42.151904,56.6163747 42.3970275,56.5818585 42.628699,56.5818585 C43.1154431,56.5818585 43.4968762,56.711148 43.7730099,56.9697308 C44.0491436,57.2283136 44.1872084,57.5787407 44.1872084,58.0210226 C44.1872084,58.2246127 44.1632225,58.4129892 44.1152501,58.5861578 C44.0672778,58.7593263 44.0011705,58.9196219 43.9169263,59.0670492 C43.830342,59.2191567 43.7262084,59.3700919 43.6045224,59.5198593 C43.4828364,59.6696267 43.3541319,59.8170518 43.2184052,59.962139 C42.9984343,60.2008308 42.7533109,60.4488794 42.4830275,60.7062921 C42.2127441,60.9637049 41.9968717,61.1672919 41.8354037,61.3170593 L44.404838,61.3170593 L44.404838,61.917296 Z M47.3011459,56.4554929 L45.2547248,63.0545867 L44.6615084,63.0545867 L46.697399,56.4554929 L47.3011459,56.4554929 Z" id="12/" fill="#020302"></path>
            <path d="M52.8344642,61.917296 L50.2860908,61.917296 L50.2860908,61.3837523 L51.233833,61.3837523 L51.233833,57.8806164 L50.2860908,57.8806164 L50.2860908,57.4032351 C50.6441285,57.4032351 50.9079726,57.3523384 51.077631,57.2505433 C51.2472894,57.1487483 51.3426477,56.9562766 51.3637087,56.6731226 L51.907783,56.6731226 L51.907783,61.3837523 L52.8344642,61.3837523 L52.8344642,61.917296 Z M56.3626001,58.838889 C56.3626001,58.4831914 56.329839,58.1936064 56.2643158,57.9701253 C56.1987925,57.7466443 56.1086994,57.5740633 55.9940337,57.4523773 C55.8910686,57.3400517 55.786935,57.2628291 55.6816298,57.220707 C55.5763246,57.1785849 55.4604906,57.1575242 55.3341244,57.1575242 C55.0462901,57.1575242 54.8169622,57.2604877 54.6461337,57.4664179 C54.4753053,57.6723481 54.3898923,57.9707084 54.3898923,58.3615078 C54.3898923,58.5814787 54.4179733,58.7628349 54.4741361,58.905582 C54.5302989,59.0483291 54.621562,59.1711833 54.7479283,59.2741484 C54.8368527,59.346692 54.9374761,59.3952487 55.0498017,59.4198199 C55.1621273,59.4443911 55.2826414,59.4566765 55.4113478,59.4566765 C55.5611152,59.4566765 55.7225808,59.4303506 55.8957494,59.377698 C56.0689179,59.3250454 56.2198531,59.255428 56.3485595,59.1688437 C56.3508996,59.133742 56.3538247,59.0875254 56.3573349,59.0301925 C56.3608451,58.9728597 56.3626001,58.9090925 56.3626001,58.838889 Z M53.6773306,58.389589 C53.6773306,58.1204757 53.7212071,57.8747672 53.8089615,57.6524562 C53.8967158,57.4301452 54.016645,57.2382586 54.1687525,57.0767906 C54.3138397,56.9223429 54.4911008,56.8018288 54.7005412,56.7152445 C54.9099815,56.6286602 55.1223439,56.5853687 55.3376345,56.5853687 C55.5786665,56.5853687 55.796879,56.6257351 55.9922787,56.7064691 C56.1876783,56.7872031 56.3567492,56.9036221 56.4994962,57.0557296 C56.6796852,57.2476191 56.819505,57.4991778 56.9189599,57.8104132 C57.0184148,58.1216486 57.0681415,58.5147822 57.0681415,58.9898257 C57.0681415,59.4227472 57.0195849,59.8328463 56.9224701,60.2201355 C56.8253553,60.6074247 56.6820253,60.9286008 56.4924759,61.1836734 C56.291226,61.4551268 56.0496126,61.662224 55.7676287,61.804971 C55.4856447,61.9477181 55.1375577,62.0190906 54.7233572,62.0190906 C54.6297525,62.0190906 54.5302991,62.0138254 54.4249939,62.0032949 C54.3196887,61.9927644 54.2214053,61.9734587 54.1301408,61.9453773 L54.1301408,61.2749375 L54.1652423,61.2749375 C54.2237452,61.3076991 54.3150084,61.3392902 54.4390345,61.3697117 C54.5630607,61.4001332 54.689425,61.4153437 54.8181314,61.4153437 C55.2767941,61.4153437 55.6371665,61.2644085 55.8992595,60.9625335 C56.1613525,60.6606586 56.3099476,60.2289137 56.3450494,59.6672859 C56.1578401,59.7936521 55.9794089,59.8860853 55.8097505,59.9445882 C55.6400921,60.0030911 55.4558108,60.0323421 55.2569009,60.0323421 C55.0626713,60.0323421 54.8859952,60.0112814 54.7268673,59.9691593 C54.5677395,59.9270372 54.4074439,59.8451344 54.2459759,59.7234484 C54.0587667,59.5807013 53.9171918,59.3999301 53.821247,59.1811293 C53.7253023,58.9623284 53.6773306,58.6984843 53.6773306,58.389589 Z M60.9402728,60.253482 C60.9402728,60.5062145 60.8999064,60.7402226 60.8191724,60.9555132 C60.7384384,61.1708039 60.6255295,61.3568403 60.4804423,61.5136281 C60.333015,61.672756 60.1499037,61.7979503 59.9311029,61.8892148 C59.712302,61.9804793 59.4671786,62.0261109 59.1957251,62.0261109 C58.9453327,62.0261109 58.6990392,61.9986149 58.4568373,61.9436222 C58.2146353,61.8886295 58.004613,61.816672 57.8267642,61.7277476 L57.8267642,60.9871046 L57.8759064,60.9871046 C57.9297291,61.0268866 58.0069517,61.0719332 58.1075767,61.1222457 C58.2082017,61.1725581 58.3193555,61.2199448 58.4410415,61.264407 C58.5791084,61.3135494 58.7054727,61.3515757 58.8201384,61.3784871 C58.9348041,61.4053984 59.0635085,61.4188539 59.2062556,61.4188539 C59.3466626,61.4188539 59.4835573,61.393698 59.6169439,61.3433855 C59.7503305,61.293073 59.8649945,61.2117552 59.9609392,61.0994296 C60.0475235,60.9964645 60.1136308,60.8759504 60.159263,60.7378835 C60.2048953,60.5998167 60.2277111,60.4371811 60.2277111,60.2499718 C60.2277111,60.0651027 60.2025552,59.9129974 60.1522427,59.7936515 C60.1019302,59.6743056 60.0288027,59.5760222 59.932858,59.4987984 C59.832233,59.409874 59.7087937,59.3472768 59.5625365,59.311005 C59.4162792,59.2747332 59.2530586,59.2565976 59.0728697,59.2565976 C58.8833203,59.2565976 58.6926037,59.2712231 58.5007142,59.3004746 C58.3088247,59.329726 58.1555494,59.357222 58.0408837,59.3829632 L58.0408837,56.6906734 L60.9086814,56.6906734 L60.9086814,57.3049507 L58.7183439,57.3049507 L58.7183439,58.6949726 C58.8025881,58.6856121 58.8856609,58.6785919 58.967565,58.6739117 C59.049469,58.6692314 59.1243516,58.6668914 59.192215,58.6668914 C59.4589882,58.6668914 59.684806,58.6891221 59.8696751,58.7335843 C60.0545443,58.7780465 60.2323904,58.8646295 60.4032189,58.9933359 C60.5763875,59.1243824 60.709187,59.288188 60.8016216,59.4847578 C60.8940562,59.6813275 60.9402728,59.9375663 60.9402728,60.253482 Z M65.0300337,60.2218906 C65.0300337,60.4910039 64.9855722,60.7390525 64.8966478,60.9660437 C64.8077234,61.1930349 64.6883793,61.3825815 64.5386119,61.534689 C64.3818241,61.696157 64.206318,61.8184262 64.0120884,61.9015003 C63.8178588,61.9845745 63.6037414,62.0261109 63.3697298,62.0261109 C63.1333781,62.0261109 62.9186757,61.9863295 62.7256162,61.9067656 C62.5325566,61.8272016 62.3623157,61.7090276 62.2148884,61.5522398 C62.0346995,61.3626904 61.8937096,61.1093767 61.7919146,60.792291 C61.6901196,60.4752053 61.6392228,60.0849968 61.6392228,59.6216539 C61.6392228,59.1676714 61.6860244,58.7575722 61.779629,58.3913441 C61.8732337,58.025116 62.0171487,57.70628 62.2113783,57.4348265 C62.4009277,57.1703934 62.6454661,56.9638813 62.9450009,56.8152839 C63.2445358,56.6666866 63.5908677,56.592389 63.9840072,56.592389 C64.101013,56.592389 64.2098267,56.5982392 64.3104517,56.6099398 C64.4110767,56.6216404 64.4999998,56.640361 64.5772236,56.6661023 L64.5772236,57.3365421 L64.5456322,57.3365421 C64.482449,57.3014404 64.3911859,57.2692643 64.27184,57.2400128 C64.1524941,57.2107614 64.0249597,57.1961359 63.889233,57.1961359 C63.4539714,57.1961359 63.1023743,57.342976 62.834431,57.6366605 C62.5664877,57.930345 62.4079473,58.3661851 62.3588048,58.9441937 C62.5249531,58.8271879 62.695779,58.7370948 62.8712876,58.6739117 C63.0467963,58.6107285 63.238683,58.5791375 63.4469533,58.5791375 C63.6505433,58.5791375 63.8289745,58.5996132 63.9822521,58.6405652 C64.1355297,58.6815172 64.2952402,58.7640051 64.4613884,58.8880312 C64.6532779,59.0331184 64.7960229,59.2168147 64.8896275,59.4391257 C64.9832321,59.6614367 65.0300337,59.9223557 65.0300337,60.2218906 Z M64.317472,60.2499718 C64.317472,60.0346812 64.289391,59.854495 64.2332283,59.7094078 C64.1770655,59.5643206 64.0858023,59.4402963 63.9594361,59.3373312 C63.8681716,59.2624475 63.764623,59.2133058 63.6487873,59.1899046 C63.5329515,59.1665035 63.4141924,59.1548031 63.2925064,59.1548031 C63.1286983,59.1548031 62.9695728,59.1793739 62.8151251,59.2285164 C62.6606775,59.2776588 62.5085722,59.3490313 62.3588048,59.4426359 C62.3541246,59.4941184 62.3506145,59.5438452 62.3482744,59.5918175 C62.3459342,59.6397899 62.3447642,59.700047 62.3447642,59.7725906 C62.3447642,60.1353085 62.3804504,60.4278186 62.451824,60.6501296 C62.5231975,60.8724406 62.6115356,61.0409265 62.7168408,61.1555921 C62.8174657,61.2655776 62.9210143,61.3428003 63.0274896,61.3872625 C63.1339649,61.4317247 63.2492138,61.4539554 63.37324,61.4539554 C63.6540539,61.4539554 63.8816267,61.353332 64.0559654,61.152082 C64.230304,60.950832 64.317472,60.6501316 64.317472,60.2499718 Z" id="1956" fill="#020302"></path>
        </g>
    </g>
</svg>