<?xml version="1.0" encoding="UTF-8"?>
<svg width="101px" height="42px" viewBox="0 0 101 42" version="1.1" xmlns="http://www.w3.org/2000/svg" xmlns:xlink="http://www.w3.org/1999/xlink">
    <!-- Generator: Sketch 42 (36781) - http://www.bohemiancoding.com/sketch -->
    <title>1961</title>
    <desc>Created with Sketch.</desc>
    <defs></defs>
    <g id="Page-1" stroke="none" stroke-width="1" fill="none" fill-rule="evenodd">
        <path d="M22.0022945,3.0859375 C22.0022945,5.29949023 19.3004986,11.1750825 13.8968258,20.7128906 C8.29783946,30.5436689 5.40073302,36.7610547 5.20541954,39.3652344 C5.17286729,39.6907568 5.10776378,40.1627573 5.01010704,40.78125 C4.94500255,41.0091157 4.89617491,41.1230469 4.86362267,41.1230469 C3.59408507,41.1230469 2.69891173,40.9602881 2.17807579,40.6347656 C0.810881454,39.7884072 0.12729454,38.3235781 0.12729454,36.2402344 C0.12729454,33.9941294 1.38053722,30.5761948 3.88706017,25.9863281 C4.96128429,24.0006411 7.33756261,20.1432578 11.0159664,14.4140625 C9.48601085,15.2278687 8.07000938,15.6347656 6.76791954,15.6347656 C4.74968028,15.6347656 3.74057579,14.9023511 3.74057579,13.4375 C3.74057579,12.9166641 4.27767979,12.249353 5.35190392,11.4355469 C6.3284713,10.7519497 7.97233507,9.49870703 10.2835445,7.67578125 C15.2314859,3.541646 18.5029376,1.47460938 20.0979977,1.47460938 C21.3675353,1.47460938 22.0022945,2.01171338 22.0022945,3.0859375 Z M50.3693113,11.09375 C50.3693113,17.7344082 48.4162059,24.0657251 44.5099363,30.0878906 C40.1153831,36.8913101 34.7606189,40.2929688 28.4454832,40.2929688 C26.8178709,40.2929688 25.3530418,39.6744854 24.050952,38.4375 C22.9116233,37.3307236 22.3419676,36.3541709 22.3419676,35.5078125 C22.3419676,34.7265586 22.6023816,34.3359375 23.1232176,34.3359375 C23.4812923,34.3359375 24.0265342,34.4173169 24.7589598,34.5800781 C25.4913853,34.7428394 26.0366273,34.8242188 26.394702,34.8242188 C30.8218074,34.8242188 34.3536731,32.4967681 36.9904051,27.8417969 C37.2833753,27.3535132 37.7553758,26.3769604 38.4064207,24.9121094 C37.3973011,25.0097661 36.5672313,25.0585938 35.9161863,25.0585938 C30.9356927,25.0585938 28.4454832,22.6985913 28.4454832,17.9785156 C28.4454832,14.1047983 29.9428641,10.3287944 32.9376707,6.65039062 C36.1603431,2.6790166 39.7410364,0.693359375 43.6798582,0.693359375 C45.502784,0.693359375 47.0327166,1.55598096 48.269702,3.28125 C49.6694485,5.20183252 50.3693113,7.80597314 50.3693113,11.09375 Z M43.7286863,10.8496094 C43.7286863,9.87304199 43.5170999,9.04297217 43.0939207,8.359375 C42.7683982,7.80598682 42.4754324,7.52929688 42.2150145,7.52929688 C40.9780291,7.52929688 39.6027173,8.55467725 38.0890379,10.6054688 C36.5753585,12.6562603 35.8185301,14.6581934 35.8185301,16.6113281 C35.8185301,18.9550898 36.7137034,20.1269531 38.504077,20.1269531 C40.0665848,20.1269531 41.384931,18.938814 42.4591551,16.5625 C43.3055135,14.6093652 43.7286863,12.7050874 43.7286863,10.8496094 Z M77.6621094,2.5 C77.6621094,3.11849268 76.9785225,3.42773438 75.6113281,3.42773438 C72.8443872,3.42773438 69.9635566,5.25063281 66.96875,8.89648438 C64.722645,11.630873 63.5996094,13.925772 63.5996094,15.78125 C63.5996094,15.9765635 63.6158853,16.1555981 63.6484375,16.3183594 C65.5364678,15.1464785 67.1803315,14.5605469 68.5800781,14.5605469 C72.4863477,14.5605469 74.4394531,17.2948945 74.4394531,22.7636719 C74.4394531,27.4511953 73.0722793,31.6015444 70.3378906,35.2148438 C67.7662632,38.6328296 65.0156396,40.3417969 62.0859375,40.3417969 C59.0585786,40.3417969 56.7311279,39.0071748 55.1035156,36.3378906 C53.7363213,34.0266812 53.0527344,31.1132988 53.0527344,27.5976562 C53.0527344,20.1757441 55.2337021,13.5677373 59.5957031,7.7734375 C63.5019727,2.63018262 68.0754946,0.05859375 73.3164062,0.05859375 C74.2604214,0.05859375 75.2206982,0.343421631 76.1972656,0.913085938 C77.173833,1.48275024 77.6621094,2.01171631 77.6621094,2.5 Z M67.5546875,23.7890625 C67.5546875,22.5520771 67.3105493,21.7057314 66.8222656,21.25 C66.4967432,20.9570298 65.9596392,20.8105469 65.2109375,20.8105469 C63.4856685,20.8105469 62.0533911,21.6243408 60.9140625,23.2519531 C59.9374951,24.6516997 59.4492188,26.1490806 59.4492188,27.7441406 C59.4492188,30.7714995 60.2792886,32.2851562 61.9394531,32.2851562 C62.9485728,32.2851562 64.120436,31.4225347 65.4550781,29.6972656 C66.8548247,27.7766831 67.5546875,25.8073018 67.5546875,23.7890625 Z M100.46272,3.0859375 C100.46272,5.29949023 97.760924,11.1750825 92.3572512,20.7128906 C86.7582648,30.5436689 83.8611584,36.7610547 83.6658449,39.3652344 C83.6332927,39.6907568 83.5681892,40.1627573 83.4705324,40.78125 C83.4054279,41.0091157 83.3566003,41.1230469 83.324048,41.1230469 C82.0545104,41.1230469 81.1593371,40.9602881 80.6385012,40.6347656 C79.2713068,39.7884072 78.5877199,38.3235781 78.5877199,36.2402344 C78.5877199,33.9941294 79.8409626,30.5761948 82.3474855,25.9863281 C83.4217097,24.0006411 85.797988,20.1432578 89.4763918,14.4140625 C87.9464362,15.2278687 86.5304348,15.6347656 85.2283449,15.6347656 C83.2101057,15.6347656 82.2010012,14.9023511 82.2010012,13.4375 C82.2010012,12.9166641 82.7381052,12.249353 83.8123293,11.4355469 C84.7888967,10.7519497 86.4327604,9.49870703 88.7439699,7.67578125 C93.6919113,3.541646 96.963363,1.47460938 98.558423,1.47460938 C99.8279606,1.47460938 100.46272,2.01171338 100.46272,3.0859375 Z" id="1961" fill="#0052A1"></path>
    </g>
</svg>