<?xml version="1.0" encoding="UTF-8"?>
<svg width="104px" height="42px" viewBox="0 0 104 42" version="1.1" xmlns="http://www.w3.org/2000/svg" xmlns:xlink="http://www.w3.org/1999/xlink">
    <!-- Generator: Sketch 42 (36781) - http://www.bohemiancoding.com/sketch -->
    <title>1951</title>
    <desc>Created with Sketch.</desc>
    <defs></defs>
    <g id="Page-1" stroke="none" stroke-width="1" fill="none" fill-rule="evenodd">
        <path d="M22.7571774,3.0859375 C22.7571774,5.29949023 20.0553815,11.1750825 14.6517086,20.7128906 C9.05272227,30.5436689 6.15561583,36.7610547 5.96030235,39.3652344 C5.92775011,39.6907568 5.86264659,40.1627573 5.76498985,40.78125 C5.69988536,41.0091157 5.65105772,41.1230469 5.61850548,41.1230469 C4.34896788,41.1230469 3.45379454,40.9602881 2.9329586,40.6347656 C1.56576427,39.7884072 0.882177353,38.3235781 0.882177353,36.2402344 C0.882177353,33.9941294 2.13542003,30.5761948 4.64194298,25.9863281 C5.7161671,24.0006411 8.09244542,20.1432578 11.7708492,14.4140625 C10.2408937,15.2278687 8.8248922,15.6347656 7.52280235,15.6347656 C5.5045631,15.6347656 4.4954586,14.9023511 4.4954586,13.4375 C4.4954586,12.9166641 5.03256261,12.249353 6.10678673,11.4355469 C7.08335411,10.7519497 8.72721788,9.49870703 11.0384274,7.67578125 C15.9863688,3.541646 19.2578204,1.47460938 20.8528805,1.47460938 C22.1224181,1.47460938 22.7571774,2.01171338 22.7571774,3.0859375 Z M51.1241941,11.09375 C51.1241941,17.7344082 49.1710887,24.0657251 45.2648191,30.0878906 C40.8702659,36.8913101 35.5155018,40.2929688 29.200366,40.2929688 C27.5727537,40.2929688 26.1079246,39.6744854 24.8058348,38.4375 C23.6665062,37.3307236 23.0968504,36.3541709 23.0968504,35.5078125 C23.0968504,34.7265586 23.3572645,34.3359375 23.8781004,34.3359375 C24.2361751,34.3359375 24.781417,34.4173169 25.5138426,34.5800781 C26.2462681,34.7428394 26.7915101,34.8242188 27.1495848,34.8242188 C31.5766902,34.8242188 35.108556,32.4967681 37.7452879,27.8417969 C38.0382581,27.3535132 38.5102586,26.3769604 39.1613035,24.9121094 C38.1521839,25.0097661 37.3221141,25.0585938 36.6710691,25.0585938 C31.6905755,25.0585938 29.200366,22.6985913 29.200366,17.9785156 C29.200366,14.1047983 30.6977469,10.3287944 33.6925535,6.65039062 C36.9152259,2.6790166 40.4959192,0.693359375 44.434741,0.693359375 C46.2576668,0.693359375 47.7875994,1.55598096 49.0245848,3.28125 C50.4243314,5.20183252 51.1241941,7.80597314 51.1241941,11.09375 Z M44.4835691,10.8496094 C44.4835691,9.87304199 44.2719827,9.04297217 43.8488035,8.359375 C43.5232811,7.80598682 43.2303152,7.52929688 42.9698973,7.52929688 C41.7329119,7.52929688 40.3576002,8.55467725 38.8439207,10.6054688 C37.3302413,12.6562603 36.5734129,14.6581934 36.5734129,16.6113281 C36.5734129,18.9550898 37.4685862,20.1269531 39.2589598,20.1269531 C40.8214676,20.1269531 42.1398138,18.938814 43.2140379,16.5625 C44.0603963,14.6093652 44.4835691,12.7050874 44.4835691,10.8496094 Z M83.2509766,2.79296875 C83.2509766,4.16016309 82.3069756,5.51106104 80.4189453,6.84570312 C78.4658105,8.27800195 76.382498,8.99414062 74.1689453,8.99414062 C72.4762285,8.99414062 71.0113994,8.88020947 69.7744141,8.65234375 C68.4072197,11.3541802 67.2353564,13.9745967 66.2587891,16.5136719 C67.2679087,16.1881494 68.3421167,16.0253906 69.4814453,16.0253906 C74.1689687,16.0253906 76.5126953,18.5481519 76.5126953,23.59375 C76.5126953,28.9974229 74.3642793,33.3430825 70.0673828,36.6308594 C66.7145015,39.2024868 63.3779463,40.4882812 60.0576172,40.4882812 C57.0628105,40.4882812 54.8004634,39.7233149 53.2705078,38.1933594 C52.0660747,36.9889263 51.4638672,35.4752695 51.4638672,33.6523438 C51.4638672,31.308582 52.0335229,29.4531318 53.1728516,28.0859375 C54.01921,27.0768179 54.8818315,26.5722656 55.7607422,26.5722656 C56.2164736,26.5722656 56.4443359,26.7675762 56.4443359,27.1582031 C56.4443359,27.3209644 56.4117842,27.5976543 56.3466797,27.9882812 L56.2978516,28.4765625 C56.2652993,28.6067715 56.2490234,28.7695303 56.2490234,28.9648438 C56.2490234,30.0716201 56.851231,31.031897 58.0556641,31.8457031 C59.1298882,32.5618525 60.2203721,32.9199219 61.3271484,32.9199219 C63.3779399,32.9199219 65.2903557,32.1712314 67.0644531,30.6738281 C68.8385505,29.1764248 69.7255859,27.4674575 69.7255859,25.546875 C69.7255859,24.5052031 69.4163442,23.5937539 68.7978516,22.8125 C68.1793589,22.0312461 67.4143926,21.640625 66.5029297,21.640625 C66.3076162,21.640625 65.1032012,21.9824185 62.8896484,22.6660156 C62.5315737,22.7962246 62.2386079,22.8613281 62.0107422,22.8613281 C60.1878164,22.8613281 59.2763672,21.9498789 59.2763672,20.1269531 C59.2763672,19.2480425 60.2203682,16.2532808 62.1083984,11.1425781 C63.3453838,7.82224902 64.38704,4.87631494 65.2333984,2.3046875 C65.4287119,1.71874707 65.6565742,1.11653955 65.9169922,0.498046875 C66.3401714,0.0423154297 66.8935513,0.0260395508 67.5771484,0.44921875 C69.5302832,1.55599512 72.2809067,2.109375 75.8291016,2.109375 C77.4241616,2.109375 79.116853,1.73502979 80.9072266,0.986328125 C81.1676445,0.856119141 81.3955068,0.791015625 81.5908203,0.791015625 C82.6975967,0.791015625 83.2509766,1.45832666 83.2509766,2.79296875 Z M103.707837,3.0859375 C103.707837,5.29949023 101.006041,11.1750825 95.6023684,20.7128906 C90.003382,30.5436689 87.1062756,36.7610547 86.9109621,39.3652344 C86.8784099,39.6907568 86.8133063,40.1627573 86.7156496,40.78125 C86.6505451,41.0091157 86.6017175,41.1230469 86.5691652,41.1230469 C85.2996276,41.1230469 84.4044543,40.9602881 83.8836184,40.6347656 C82.516424,39.7884072 81.8328371,38.3235781 81.8328371,36.2402344 C81.8328371,33.9941294 83.0860798,30.5761948 85.5926027,25.9863281 C86.6668269,24.0006411 89.0431052,20.1432578 92.721509,14.4140625 C91.1915534,15.2278687 89.7755519,15.6347656 88.4734621,15.6347656 C86.4552228,15.6347656 85.4461184,14.9023511 85.4461184,13.4375 C85.4461184,12.9166641 85.9832224,12.249353 87.0574465,11.4355469 C88.0340139,10.7519497 89.6778776,9.49870703 91.9890871,7.67578125 C96.9370285,3.541646 100.20848,1.47460938 101.80354,1.47460938 C103.073078,1.47460938 103.707837,2.01171338 103.707837,3.0859375 Z" id="1951" fill="#0052A1"></path>
    </g>
</svg>